12-02_current/withoutR/trace.csv

#Digilent WaveForms Oscilloscope Acquisition
#Device Name: ADP3450
#Serial Number: SN:210018B48834
#Date Time: 2025-12-02 16:30:41.859.928.770
#Sample rate: 1e+08Hz
#Samples: 32768
#Trigger: Source: Channel 3 Type: Edge Condition: Rising Level: 790 uV Hyst.: Auto HoldOff: 100 ns
#Channel 1: Range: 1 V/div Offset: 0 V Attenuation: 1 X Coupling: DC Bandwidth: Full Sample Mode: Average
#Channel 2: Range: 100 mV/div Offset: 0 V Attenuation: 1 X Coupling: DC Bandwidth: Full Sample Mode: Average
#Channel 3: Range: 500 mV/div Offset: 0 V Attenuation: 1 X Coupling: DC Bandwidth: Full Sample Mode: Average
#Channel 4: Range: 1 V/div Offset: 0 V Attenuation: 10 X Coupling: DC Bandwidth: Full Sample Mode: Average

Time (s),Channel 1 (V),Channel 2 (V),Channel 3 (V),Channel 4 (V)
-0.00015946,1.02667694586178,0.1266232697066954,-0.4266663316353216,1.241471465083751
-0.00015945,1.016789592140618,0.1286293174518808,-0.4133105168830072,1.233587367028064
-0.00015944,1.020085376714351,0.1296992095826487,-0.4400221463876299,1.22176121994452
-0.00015943,1.02667694586178,0.1310365747461032,-0.4366831926995574,1.215191138231459
-0.00015942,1.010198022993178,0.133711305073017,-0.4166494705710858,1.200736958462699
-0.00015941,1.02667694586178,0.1359848258508937,-0.4266663316353216,1.192852860407011
-0.0001594,1.013493807566898,0.1370547179816592,-0.423327377947243,1.188910811379167
-0.00015939,1.016789592140612,0.1387932926941501,-0.436683192699533,1.179712696980882
-0.00015938,1.016789592140642,0.1401306578576104,-0.419988424259134,1.166572533554712
-0.00015937,1.0299727304355,0.1402643943739558,-0.4032936558187714,1.162630484526875
-0.00015936,1.03656429958294,0.1420029690864498,-0.3932767947545356,1.154746386471188
-0.00015935,1.0299727304355,0.1440090168316351,-0.3932767947545356,1.140292206702427
-0.00015934,1.026676945861786,0.1465500106421986,-0.3966157484426082,1.124524010591081
-0.00015933,1.023381161288041,0.1473524297402818,-0.389937841066451,1.11532589619274
-0.00015932,1.013493807566898,0.1497596870344998,-0.3865988873783784,1.110069830822292
-0.00015931,1.006902238419457,0.1508295791652653,-0.3699041189379855,1.100871716423989
-0.0001593,1.010198022993178,0.1512307887143024,-0.3632262115618283,1.092987618368302
-0.00015929,1.029972730435464,0.1525681538777568,-0.3765820263141183,1.078533438599567
-0.00015928,1.020085376714315,0.1545742016229449,-0.3799209800021909,1.066707291515988
-0.00015927,1.006902238419457,0.1547079381392903,-0.3632262115618283,1.054881144432478
-0.00015926,1.000310669272016,0.1568477224008213,-0.3799209800022212,1.054881144432478
-0.00015925,1.016789592140618,0.1576501414988955,-0.373243072626064,1.041740981006333
-0.00015924,1.016789592140618,0.1600573987931179,-0.3598872578737496,1.029914833922801
-0.00015923,1.023381161288083,0.1609935544075407,-0.336514582057242,1.025972784894938
-0.00015922,1.03656429958294,0.162598392603686,-0.3598872578737496,1.015460654154041
-0.00015921,1.020085376714339,0.1646044403488714,-0.3532093504975924,0.9983784417000507
-0.0001592,1.02667694586178,0.1648719133815628,-0.3365145820571995,0.987866310959134
-0.00015919,1.020085376714339,0.1670116976430938,-0.3331756283691209,0.9839242619312902
-0.00015918,1.010198022993195,0.1684827993228937,-0.3198198136168308,0.9734121311903925
-0.00015917,1.020085376714339,0.1696864279700076,-0.3431924894333567,0.9602719677642274
-0.00015916,1.000310669272016,0.1708900566171188,-0.3465314431214353,0.9563299187363836
-0.00015915,1.010198022993178,0.1727623678459584,-0.3198198136168065,0.9431897553102376
-0.00015914,1.02667694586178,0.1743672060421067,-0.3264977209929637,0.9247935265136333
-0.00015913,1.013493807566922,0.1759720442382521,-0.3331756283691087,0.9142813957727356
-0.00015912,1.023381161288047,0.1759720442382572,-0.3331756283691027,0.9090253304022342
-0.00015911,1.016789592140618,0.1771756728853662,-0.3231587673048851,0.8958851669761122
-0.0001591,1.02667694586178,0.1790479841142059,-0.2997860914883349,0.8801169708647369
-0.00015909,1.03326851500922,0.1787805110815145,-0.3098029525525707,0.8748609054942785
-0.00015908,1.013493807566934,0.181321504892078,-0.3031250451764257,0.8630347584107687
-0.00015907,0.9937191001246296,0.1822576605065051,-0.3164808599287219,0.8525226276698209
-0.00015906,1.023381161288059,0.183728762186305,-0.3131419062406493,0.847266562299372
-0.00015905,1.006902238419457,0.1847986543170705,-0.2830913230479419,0.8249282844749238
-0.00015904,1.016789592140618,0.1850661273497619,-0.2964471378002563,0.8236142681323093
-0.00015903,1.016789592140618,0.1866709655459073,-0.2997860914883289,0.8025900066505138
-0.00015902,1.003606453845773,0.1872059116112968,-0.2997860914882742,0.7920778759095589
-0.00015901,1.023381161288059,0.189345695872824,-0.266396554607549,0.7920778759095589
-0.000159,1.023381161288059,0.1897469054218611,-0.2764134156717847,0.7749956634555691
-0.00015899,0.9904233155508553,0.1912180071016636,-0.2563796935433132,0.7631695163720378
-0.00015898,1.000310669272016,0.1925553722651206,-0.2697355082956275,0.7526573856311209
-0.00015897,1.020085376714303,0.1930903183305023,-0.2897692304240627,0.74608730391806
-0.00015896,1.03656429958294,0.1946951565266516,-0.266396554607549,0.732947140491902
-0.00015895,1.02667694586178,0.1958987851737628,-0.266396554607549,0.713236895352683
-0.00015894,1.023381161288059,0.1968349407881826,-0.2931081841121777,0.7092948463248392
-0.00015893,1.003606453845737,0.1977710964026025,-0.2563796935433132,0.7027247646117663
-0.00015892,1.006902238419451,0.1979048329189479,-0.236345971414878,0.694840666556093
-0.00015891,1.016789592140618,0.2000446171804797,-0.256379693543295,0.6777584541020794
-0.0001589,1.016789592140618,0.2003120902131706,-0.2463628324790774,0.6725023887316305
-0.00015889,1.03326851500922,0.2023181379583559,-0.2597186472313918,0.6462220618793385
-0.00015888,1.020085376714339,0.2028530840237387,-0.2430238787909988,0.6383379638236509
-0.00015887,1.026676945861768,0.2040567126708477,-0.2463628324790713,0.63176788211059
-0.00015886,1.010198022993154,0.2047253952525808,-0.2396849251029384,0.6120576369713326
-0.00015885,0.997014884698296,0.2060627604160352,-0.249701786167156,0.5976034572025984
-0.00015884,1.013493807566898,0.2078013351285292,-0.2363459714148416,0.5884053428042962
-0.00015883,1.000310669272016,0.2079350716448749,-0.233007017726763,0.5870913264616816
-0.00015882,1.01019802299316,0.2091387002919839,-0.233007017726763,0.5739511630355595
-0.00015881,1.023381161288047,0.2108772750044798,-0.2363459714148052,0.5555549342389144
-0.0001588,1.016789592140618,0.2107435384881344,-0.21631224928637,0.5463568198406291
-0.00015879,1.010198022993178,0.2115459575862085,-0.1929395734698199,0.5411007544701707
-0.00015878,1.006902238419457,0.212615849716974,-0.1896006197817413,0.5187624766457225
-0.00015877,1.010198022993178,0.2131507957823568,-0.1929395734698199,0.5095643622474203
-0.00015876,1.016789592140606,0.2148893704948476,-0.2163122492863275,0.4964241988212982
-0.00015875,1.013493807566898,0.2159592626256163,-0.2029564345340556,0.4885401007655867
-0.00015874,1.010198022993178,0.2171628912727275,-0.199617480845977,0.4714578883115969
-0.00015873,0.9904233155508553,0.2176978373381103,-0.1695668976532697,0.464887806598524
-0.00015872,1.020085376714339,0.2185002564361844,-0.1862616660936627,0.4570037085428363
-0.00015871,1.000310669272052,0.219570148566948,-0.1829227124055901,0.4425495287741021
-0.0001587,0.9838317464034505,0.221041250246752,-0.1495331755248649,0.4280953490052793
-0.00015869,1.003606453845737,0.2207737772140611,-0.1862616660936627,0.4083851038660962
-0.00015868,1.006902238419457,0.2219774058611723,-0.1562110829009553,0.3978729731251794
-0.00015867,1.013493807566898,0.2215761963121353,-0.1862616660936627,0.3860468260416481
-0.00015866,1.033268515009184,0.2225123519265534,-0.1729058513413726,0.3768487116433626
-0.00015865,0.997014884698326,0.2238497170900137,-0.1628889902770821,0.367650597245015
-0.00015864,1.013493807566898,0.2247858727044318,-0.1461942218367195,0.3518824011336685
-0.00015863,1.010198022993178,0.2257220283188517,-0.1194825923320907,0.3505683847910539
-0.00015862,1.020085376714339,0.2253208187698146,-0.1495331755247981,0.3334861723370641
-0.00015861,1.010198022993195,0.22692565696596,-0.136177360772508,0.313775927197881
-0.0001586,1.010198022993154,0.2270593934823069,-0.1328384070843869,0.2966937147438435
-0.00015859,0.997014884698296,0.2261232378678887,-0.1228215460201693,0.2901236330307824
-0.00015858,1.010198022993178,0.2283967586457654,-0.1228215460201693,0.3137759271978451
-0.00015857,1.010198022993178,0.2271931299986542,-0.1194825923320907,0.2769834696046364
-0.00015856,1.003606453845737,0.2286642316784568,-0.1395163144605623,0.2612152734932612
-0.00015855,1.010198022993207,0.2320076445870971,-0.1161436386439939,0.2349349466409884
-0.00015854,1.02667694586178,0.2309377524563336,-0.1061267775797763,0.2454470773818861
-0.00015853,0.9937191001245756,0.2321413811034448,-0.1294994533963265,0.2152247015017504
-0.00015852,0.9904233155508553,0.2317401715544077,-0.1161436386440121,0.2073406034460628
-0.00015851,1.006902238419457,0.2314726985217163,-0.1094657312678549,0.2047125707608335
-0.0001585,1.010198022993172,0.2336124827832435,-0.09610991651556486,0.1876303583068749
-0.00015849,0.997014884698314,0.2337462192995938,-0.08275410176324439,0.1797462602511395
-0.00015848,1.006902238419457,0.2341474288486301,-0.09277096282746196,0.170548145852854
-0.00015847,1.016789592140618,0.2344149018813215,-0.08275410176322617,0.1547799497414788
-0.00015846,1.013493807566898,0.2342811653649758,-0.07607619438706897,0.1403257699727183
-0.00015845,0.997014884698326,0.234949847946703,-0.08275410176321403,0.125871590203984
-0.00015844,0.99701488469829,0.2353510574957445,-0.07607619438703253,0.1087893777499511
-0.00015843,0.9937191001245756,0.2370896322082353,-0.0560424722585974,0.09959126335166571
-0.00015842,1.016789592140618,0.2366884226591982,-0.07607619438706897,0.08382306724029054
-0.00015841,1.020085376714339,0.2373571052409267,-0.0560424722585974,0.07856700186983215
-0.0001584,1.010198022993195,0.237758314789963,-0.05938142594666992,0.0719969201567711
-0.00015839,0.997014884698308,0.238159524339002,-0.0527035185705188,0.05885675673059166
-0.00015838,1.003606453845737,0.2388282069207293,-0.0527035185705188,0.04703060964708178
-0.00015837,1.023381161288059,0.239363152986112,-0.03934770381820442,0.02863438085047742
-0.00015836,1.013493807566898,0.2397643625351491,-0.04602561119436161,0.02206429913740442
-0.00015835,1.000310669272016,0.2394968895024577,-0.04602561119436161,0.002354053998185454
-0.00015834,1.010198022993154,0.2407005181495696,-0.02933084275395648,-0.004216027714906659
-0.00015833,0.997014884698296,0.241101727698606,-0.02265293537781144,-0.01472815845580432
-0.00015832,0.997014884698296,0.2421716198293715,-0.01931398168973284,-0.0265543055393357
-0.00015831,0.997014884698296,0.2416366737639888,-0.005958166937418456,-0.04100848530809628
-0.0001583,1.003606453845737,0.2424390928620629,0.0007197404387387363,-0.04626455067855467
-0.00015829,1.003606453845737,0.2416366737639902,-0.02599188906584144,-0.07254487753079883
-0.00015828,0.9805359618296942,0.2421716198293715,0.0007197404387387363,-0.06597479581777366
-0.00015827,0.9739443926822533,0.2436427215091741,-0.01931398168973284,-0.07648692655869044
-0.00015826,1.000310669272016,0.243241511960137,-0.01263607431357565,-0.1053952860962116
-0.00015825,0.997014884698296,0.2444451406072482,0.01407555519105312,-0.104081269753597
-0.00015824,1.016789592140583,0.2443114040909028,0.02075346256719817,-0.1237915148927801
-0.00015823,0.997014884698326,0.2444451406072507,0.004058694126841626,-0.1329896292911373
-0.00015822,1.013493807566898,0.2457825057707051,0.01741450887913172,-0.1435017600320349
-0.00015821,0.9937191001245756,0.2447126136399396,0.04078718469568189,-0.1526998744303371
-0.0001582,1.000310669272016,0.2447126136399396,0.01407555519105312,-0.1618979888286393
-0.00015819,0.9871275309771589,0.2447126136399396,0.02743136994334321,-0.1776661849399858
-0.00015818,0.9838317464034265,0.245113823188976,0.03410927731954899,-0.1881783156809504
-0.00015817,0.9904233155508553,0.2447126136399396,0.04746509207183908,-0.198690446421848
-0.00015816,1.003606453845737,0.2455150327380138,0.02409241625528891,-0.2105165935053794
-0.00015815,1.000310669272016,0.2452475597053224,0.05748195313607488,-0.2262847896167546
-0.00015814,1.016789592140589,0.244846350156286,0.05080404575992983,-0.2249707732741424
-0.00015813,1.020085376714309,0.2460499788033982,0.04412613838379693,-0.2446810184133996
-0.00015812,1.003606453845737,0.2469861344178163,0.06415986051223206,-0.2670192962378072
-0.00015811,1.003606453845737,0.2477885535158905,0.07083776788838926,-0.2525651164690466
-0.0001581,0.9937191001245756,0.2452475597053224,0.06082090682415347,-0.2946136394327137
-0.00015809,0.9805359618296942,0.2463174518360879,0.06749881420031066,-0.2827874923491823
-0.00015808,0.9871275309771229,0.2463174518360879,0.08085462895260075,-0.2946136394326922
-0.00015807,1.006902238419457,0.2451138231889767,0.09421044370493943,-0.3156379009145473
-0.00015806,1.023381161288059,0.2445788771235939,0.08753253632878225,-0.3261500316554641
-0.00015805,1.006902238419457,0.2457825057707051,0.114244165833411,-0.3353481460537663
-0.00015804,0.9904233155508553,0.2460499788033965,0.1042273047691752,-0.3458602767946831
-0.00015803,1.010198022993142,0.2459162422870511,0.08419358264074009,-0.3458602767946831
-0.00015802,0.9838317464034205,0.2468523979014701,0.09087149001688513,-0.360314456563446
-0.00015801,0.9871275309771349,0.2465849248687793,0.1042273047691752,-0.3616284729060582
-0.000158,0.9937191001245756,0.2459162422870508,0.130938934273804,-0.385280767073121
-0.00015799,0.9904233155508553,0.2452475597053224,0.1209220732095682,-0.3747686363322042
-0.00015798,0.9838317464034265,0.2453812962216678,0.09754939739306054,-0.3984209304992239
-0.00015797,1.010198022993184,0.2441776675745574,0.1376168416499794,-0.4168171592958737
-0.00015796,1.013493807566898,0.2444451406072482,0.147633702714197,-0.418131175638486
-0.00015795,1.046451653304102,0.2453812962216681,0.1509726564022756,-0.3957928978140378
-0.00015794,1.020085376714339,0.2496608647447301,0.1609895174665114,-0.3445462604520684
-0.00015793,1.099184206483484,0.2378920513063308,0.1676674248426564,-0.4247012573514132
-0.00015792,1.016789592140744,0.2489921821629866,0.167667424842626,-0.1592699561430372
-0.00015791,1.086001068188747,0.2407005181495689,0.1442947490261184,0.04571659330446719
-0.0001579,1.069522145320144,0.2420378833130258,0.1710063785307472,0.4701438719689823
-0.00015789,1.062930576172704,0.2445788771235939,0.1543116100903542,0.7119228790100685
-0.00015788,1.086001068188747,0.2373571052409267,0.1910401006592187,1.08378950397
-0.00015787,1.072817929893865,0.2459162422870338,0.1943790543472912,1.175770647952751
-0.00015786,1.072817929893865,0.2365546861428525,0.1910401006592187,1.027286801237572
-0.00015785,1.079409499041306,0.2436427215091741,0.1877011469711401,1.03254286660803
-0.00015784,1.069522145320144,0.2441776675745569,0.1977180080353759,0.6619902579907136
-0.00015783,1.086001068188747,0.2386944704043836,0.2077348690996117,0.5489848525258583
-0.00015782,1.062930576172746,0.2471198709341467,0.2043959154115392,0.4451775614594938
-0.00015781,1.082705283615002,0.238426997371698,0.2077348690995753,0.3781627279861899
-0.0001578,1.069522145320144,0.2416366737639888,0.1877011469711401,0.504308296876962
-0.00015779,1.069522145320144,0.2420378833130258,0.2010569617234545,0.5594969832667751
-0.00015778,1.066226360746424,0.2380257878226551,0.2077348690996117,0.8091600883635487
-0.00015777,1.072817929893853,0.2405667816332186,0.2344464986041919,0.8853730362350567
-0.00015776,1.066226360746484,0.2404330451168729,0.2010569617235395,1.023344752209881
-0.00015775,1.099184206483628,0.2378920513063094,0.2478023133565549,1.107441798137062
-0.00015774,1.092592637336187,0.2386944704043836,0.2344464986042405,1.037798931978489
-0.00015773,1.059634791598983,0.2357522670447784,0.2344464986042405,0.9839242619312902
-0.00015772,1.092592637336127,0.238025787822651,0.2444633596684581,0.926107542856353
-0.00015771,1.092592637336133,0.2354847940120885,0.2578191744207967,0.8144161537339426
-0.0001577,1.062930576172704,0.2362872131101612,0.2611581281088692,0.7789377124834129
-0.00015769,1.082705283615026,0.237624578273618,0.2311075449161619,0.7894498432243298
-0.00015768,1.086001068188747,0.2342811653649758,0.254480220732712,0.8301843498453823
-0.00015767,1.089296852762467,0.2366884226591982,0.254480220732712,0.8985131996613414
-0.00015766,1.066226360746496,0.2350835844630494,0.2811918502373105,0.9799822129036185
-0.00015765,1.105775775631069,0.2348161114303585,0.2644970817969479,1.074591389571697
-0.00015764,1.089296852762467,0.2356185305284327,0.2945476649896552,1.119267945220594
-0.00015763,1.099184206483628,0.2314726985217163,0.2845308039254194,1.110069830822292
-0.00015762,1.171691467105477,0.2314726985217163,0.3179203408062054,1.125838026933667
-0.00015761,1.076113714467759,0.2287979681948074,0.3045645260539153,1.050939095404771
-0.0001576,1.151916759663028,0.2278618125803754,0.3112424334300422,1.061451226145437
-0.00015759,1.082705283615026,0.223849717090012,0.3079034797419696,0.9983784417000507
-0.00015758,1.145325190515714,0.2302690698746051,0.3179203408062054,1.027286801237572
-0.00015757,1.148620975089434,0.2286642316784568,0.3279372018704412,1.064079258830781
-0.00015756,1.16839568253172,0.2330775367178566,0.3212592944942961,1.056195160775107
-0.00015755,1.128846267647111,0.229332914260184,0.3379540629346526,1.112697863507592
-0.00015754,1.128846267647111,0.2286642316784568,0.3245982481823625,1.152118353785959
-0.00015753,1.118958913925951,0.2261232378678887,0.3312761555585197,1.178398680638251
-0.00015752,1.132142052220832,0.2291991777438396,0.3379540629346769,1.183654746008709
-0.00015751,1.132142052220832,0.228129285613076,0.3479709239988946,1.205993023833116
-0.0001575,1.158508328810553,0.2246521361880798,0.3412930166227616,1.230959334342768
-0.00015749,1.135437836794552,0.2211749867630982,0.3446319703108341,1.194166876749626
-0.00015748,1.109071560204789,0.2180990468871473,0.3546488313750699,1.204679007490543
-0.00015747,1.118958913925951,0.2179653103708016,0.3613267387512271,1.190224827721782
-0.00015746,1.128846267647111,0.2191689390179128,0.3513098776869913,1.194166876749626
-0.00015745,1.155212544236857,0.221174986763096,0.3680046461273661,1.187596795036603
-0.00015744,1.145325190515714,0.219971358115987,0.3579877850631485,1.215191138231459
-0.00015743,1.109071560204789,0.2171628912727275,0.3813604608796987,1.251983595824668
-0.00015742,1.145325190515714,0.2148893704948508,0.3579877850631485,1.275635889991731
-0.00015741,1.125550483073391,0.2144881609458137,0.3813604608796987,1.294032118788335
-0.0001574,1.135437836794534,0.2152905800438864,0.3579877850631911,1.312428347584906
-0.00015739,1.128846267647111,0.212615849716974,0.3813604608796987,1.320312445640627
-0.00015738,1.109071560204789,0.2108772750044801,0.3947162756320131,1.301916216844023
-0.00015737,1.132142052220832,0.2091387002919861,0.3913773219439345,1.315056380270169
-0.00015736,1.128846267647111,0.208336281193912,0.3880383682558559,1.296660151473565
-0.00015735,1.145325190515684,0.2092724368083301,0.3880383682558559,1.30585826587185
-0.00015734,1.145325190515672,0.2104760654554398,0.4013941830081459,1.316370396612798
-0.00015733,1.122254698499671,0.208737490742949,0.3880383682558559,1.324254494668471
-0.00015732,1.148620975089434,0.2067314429977637,0.4047331366962489,1.367617033974753
-0.00015731,1.148620975089434,0.2037892396381585,0.3913773219439345,1.372873099345211
-0.0001573,1.142029405942005,0.2023181379583586,0.4180889514485147,1.380757197400884
-0.00015729,1.132142052220832,0.2031205570564298,0.4180889514485572,1.366303017632181
-0.00015728,1.132142052220832,0.2029868205400844,0.4147499977604847,1.389955311799201
-0.00015727,1.135437836794552,0.2025856109910473,0.4047331366962489,1.384699246428742
