11-25_RX_res/probe_trace.csv

#Digilent WaveForms Oscilloscope Acquisition
#Device Name: ADP3450
#Serial Number: SN:210018B48834
#Date Time: 2025-11-25 16:02:09.497.340.900
#Sample rate: 1e+08Hz
#Samples: 32768
#Trigger: Source: Channel 3 Type: Edge Condition: Rising Level: 790 uV Hyst.: Auto HoldOff: 100 ns
#Channel 1: Range: 500 mV/div Offset: 0 V Attenuation: 1 X Coupling: DC Bandwidth: Full Sample Mode: Average
#Channel 2: Range: 10 mV/div Offset: 0 V Attenuation: 1 X Coupling: DC Bandwidth: Full Sample Mode: Average
#Channel 3: Range: 200 mV/div Offset: 0 V Attenuation: 1 X Coupling: DC Bandwidth: Full Sample Mode: Average
#Channel 4: Range: 100 mV/div Offset: 0 V Attenuation: 1 X Coupling: DC Bandwidth: Full Sample Mode: Average

Time (s),Channel 1 (V),Channel 2 (V),Channel 3 (V),Channel 4 (V)
-0.0001567806060606061,1.270565004317088,-0.01660853929953842,0.6187144392316895,0.1781532181898351
-0.0001567706060606061,1.296931280906851,-0.01781216794664963,0.6216550533896482,0.1778904149213122
-0.000156760606060606,1.267269219743392,-0.01794590446299751,0.6248629961074249,0.177627611652792
-0.000156750606060606,1.280452358038249,-0.01914953311010653,0.6268679603060294,0.1790730296296654
-0.000156740606060606,1.296931280906851,-0.0168760123322298,0.6275362817055655,0.1802556443380185
-0.0001567306060606061,1.28374814261197,-0.01634106626684704,0.6283382673850088,0.181832463949156
-0.0001567206060606061,1.28704392718569,-0.01888206007741515,0.6294075816242665,0.1832778819260321
-0.0001567106060606061,1.28704392718569,-0.01714348536492434,0.631546210102778,0.183803488463077
-0.000156700606060606,1.283748142611958,-0.01781216794664987,0.6334175100214855,0.1830150786575063
-0.000156690606060606,1.277156573464529,-0.01794590446299532,0.6348878171004622,0.1814382590463716
-0.000156680606060606,1.296931280906851,-0.0168760123322298,0.6372937741387921,0.1810440541435873
-0.0001566706060606061,1.293635496333131,-0.01794590446299532,0.639833395457029,0.1820952672176789
-0.0001566606060606061,1.273860788890845,-0.01714348536492264,0.6407690454163779,0.1843290950001197
-0.000156650606060606,1.300227065480536,-0.01794590446299702,0.6415710310958238,0.1849861031714351
-0.000156640606060606,1.280452358038249,-0.01888206007741515,0.6421056882154517,0.1872199309538759
-0.000156630606060606,1.277156573464529,-0.01834711401203239,0.6433086667346166,0.18669432441683
-0.0001566206060606061,1.277156573464529,-0.01874832356106946,0.6446453095336887,0.1864315211483071
-0.0001566106060606061,1.287043927185672,-0.0191495331101058,0.6469176022921072,0.1852489064399561
-0.000156600606060606,1.29033971175941,-0.01981821569183303,0.6499918807299764,0.1855117097084779
-0.000156590606060606,1.29033971175941,-0.01874832356106946,0.6495908878902555,0.1860373162455227
-0.000156580606060606,1.270565004317088,-0.01848085052837808,0.651729516368771,0.1860373162455227
-0.0001565706060606061,1.260677650595927,-0.0182133774956867,0.6514621878089565,0.1882711440279675
-0.0001565606060606061,1.28374814261197,-0.01968447917548929,0.6514621878089565,0.1889281521992749
-0.000156550606060606,1.273860788890815,-0.01941700614279742,0.6527988306080321,0.1903735701761483
-0.000156540606060606,1.277156573464529,-0.01914953311010653,0.6546701305267296,0.1889281521992749
-0.000156530606060606,1.28374814261197,-0.01794590446299532,0.6562741018856162,0.1881397423937061
-0.0001565206060606061,1.270565004317088,-0.0182133774956867,0.6564077661655234,0.1870885293196144
-0.0001565106060606061,1.29033971175941,-0.01888206007741515,0.6592147160435748,0.1886653489307519
-0.0001565006060606061,1.26726921974341,-0.01714348536492434,0.6602840302828306,0.1908991767131927
-0.000156490606060606,1.270565004317088,-0.01794590446299532,0.6604176945627398,0.1912933816159811
-0.000156480606060606,1.260677650595927,-0.01754469491395825,0.6608186874024614,0.1922131930558114
-0.000156470606060606,1.254086081448486,-0.01874832356106946,0.6608186874024614,0.1907677750789353
-0.0001564606060606061,1.270565004317088,-0.01848085052837808,0.6610860159622758,0.1916875865187655
-0.0001564506060606061,1.277156573464517,-0.0196844791754871,0.6633583087206943,0.1910305783474594
-0.000156440606060606,1.273860788890767,-0.01821337749568573,0.6654969371992142,0.1905049718104105
-0.000156430606060606,1.250790296874766,-0.01767843143030394,0.6657642657590283,0.1894537587363207
-0.000156420606060606,1.273860788890809,-0.01901579659376084,0.6662989228786571,0.1914247832502426
-0.0001564106060606061,1.254086081448486,-0.01794590446299532,0.6664325871585643,0.191818988153027
-0.0001564006060606061,1.267269219743344,-0.01941700614279523,0.6661652585987503,0.1936586110326841
-0.000156390606060606,1.270565004317052,-0.01981821569183546,0.6665662514384719,0.1926073979585957
-0.000156380606060606,1.250790296874766,-0.02008568872452636,0.666833579998286,0.1926073979585957
-0.000156370606060606,1.270565004317088,-0.01941700614279791,0.6685712156370797,0.1902421685418895
-0.0001563606060606061,1.254086081448486,-0.01861458704472377,0.6688385441968941,0.1912933816159811
-0.0001563506060606061,1.260677650595915,-0.01914953311010556,0.669774194156243,0.1903735701761526
-0.000156340606060606,1.260677650595933,-0.01928326962645246,0.6704425155557787,0.1922131930558121
-0.000156330606060606,1.263973435169647,-0.01941700614279791,0.669373201316523,0.1926073979585957
-0.000156320606060606,1.254086081448486,-0.01968447917548929,0.669373201316523,0.193527209398426
-0.0001563106060606061,1.250790296874766,-0.01995195220818067,0.669373201316523,0.193527209398426
-0.0001563006060606061,1.28374814261197,-0.01874832356106946,0.6691058727567085,0.1939214143012103
-0.0001562906060606061,1.260677650595969,-0.01995195220817848,0.671110836955313,0.1922131930558145
-0.000156280606060606,1.250790296874766,-0.02048689827356343,0.6712445012352239,0.191556184884504
-0.000156270606060606,1.270565004317088,-0.01981821569183498,0.67191282263476,0.1916875865187655
-0.0001562606060606061,1.273860788890809,-0.01928326962645222,0.6720464869146672,0.1928702012271186
-0.0001562506060606061,1.270565004317088,-0.0195507426591436,0.6717791583548528,0.1931330044956416
-0.0001562406060606061,1.244198727727373,-0.01834711401203458,0.6711108369553179,0.1937900126669477
-0.000156230606060606,1.260677650595909,-0.01981821569183255,0.6700415227160594,0.1943156192039916
-0.000156220606060606,1.250790296874766,-0.01848085052837808,0.6703088512758735,0.1926073979585957
-0.000156210606060606,1.244198727727325,-0.01981821569183498,0.6711108369553167,0.1927387995928572
-0.0001562006060606061,1.263973435169647,-0.01928326962645222,0.6701751869959662,0.1924759963243343
-0.0001561906060606061,1.263973435169647,-0.01888206007741588,0.671110836955315,0.1924759963243343
-0.000156180606060606,1.237607158579902,-0.01874832356107141,0.672046486914665,0.1919503897872896
-0.000156170606060606,1.247494512301046,-0.01981821569183498,0.6708435083955023,0.1926073979585957
-0.000156160606060606,1.247494512301046,-0.01888206007741515,0.669373201316523,0.1931330044956416
-0.0001561506060606061,1.270565004317088,-0.01834711401203239,0.6692395370366158,0.1928702012271186
-0.0001561406060606061,1.267269219743374,-0.01874832356106873,0.6675019013978251,0.1932644061299023
-0.000156130606060606,1.247494512301022,-0.01888206007741418,0.6689722084768022,0.1924759963243319
-0.000156120606060606,1.234311374006164,-0.01834711401203239,0.669373201316523,0.1911619799817197
-0.000156110606060606,1.244198727727325,-0.01874832356106946,0.6685712156370797,0.1908991767131968
-0.0001561006060606061,1.247494512301046,-0.0182133774956867,0.6683038870772653,0.1914247832502426
-0.0001560906060606061,1.237607158579884,-0.01914953311010653,0.6673682371179148,0.1911619799817197
-0.0001560806060606061,1.254086081448456,-0.01874832356107019,0.6673682371179148,0.1922131930558094
-0.000156070606060606,1.254086081448486,-0.01888206007741515,0.6648286157996778,0.1924759963243343
-0.000156060606060606,1.244198727727325,-0.0195507426591436,0.6641602944001417,0.1911619799817197
-0.0001560506060606061,1.240902943153605,-0.01928326962645222,0.6640266301202344,0.1907677750789353
-0.0001560406060606061,1.240902943153605,-0.01928326962645222,0.6641602944001417,0.1903735701761509
-0.0001560306060606061,1.250790296874748,-0.01888206007741588,0.6642939586800487,0.1897165620048448
-0.000156020606060606,1.254086081448462,-0.01848085052837881,0.6629573158809747,0.1894537587363195
-0.000156010606060606,1.240902943153605,-0.01888206007741515,0.6618880016417191,0.1887967505650134
-0.000156000606060606,1.254086081448486,-0.01888206007741515,0.6597493731632037,0.1897165620048436
-0.0001559906060606061,1.244198727727325,-0.01914953311010653,0.6592147160435748,0.1903735701761509
-0.0001559806060606061,1.240902943153611,-0.01995195220817921,0.6584127303641331,0.1895851603705836
-0.000155970606060606,1.240902943153611,-0.01995195220817921,0.6581454018043145,0.1885339472964883
-0.000155960606060606,1.244198727727325,-0.01914953311010653,0.6566750947253378,0.1873513325881373
-0.000155950606060606,1.234311374006164,-0.0182133774956867,0.6560067733258017,0.186957127685353
-0.0001559406060606061,1.227719804858723,-0.01700974884857549,0.6560067733258017,0.18669432441683
-0.0001559306060606061,1.24749451230101,-0.01807964097933906,0.6546701305267321,0.1876141358566586
-0.000155920606060606,1.23431137400617,-0.01781216794665036,0.6527988306080243,0.1877455374909193
-0.000155910606060606,1.237607158579884,-0.0182133774956867,0.6503928735696988,0.1864315211483071
-0.000155900606060606,1.240902943153605,-0.0182133774956867,0.6495908878902555,0.1863001195140457
-0.0001558906060606061,1.231015589432443,-0.01995195220818067,0.6481205808112762,0.1865629227825686
-0.0001558806060606061,1.207945097416401,-0.02048689827356343,0.6475859236916474,0.1856431113427384
-0.000155870606060606,1.227719804858693,-0.01968447917548588,0.6459819523327586,0.1836720868288153
-0.000155860606060606,1.211240881990121,-0.01781216794664963,0.6447789738135959,0.1830150786575092
-0.000155850606060606,1.224424020285003,-0.01807964097934101,0.643575995294431,0.1838034884630779
-0.0001558406060606061,1.231015589432443,-0.01888206007741515,0.64170469537573,0.1838034884630779
-0.0001558306060606061,1.244198727727325,-0.01794590446299532,0.6399670597369362,0.1836720868288165
-0.0001558206060606061,1.244198727727325,-0.02021942524086791,0.6388977454976805,0.1827522753889879
-0.000155810606060606,1.244198727727313,-0.02008568872452392,0.636358124179439,0.1835406851945507
-0.000155800606060606,1.237607158579884,-0.01874832356106946,0.6350214813803694,0.1811754557778487
-0.000155790606060606,1.237607158579884,-0.01874832356106946,0.6343531599808333,0.1809126525093258
-0.0001557806060606061,1.194761959121519,-0.01861458704472377,0.6323481957822251,0.1797300378009727
-0.0001557706060606061,1.240902943153521,-0.0172772218812693,0.6314125458228763,0.1798614394352339
-0.000155760606060606,1.240902943153551,-0.01861458704472474,0.6290065887845407,0.1798614394352358
-0.000155750606060606,1.211240881990121,-0.01914953311010653,0.6267342960261222,0.1807812508750644
-0.000155740606060606,1.237607158579884,-0.01914953311010653,0.6257986460667717,0.1789416279954039
-0.0001557306060606061,1.231015589432443,-0.0182133774956867,0.6233926890284419,0.1782846198240966
-0.0001557206060606061,1.224424020285015,-0.01741095839761402,0.6209867319901164,0.1777590132870517
-0.000155710606060606,1.237607158579872,-0.01767843143030053,0.620184746310665,0.1768392018472198
-0.000155700606060606,1.231015589432443,-0.01580612020146428,0.6180461178321535,0.1764449969444362
-0.000155690606060606,1.227719804858723,-0.01741095839761256,0.6163084821933597,0.175525185504606
-0.0001556806060606061,1.214536666563842,-0.01861458704472377,0.6141698537148442,0.1760507920416518
-0.0001556706060606061,1.211240881990121,-0.01674227581588411,0.6112292395568856,0.1751309806018216
-0.000155660606060606,1.207945097416443,-0.01727722188126639,0.6090906110783664,0.174605374064775
-0.000155650606060606,1.231015589432443,-0.01700974884857549,0.6069519825998548,0.1742111691619914
-0.000155640606060606,1.207945097416401,-0.01834711401203239,0.6060163326405044,0.1726343495508538
-0.0001556306060606061,1.211240881990121,-0.0182133774956867,0.6033430470423601,0.1717145381110236
-0.0001556206060606061,1.191466174547799,-0.01727722188126687,0.6024073970830096,0.170400521768409
-0.0001556106060606061,1.247494512300944,-0.01634106626684875,0.6005360971643121,0.1697435135971029
-0.000155600606060606,1.231015589432443,-0.0168760123322298,0.5966598330469994,0.1707947266711934
-0.000155590606060606,1.224424020285003,-0.01741095839761256,0.5947885331282985,0.1702691201341476
-0.000155580606060606,1.214536666563842,-0.01767843143030394,0.5914469261306182,0.168955103791533
-0.0001555706060606061,1.231015589432443,-0.01767843143030394,0.5889073048123812,0.1688237021572715
-0.0001555606060606061,1.2211282357113,-0.01714348536492215,0.5869023406137767,0.1682980956202266
-0.000155550606060606,1.217832451137574,-0.01754469491395898,0.5856993620946029,0.1659328662035184
-0.000155540606060606,1.224424020285003,-0.01794590446299532,0.5828924122165566,0.1654072596664735
-0.000155530606060606,1.224424020285003,-0.01486996458704445,0.5807537837380412,0.1654072596664735
-0.0001555206060606061,1.211240881990121,-0.01714348536492118,0.5788824838193403,0.1643560465923819
-0.0001555106060606061,1.227719804858693,-0.01794590446299386,0.5752735482618521,0.1643560465923819
-0.000155500606060606,1.227719804858693,-0.01834711401203117,0.5720656055440689,0.1622536204442
-0.000155490606060606,1.211240881990121,-0.01767843143030394,0.5701943056253714,0.1630420302497673
-0.000155480606060606,1.207945097416401,-0.01754469491395825,0.5676546843071344,0.1619908171756756
-0.0001554706060606061,1.224424020285003,-0.01580612020146428,0.5652487272688046,0.1597569893932308
-0.0001554606060606061,1.204649312842716,-0.0170097488485733,0.562842770230479,0.159888391027492
-0.000155450606060606,1.224424020284985,-0.01660853929953866,0.5597684917926052,0.1579173665135701
-0.000155440606060606,1.214536666563842,-0.01674227581588411,0.5577635275940007,0.1577859648793089
-0.000155430606060606,1.184874605400358,-0.01620732975050135,0.5540209277565987,0.1571289567080016
-0.0001554206060606061,1.204649312842681,-0.01727722188126687,0.5502783279191967,0.1568661534394787
-0.0001554106060606061,1.211240881990121,-0.01647480278319273,0.5480060351607742,0.1554207354626026
-0.0001554006060606061,1.201353528268978,-0.0175446949139563,0.5461347352420767,0.1537125142172067
-0.000155390606060606,1.211240881990121,-0.01727722188126687,0.5430604568042073,0.1530555060458963
-0.000155380606060606,1.19805774369524,-0.01500370110339014,0.5393178569668053,0.1535811125829422
-0.0001553706060606061,1.19805774369524,-0.01754469491395825,0.5377138856079188,0.1510844815319744
-0.0001553606060606061,1.204649312842681,-0.01567238368511859,0.5343722786102385,0.1514786864347588
-0.0001553506060606061,1.194761959121537,-0.01486996458704591,0.5304960144929365,0.1502960717264078
-0.000155340606060606,1.181578820826686,-0.01527117413608274,0.5272880717751521,0.1493762602865733
-0.000155330606060606,1.207945097416401,-0.01593985671780997,0.5250157790167337,0.1481936455782223
-0.000155320606060606,1.224424020285003,-0.01540491065242721,0.5216741720190533,0.1468796292356077
-0.0001553106060606061,1.188170389974078,-0.01513743761973583,0.5179315721816514,0.1460912194300389
-0.0001553006060606061,1.211240881990079,-0.01580612020146306,0.5160602722629538,0.1455656128929941
-0.000155290606060606,1.207945097416383,-0.01647480278319176,0.5125850009853573,0.1442515965503764
-0.000155280606060606,1.19805774369524,-0.01593985671780997,0.509510722547497,0.1430689818420254
-0.000155270606060606,1.227719804858723,-0.01460249155435307,0.5061691155498167,0.1433317851105483
-0.0001552606060606061,1.194761959121519,-0.01660853929953842,0.5033621656717653,0.1412293589623649
-0.0001552506060606061,1.18817038997409,-0.01527117413608395,0.4980155944754865,0.140046744254014
-0.000155240606060606,1.234311374006146,-0.01380007245628137,0.4960106302768623,0.1400467442540082
-0.000155230606060606,1.224424020285003,-0.01513743761973583,0.492535358999281,0.1380757197400899
-0.000155220606060606,1.188170389974078,-0.01500370110339014,0.4906640590805801,0.1374187115687826
-0.0001552106060606061,1.204649312842681,-0.01500370110339014,0.4854511521641988,0.1353162854205993
-0.0001552006060606061,1.217832451137562,-0.01460249155435307,0.4829115308459618,0.136104695226168
-0.000155190606060606,1.194761959121543,-0.01406754548897031,0.4793025952884614,0.1340022690779839
-0.000155180606060606,1.207945097416401,-0.01406754548897031,0.4762283168506011,0.1336080641752003
-0.000155170606060606,1.184874605400358,-0.01540491065242721,0.4716837313337559,0.1321626461983242
-0.0001551606060606061,1.207945097416401,-0.01326512639089617,0.46860945289589,0.1313742363927554
-0.0001551506060606061,1.184874605400358,-0.01232897077647634,0.4643321959388592,0.1294032118788336
-0.0001551406060606061,1.181578820826644,-0.01246270729282179,0.4616589103407199,0.1288776053417887
-0.000155130606060606,1.188170389974084,-0.01380007245627942,0.4572479891037712,0.1274321873649121
-0.000155120606060606,1.191466174547799,-0.01406754548897031,0.4540400463860039,0.1276949906334346
-0.000155110606060606,1.19805774369524,-0.01353259942358755,0.4502974465486019,0.1258553677537741
-0.0001551006060606061,1.184874605400358,-0.01353259942358755,0.4465548467112,0.1248041546796825
-0.0001550906060606061,1.20135352826893,-0.01420128200531479,0.442277589754177,0.1241471465083764
-0.000155080606060606,1.178283036252918,-0.01393380897262511,0.4394706398761102,0.1219133187259299
-0.000155070606060606,1.178283036252918,-0.014201282005316,0.4353270471989942,0.1216505154574074
-0.000155060606060606,1.211240881990121,-0.01353259942358755,0.4325200973209427,0.1195480893092241
-0.0001550506060606061,1.194761959121519,-0.01299765335820479,0.428911161763448,0.1183654746008709
-0.0001550406060606061,1.201353528268948,-0.01232897077647756,0.424366576246611,0.1179712696980873
-0.000155030606060606,1.194761959121519,-0.01366633593993105,0.4203566478493793,0.1174456631610381
-0.000155020606060606,1.194761959121519,-0.01246270729282203,0.4164803837320772,0.1160002451841647
-0.000155010606060606,1.20135352826896,-0.01339886290724186,0.4126041196147681,0.1148176304758115
-0.0001550006060606061,1.184874605400358,-0.01232897077647634,0.4092625126170877,0.1137664174017198
-0.0001549906060606061,1.181578820826638,-0.01299765335820479,0.4047179271002425,0.1120581961563209
-0.000154980606060606,1.158508328810667,-0.01246270729281814,0.4008416629829273,0.1108755814479653
-0.000154970606060606,1.19805774369524,-0.010322923031291,0.3975000559852531,0.1095615651053531
-0.000154960606060606,1.174987251679197,-0.01326512639089617,0.3940247847076656,0.1089045569340458
-0.0001549506060606061,1.181578820826638,-0.0128639168418591,0.3893465349109131,0.1073277373229083
-0.0001549406060606061,1.194761959121519,-0.01273018032551341,0.3864059207529544,0.106670729151601
-0.0001549306060606061,1.204649312842663,-0.01299765335820431,0.3811930138365827,0.1057509177117725
-0.000154920606060606,1.204649312842633,-0.01152655167840123,0.3778514068388848,0.102860081758017
-0.000154910606060606,1.178283036252918,-0.01099160561301945,0.3734404856019549,0.1019402703181884
-0.000154900606060606,1.181578820826638,-0.01192776122743927,0.3692968929248313,0.1007576556098353
-0.0001548906060606061,1.174987251679197,-0.01219523426013065,0.3642176502883572,0.0991808359986978
-0.0001548806060606061,1.174987251679197,-0.01166028819474887,0.3614107004103109,0.09812962292460803
-0.000154870606060606,1.174987251679233,-0.01166028819474935,0.3574007720130808,0.09760401638755908
-0.000154860606060606,1.194761959121519,-0.01246270729282203,0.3527225222163369,0.09694700821625298
-0.000154850606060606,1.174987251679197,-0.01125907864571083,0.3491135866588422,0.09510738533659255
