11-25_RX_res/res_rect_trace.csv

#Digilent WaveForms Oscilloscope Acquisition
#Device Name: ADP3450
#Serial Number: SN:210018B48834
#Date Time: 2025-11-25 16:00:13.016.088.160
#Sample rate: 1e+08Hz
#Samples: 32768
#Trigger: Source: Channel 3 Type: Edge Condition: Rising Level: 790 uV Hyst.: Auto HoldOff: 100 ns
#Channel 1: Range: 500 mV/div Offset: 0 V Attenuation: 1 X Coupling: DC Bandwidth: Full Sample Mode: Average
#Channel 2: Range: 10 mV/div Offset: 0 V Attenuation: 1 X Coupling: DC Bandwidth: Full Sample Mode: Average
#Channel 3: Range: 200 mV/div Offset: 0 V Attenuation: 1 X Coupling: DC Bandwidth: Full Sample Mode: Average
#Channel 4: Range: 100 mV/div Offset: 0 V Attenuation: 1 X Coupling: DC Bandwidth: Full Sample Mode: Average

Time (s),Channel 1 (V),Channel 2 (V),Channel 3 (V),Channel 4 (V)
-0.0001567838709677419,1.240902943153605,-0.01660853929953842,0.5958578473675562,0.1209935072861001
-0.0001567738709677419,1.270565004317088,-0.01741095839761256,0.5971944901666283,0.1227017285314991
-0.0001567638709677419,1.270565004317076,-0.0158061202014672,0.5986647972456127,0.1227017285315027
-0.0001567538709677419,1.263973435169647,-0.01741095839761256,0.6014717471236591,0.124672753045421
-0.0001567438709677419,1.250790296874766,-0.01674227581588411,0.6028083899227312,0.1250669579482054
-0.0001567338709677419,1.250790296874766,-0.01754469491395825,0.6029420542026385,0.1265123759250814
-0.0001567238709677419,1.244198727727325,-0.0182133774956867,0.6044123612816178,0.1267751791936044
-0.0001567138709677419,1.254086081448468,-0.01901579659375938,0.6064173254802223,0.1269065808278656
-0.0001567038709677419,1.250790296874742,-0.01901579659375767,0.6086896182386553,0.1273007857306507
-0.0001566938709677419,1.237607158579884,-0.01727722188126687,0.6124322180760505,0.1275635889991731
-0.0001566838709677419,1.250790296874766,-0.01754469491395825,0.6132342037554938,0.1297974167816179
-0.0001566738709677419,1.29033971175941,-0.01727722188126687,0.6132342037554938,0.1286148020732648
-0.0001566638709677419,1.273860788890839,-0.01700974884857597,0.6145708465545635,0.1296660151473546
-0.0001566538709677419,1.257381866022224,-0.01687601233222956,0.614971839394291,0.1309800314899718
-0.0001566438709677419,1.267269219743368,-0.01674227581588411,0.6168431393129885,0.1313742363927554
-0.0001566338709677419,1.277156573464529,-0.01861458704472377,0.6188481035115967,0.1316370396612784
-0.0001566238709677419,1.240902943153605,-0.01781216794664963,0.6213877248298337,0.1333452609066774
-0.0001566138709677419,1.244198727727319,-0.01821337749568597,0.6220560462293686,0.1336080641751998
-0.0001566038709677419,1.244198727727355,-0.01807964097934052,0.6227243676289111,0.1343964739807681
-0.0001565938709677419,1.260677650595927,-0.01781216794664963,0.6256649817868646,0.1338708674437232
-0.0001565838709677419,1.263973435169647,-0.01714348536492118,0.6251303246672357,0.1351848837863378
-0.0001565738709677419,1.247494512301046,-0.01781216794664963,0.6257986460667717,0.1355790886891222
-0.0001565638709677419,1.244198727727325,-0.01834711401203239,0.6271352888658439,0.136104695226168
-0.0001565538709677419,1.24749451230101,-0.01861458704472328,0.6279372745452912,0.1364989001289545
-0.0001565438709677419,1.227719804858723,-0.01834711401203239,0.6302095673037098,0.1376815148373055
-0.0001565338709677419,1.257381866022206,-0.01874832356106946,0.6314125458228746,0.1379443181058284
-0.0001565238709677419,1.244198727727325,-0.01888206007741515,0.6316798743826891,0.1382071213743514
-0.0001565138709677419,1.237607158579884,-0.01794590446299532,0.6326155243420396,0.1391269328141816
-0.0001565038709677419,1.247494512301028,-0.01767843143030443,0.6331501814616675,0.1400467442540101
-0.0001564938709677419,1.240902943153605,-0.01914953311010653,0.6335511743013901,0.1400467442540118
-0.0001564838709677419,1.237607158579884,-0.02021942524087205,0.6344868242607405,0.1403095475225347
-0.0001564738709677419,1.250790296874766,-0.01807964097934101,0.635422474220091,0.1401781458882733
-0.0001564638709677419,1.244198727727325,-0.01807964097934101,0.6359571313397199,0.1418863671336723
-0.0001564538709677419,1.257381866022182,-0.01821337749568646,0.6371601098588826,0.142937580207762
-0.0001564438709677419,1.231015589432437,-0.0187483235610697,0.6384967526579579,0.1421491704021966
-0.0001564338709677419,1.227719804858723,-0.01888206007741515,0.6390314097775858,0.1429375802077639
-0.0001564238709677419,1.227719804858723,-0.01861458704472377,0.6387640812177714,0.1442515965503785
-0.0001564138709677419,1.237607158579884,-0.01848085052837808,0.6388977454976785,0.1449086047216858
-0.0001564038709677419,1.244198727727313,-0.01955074265914165,0.6390314097775855,0.146222621064298
-0.0001563938709677419,1.237607158579878,-0.01888206007741466,0.639699731177125,0.1459598177957777
-0.0001563838709677419,1.234311374006164,-0.01861458704472377,0.6414373668159156,0.1460912194300389
-0.0001563738709677419,1.234311374006164,-0.01767843143030394,0.6429076738948949,0.1463540226985619
-0.0001563638709677419,1.263973435169647,-0.01767843143030394,0.6425066810551733,0.1470110308698692
-0.0001563538709677419,1.224424020285075,-0.0192832696264493,0.6425066810551733,0.1458284161615182
-0.0001563438709677419,1.247494512301016,-0.01874832356107068,0.6425066810551737,0.1471424325041314
-0.0001563338709677419,1.231015589432443,-0.01941700614279791,0.6427740096149878,0.147536637406915
-0.0001563238709677419,1.234311374006164,-0.01834711401203239,0.6421056882154517,0.1479308423096994
-0.0001563138709677419,1.231015589432443,-0.01968447917548929,0.6433086667346166,0.1483250472124838
-0.0001563038709677419,1.237607158579884,-0.01914953311010653,0.6439769881341526,0.1489820553837911
-0.0001562938709677419,1.240902943153599,-0.01834711401203385,0.6449126380935014,0.1489820553837911
-0.0001562838709677419,1.204649312842681,-0.01834711401203239,0.6451799666533176,0.1493762602865754
-0.0001562738709677419,1.231015589432443,-0.01834711401203239,0.6457146237729464,0.1496390635550984
-0.0001562638709677419,1.234311374006164,-0.01874832356106946,0.6446453095336887,0.15069027662919
-0.0001562538709677419,1.231015589432443,-0.01888206007741515,0.6442443166939671,0.1516100880690203
-0.0001562438709677419,1.231015589432443,-0.01781216794665158,0.643976988134153,0.1518728913375427
-0.0001562338709677419,1.24749451230104,-0.0184808505283793,0.643575995294432,0.152267096240328
-0.0001562238709677419,1.244198727727325,-0.01914953311010653,0.6441106524140598,0.1525298995088505
-0.0001562138709677419,1.217832451137562,-0.01888206007741515,0.6442443166939671,0.152398497874589
-0.0001562038709677419,1.214536666563842,-0.01754469491395825,0.6446453095336887,0.1530555060458963
-0.0001561938709677419,1.214536666563842,-0.01754469491395825,0.6451799666533166,0.1529241044116351
-0.0001561838709677419,1.231015589432426,-0.01781216794665352,0.6445116452537802,0.1534497109486824
-0.0001561738709677419,1.221128235711282,-0.01995195220818067,0.6438433238542454,0.1543695223885109
-0.0001561638709677419,1.234311374006164,-0.0195507426591436,0.6433086667346166,0.1535811125829422
-0.0001561538709677419,1.214536666563842,-0.01928326962645222,0.642373016775266,0.154106719119988
-0.0001561438709677419,1.211240881990127,-0.01754469491396141,0.6422393524953591,0.1543695223885105
-0.0001561338709677419,1.247494512301004,-0.01914953311010604,0.6425066810551725,0.1543695223885102
-0.0001561238709677419,1.224424020285003,-0.01888206007741515,0.6421056882154517,0.1539753174857265
-0.0001561138709677419,1.20135352826896,-0.01941700614279791,0.6414373668159156,0.1556835387311255
-0.0001561038709677419,1.20135352826896,-0.01914953311010653,0.6418383596556372,0.1556835387311255
-0.0001560938709677419,1.221128235711282,-0.01874832356106946,0.6406353811364723,0.1556835387311255
-0.0001560838709677419,1.207945097416425,-0.01727722188126955,0.6394324026173096,0.1560777436339092
-0.0001560738709677419,1.191466174547799,-0.01781216794664963,0.6392987383374003,0.155814940365387
-0.0001560638709677419,1.221128235711282,-0.01914953311010653,0.6379620955383281,0.1559463419996484
-0.0001560538709677419,1.20135352826896,-0.01914953311010653,0.6379620955383281,0.1562091452681714
-0.0001560438709677419,1.221128235711282,-0.01781216794664963,0.6374274384186992,0.1562091452681714
-0.0001560338709677419,1.224424020284997,-0.0191495331101041,0.6374274384186992,0.1567347518052163
-0.0001560238709677419,1.204649312842681,-0.01807964097934344,0.6378284312584145,0.1562091452681728
-0.0001560138709677419,1.204649312842681,-0.01941700614279791,0.6343531599808333,0.1569975550737401
-0.0001560038709677419,1.211240881990121,-0.01981821569183498,0.6346204885406478,0.1569975550737401
-0.0001559938709677419,1.20135352826896,-0.0195507426591436,0.6334175100214828,0.155814940365387
-0.0001559838709677419,1.211240881990103,-0.0195507426591436,0.6339521671411107,0.1572603583422604
-0.0001559738709677419,1.211240881990145,-0.01874832356106946,0.6316798743826887,0.1573917599765254
-0.0001559638709677419,1.224424020285003,-0.01874832356106946,0.6314125458228746,0.1579173665135703
-0.0001559538709677419,1.19805774369524,-0.01914953311010653,0.6295412459041737,0.1580487681478318
-0.0001559438709677419,1.19805774369524,-0.01781216794664963,0.6286055959448232,0.1587057763191391
-0.0001559338709677419,1.188170389974096,-0.01821337749568597,0.6272689531457535,0.1569975550737432
-0.0001559238709677419,1.207945097416371,-0.01888206007741223,0.6267342960261187,0.1575231616107874
-0.0001559138709677419,1.191466174547799,-0.01727722188126687,0.6248629961074212,0.1583115714163547
-0.0001559038709677419,1.19805774369524,-0.01848085052837808,0.6235263533083492,0.1573917599765245
-0.0001558938709677419,1.207945097416401,-0.01794590446299532,0.6217887176695553,0.1579173665135703
-0.0001558838709677419,1.204649312842681,-0.01767843143030394,0.6220560462293698,0.1579173665135703
-0.0001558738709677419,1.201353528268942,-0.01834711401203336,0.6213877248298308,0.1577859648793074
-0.0001558638709677419,1.191466174547799,-0.01888206007741515,0.6197837534709472,0.1569975550737401
-0.0001558538709677419,1.19805774369524,-0.01767843143030394,0.6191154320714112,0.1583115714163547
-0.0001558438709677419,1.211240881990121,-0.01727722188126687,0.6156401607938237,0.1580487681478318
-0.0001558338709677419,1.19805774369524,-0.0182133774956867,0.6143035179947515,0.1585743746848776
-0.0001558238709677419,1.19805774369524,-0.01807964097934125,0.6140361894349375,0.1584429730506164
-0.0001558138709677419,1.221128235711258,-0.01848085052837856,0.612833210915769,0.1577859648793101
-0.0001558038709677419,1.207945097416401,-0.01874832356106946,0.6110955752769784,0.1584429730506162
-0.0001557938709677419,1.217832451137562,-0.01781216794664963,0.6094916039180919,0.1585743746848776
-0.0001557838709677419,1.204649312842681,-0.01700974884857549,0.6076203039993908,0.157523161610786
-0.0001557738709677419,1.198057743695252,-0.01754469491395728,0.6064173254802282,0.157523161610786
-0.0001557638709677419,1.204649312842675,-0.01807964097934125,0.6033430470423589,0.1566033501709572
-0.0001557538709677419,1.20135352826896,-0.0182133774956867,0.602674725642824,0.1573917599765245
-0.0001557438709677419,1.184874605400358,-0.01727722188126687,0.6001351043245869,0.1573917599765245
-0.0001557338709677419,1.191466174547799,-0.01767843143030394,0.5987984615255149,0.1567347518052172
-0.0001557238709677419,1.191466174547799,-0.01647480278319492,0.598263804405887,0.1576545632450458
-0.0001557138709677419,1.191466174547829,-0.01794590446299459,0.5969271616068108,0.1566033501709574
-0.0001557038709677419,1.207945097416401,-0.01754469491395825,0.5951895259680201,0.157523161610786
-0.0001556938709677419,1.20135352826896,-0.01660853929953842,0.5922489118100615,0.1573917599765245
-0.0001556838709677419,1.194761959121519,-0.01727722188126687,0.5906449404511749,0.1577859648793089
-0.0001556738709677419,1.19805774369524,-0.01767843143030394,0.587570662013309,0.1566033501709558
-0.0001556638709677419,1.191466174547799,-0.0174109583976111,0.5858330263745118,0.1572603583422611
-0.0001556538709677419,1.191466174547799,-0.01660853929953842,0.5839617264558142,0.1562091452681714
-0.0001556438709677419,1.194761959121519,-0.01700974884857549,0.5816894336973917,0.1563405469024328
-0.0001556338709677419,1.184874605400358,-0.01727722188126687,0.580620119458134,0.155814940365387
-0.0001556238709677419,1.184874605400358,-0.01607359323415566,0.5782141624198042,0.1563405469024328
-0.0001556138709677419,1.204649312842645,-0.01741095839761013,0.5755408768216648,0.1558149403653879
-0.0001556038709677419,1.188170389974078,-0.01700974884857549,0.5732685840632373,0.1554207354626026
-0.0001555938709677419,1.20135352826896,-0.01674227581588411,0.5711299555847219,0.1556835387311255
-0.0001555838709677419,1.165099897958036,-0.0168760123322298,0.5688576628262993,0.155814940365387
-0.0001555738709677419,1.184874605400358,-0.01794590446299532,0.5677883485870416,0.1552893338283411
-0.0001555638709677419,1.207945097416359,-0.01687601233223175,0.5655160558286231,0.1550265305598187
-0.0001555538709677419,1.184874605400322,-0.0172772218812659,0.5635110916300069,0.1546323256570343
-0.0001555438709677419,1.165099897958036,-0.01674227581588411,0.5613724631514954,0.1548951289255568
-0.0001555338709677419,1.174987251679197,-0.01660853929953842,0.557362534754279,0.1527927027773734
-0.0001555238709677419,1.188170389974078,-0.01727722188126687,0.5552239062757637,0.1545009240227724
-0.0001555138709677419,1.174987251679221,-0.01580612020146696,0.5524169563977173,0.1541067191199887
-0.0001555038709677419,1.178283036252936,-0.01660853929953672,0.5502783279191914,0.1526613011431136
-0.0001554938709677419,1.188170389974078,-0.01567238368511859,0.5473377137612381,0.1535811125829422
-0.0001554838709677419,1.174987251679197,-0.01567238368511859,0.5454664138425371,0.1529241044116349
-0.0001554738709677419,1.178283036252918,-0.01513743761973583,0.544129771043465,0.152398497874589
-0.0001554638709677419,1.171691467105489,-0.01674227581588119,0.5413228211654186,0.1521356946060666
-0.0001554538709677419,1.178283036252888,-0.01513743761973729,0.5379812141677304,0.1518728913375418
-0.0001554438709677419,1.161804113384315,-0.01593985671780997,0.5363772428088467,0.1510844815319744
-0.0001554338709677419,1.181578820826638,-0.01660853929953842,0.5327683072513519,0.1504274733606671
-0.0001554238709677419,1.178283036252918,-0.0155386471687729,0.5295603645335789,0.1500332684578828
-0.0001554138709677419,1.181578820826638,-0.01486996458704445,0.527154407495249,0.1500332684578828
-0.0001554038709677419,1.178283036252924,-0.01553864716877169,0.5244811218971097,0.1493762602865766
-0.0001553938709677419,1.161804113384315,-0.01660853929953842,0.5222088291386822,0.1502960717264057
-0.0001553838709677419,1.171691467105477,-0.01660853929953842,0.5198028721003524,0.1488506537495296
-0.0001553738709677419,1.168395682531756,-0.01593985671780997,0.5167285936624865,0.1485878504810067
-0.0001553638709677419,1.171691467105477,-0.01593985671780997,0.5131196581049917,0.1471424325041306
-0.0001553538709677419,1.155212544236905,-0.0148699645870464,0.5108473653465733,0.1475366374069143
-0.0001553438709677419,1.178283036252912,-0.01580612020146185,0.5081740797484183,0.1470110308698682
-0.0001553338709677419,1.174987251679197,-0.01446875503800738,0.5045651441909301,0.1464854243328233
-0.0001553238709677419,1.188170389974078,-0.01380007245627893,0.5022928514325076,0.145828416161516
-0.0001553138709677419,1.161804113384315,-0.01433501852166169,0.4986839158750128,0.1459598177957775
-0.0001553038709677419,1.16509989795803,-0.01486996458704348,0.4966789516764083,0.1453028096244714
-0.0001552938709677419,1.168395682531786,-0.01446875503800738,0.4928026875590898,0.1455656128929924
-0.0001552838709677419,1.184874605400358,-0.01446875503800738,0.4897284091212296,0.1451714079902087
-0.0001552738709677419,1.168395682531756,-0.01380007245627893,0.4867877949632709,0.1445143998189014
-0.0001552638709677419,1.191466174547799,-0.01500370110339014,0.4838471808053122,0.1441201949161171
-0.0001552538709677419,1.165099897958084,-0.01446875503800835,0.4795699238482892,0.1430689818420273
-0.0001552438709677419,1.171691467105477,-0.01393380897262389,0.4767629739702242,0.1429375802077623
-0.0001552338709677419,1.171691467105477,-0.01353259942358755,0.4735550312524569,0.1420177687679337
-0.0001552238709677419,1.181578820826638,-0.01353259942358755,0.4716837313337559,0.1410979573281035
-0.0001552138709677419,1.171691467105477,-0.014201282005316,0.46860945289589,0.1405723507910576
-0.0001552038709677419,1.188170389974078,-0.01366633593993324,0.4640648673790448,0.1408351540595806
-0.0001551938709677419,1.165099897957994,-0.01353259942358755,0.4605895961014504,0.1399153426197496
-0.0001551838709677419,1.142029405941993,-0.01353259942358755,0.4568469962640553,0.139521137716966
-0.0001551738709677419,1.165099897958036,-0.014201282005316,0.4544410392257255,0.1383385230086128
-0.0001551638709677419,1.178283036252918,-0.01299765335820479,0.4506984393883236,0.1379443181058284
-0.0001551538709677419,1.171691467105477,-0.01259644380916772,0.448426146629901,0.1370245066659982
-0.0001551438709677419,1.184874605400334,-0.01299765335820406,0.443747896833157,0.1367617033974758
-0.0001551338709677419,1.181578820826626,-0.013666335939933,0.4408072826751835,0.1371559083002578
-0.0001551238709677419,1.174987251679197,-0.01353259942358755,0.4373320113976024,0.136104695226168
-0.0001551138709677419,1.145325190515714,-0.01313138987455048,0.4337230758401076,0.1351848837863378
-0.0001551038709677419,1.181578820826638,-0.01259644380916772,0.4299804760027057,0.1346592772492919
-0.0001550938709677419,1.178283036252924,-0.01232897077647683,0.4267725332849384,0.1336080641752022
-0.0001550838709677419,1.168395682531732,-0.01246270729282058,0.4235645905671507,0.133476662540936
-0.0001550738709677419,1.155212544236875,-0.01166028819474789,0.4187526764904999,0.1318998429298013
-0.0001550638709677419,1.171691467105477,-0.01232897077647634,0.4152774052129123,0.1318998429298013
-0.0001550538709677419,1.174987251679197,-0.01206149774378497,0.4122031267750464,0.1320312445640628
-0.0001550438709677419,1.161804113384339,-0.01152655167840318,0.4084605269376513,0.1303230233186669
-0.0001550338709677419,1.161804113384321,-0.01246270729282082,0.4047179271002365,0.1299288184158784
-0.0001550238709677419,1.165099897958036,-0.01179402471109359,0.4013763201025622,0.1294032118788336
-0.0001550138709677419,1.158508328810595,-0.01232897077647634,0.3973663917053459,0.1290090069760492
-0.0001550038709677419,1.158508328810595,-0.0128639168418591,0.3938911204277583,0.1275635889991731
-0.0001549938709677419,1.148620975089434,-0.01125907864571083,0.3902821848702636,0.1273007857306502
-0.0001549838709677419,1.171691467105459,-0.01099160561301872,0.3870742421524828,0.127300785730649
-0.0001549738709677419,1.161804113384315,-0.01059039606398238,0.3827969851954597,0.1266437775593429
-0.0001549638709677419,1.145325190515714,-0.01059039606398238,0.3785197282384289,0.1251983595824668
-0.0001549538709677419,1.155212544236875,-0.01099160561301945,0.3755791140804702,0.1258553677537741
-0.0001549438709677419,1.132142052220832,-0.01112534212936513,0.3707672000038106,0.1232273350685449
-0.0001549338709677419,1.165099897957976,-0.01059039606398335,0.3675592572860433,0.1230959334342837
-0.0001549238709677419,1.188170389974042,-0.01072413258032758,0.3624800146495585,0.1221761219944521
-0.0001549138709677419,1.168395682531756,-0.01045665954763669,0.3598067290514192,0.121519113823146
-0.0001549038709677419,1.142029405941993,-0.009921713482253926,0.3556631363742956,0.1208621056518387
-0.0001548938709677419,1.161804113384315,-0.009654240449562547,0.3527225222163369,0.1192852860407012
-0.0001548838709677419,1.155212544236887,-0.01085786909667157,0.3476432795798721,0.1188910811379175
-0.0001548738709677419,1.151916759663166,-0.01139281516205384,0.3432323583429166,0.1182340729666099
