11-19_RX_motor/motor.csv

#Digilent WaveForms Oscilloscope Acquisition
#Device Name: ADP3450
#Serial Number: SN:210018B48834
#Date Time: 2025-11-19 13:50:23.275.098.340
#Sample rate: 1e+08Hz
#Samples: 32768
#Trigger: Source: Channel 3 Type: Edge Condition: Rising Level: 790 uV Hyst.: Auto HoldOff: 100 ns
#Channel 1: Range: 500 mV/div Offset: 0 V Attenuation: 1 X Coupling: DC Bandwidth: Full Sample Mode: Average
#Channel 2: Range: 10 mV/div Offset: 0 V Attenuation: 1 X Coupling: DC Bandwidth: Full Sample Mode: Average
#Channel 3: Range: 200 mV/div Offset: 0 V Attenuation: 1 X Coupling: DC Bandwidth: Full Sample Mode: Average
#Channel 4: Range: 100 mV/div Offset: 0 V Attenuation: 1 X Coupling: DC Bandwidth: Full Sample Mode: Average

Time (s),Channel 1 (V),Channel 2 (V),Channel 3 (V),Channel 4 (V)
-0.0001567820689655172,1.128846267647111,-0.01527117413608152,0.5669863629075983,0.1893223571020592
-0.0001567720689655173,1.118958913925951,-0.01634106626684704,0.5689913271062065,0.1885339472964905
-0.0001567620689655172,1.135437836794576,-0.01567238368511859,0.5703279699052828,0.1895851603705841
-0.0001567520689655172,1.148620975089434,-0.01567238368511859,0.5726002626637012,0.1906363734446738
-0.0001567420689655172,1.135437836794552,-0.01620732975050135,0.575006219702031,0.191818988153027
-0.0001567320689655172,1.11566312935223,-0.01580612020146428,0.576209198221196,0.1936586110326874
-0.0001567220689655173,1.155212544236875,-0.0155386471687729,0.5767438553408248,0.193527209398426
-0.0001567120689655173,1.138733621368303,-0.01620732975050013,0.5775458410202666,0.1932644061299035
-0.0001567020689655172,1.132142052220832,-0.01714348536491851,0.5792834766590658,0.1915561848845048
-0.0001566920689655172,1.132142052220832,-0.01567238368511859,0.5814221051375773,0.1919503897872884
-0.0001566820689655172,1.148620975089434,-0.01527117413608152,0.5838280621759071,0.1928702012271186
-0.0001566720689655173,1.138733621368273,-0.01500370110339014,0.5848973764151648,0.1937900126669489
-0.0001566620689655173,1.122254698499701,-0.01634106626684461,0.5874369977333972,0.1953668322780835
-0.0001566520689655172,1.11566312935229,-0.01540491065242964,0.5878379905731255,0.1954982339123493
-0.0001566420689655172,1.148620975089434,-0.01674227581588411,0.5889073048123812,0.1962866437179166
-0.0001566320689655172,1.142029405941993,-0.01674227581588411,0.5898429547717317,0.1951040290095635
-0.0001566220689655172,1.132142052220832,-0.01714348536492118,0.5906449404511749,0.1945784224725176
-0.0001566120689655173,1.142029405941975,-0.0163410662668485,0.5919815832502446,0.194184217569734
-0.0001566020689655172,1.112367344778576,-0.01687601233223175,0.5937192188890432,0.1940528159354744
-0.0001565920689655172,1.148620975089434,-0.01794590446299532,0.5950558616881129,0.1954982339123479
-0.0001565820689655172,1.128846267647111,-0.01647480278319273,0.5969271616068139,0.1964180453521781
-0.0001565720689655172,1.125550483073391,-0.01634106626684704,0.5981301401259788,0.1977320616947927
-0.0001565620689655173,1.122254698499671,-0.01647480278319273,0.5991994543652365,0.1977320616947927
-0.0001565520689655172,1.132142052220808,-0.01660853929954061,0.5994667829250522,0.1962866437179166
-0.0001565420689655172,1.118958913925951,-0.01781216794664963,0.6001351043245869,0.1962866437179166
-0.0001565320689655172,1.122254698499671,-0.01714348536492118,0.6018727399633808,0.1957610371808708
-0.0001565220689655172,1.118958913925951,-0.01754469491395825,0.6018727399633808,0.1957610371808708
-0.0001565120689655173,1.128846267647111,-0.01834711401203239,0.6053480112409683,0.1973378567920083
-0.0001565020689655173,1.115663129352254,-0.01700974884857792,0.6046796898414334,0.1987832747688817
-0.0001564920689655172,1.118958913925951,-0.01540491065242721,0.6060163326405044,0.1983890698661
-0.0001564820689655172,1.11566312935223,-0.01607359323415566,0.6065509897601332,0.1994402829401916
-0.0001564720689655172,1.135437836794552,-0.01741095839761256,0.6076203039993908,0.198126266597577
-0.0001564620689655173,1.138733621368273,-0.01700974884857549,0.6080212968391125,0.1968122502549624
-0.0001564520689655173,1.115663129352272,-0.01700974884857549,0.6074866397194847,0.1972064551577461
-0.0001564420689655172,1.109071560204843,-0.01700974884857597,0.6090906110783715,0.1964180453521809
-0.0001564320689655172,1.138733621368273,-0.01727722188126687,0.6097589324779062,0.1979948649633156
-0.0001564220689655172,1.118958913925951,-0.0168760123322298,0.6110955752769784,0.1995716845744531
-0.0001564120689655172,1.145325190515714,-0.0168760123322298,0.6113629038367928,0.1991774796716687
-0.0001564020689655173,1.125550483073427,-0.01660853929953891,0.6116302323966067,0.1991774796716687
-0.0001563920689655172,1.115663129352254,-0.01687601233223248,0.6116302323966084,0.198389069866099
-0.0001563820689655172,1.128846267647111,-0.01834711401203239,0.6122985537961433,0.1978634633290541
-0.0001563720689655172,1.118958913925951,-0.01767843143030394,0.6129668751956794,0.1976006600605312
-0.0001563620689655172,1.11236734477851,-0.01700974884857549,0.6137688608751226,0.1977320616947927
-0.0001563520689655173,1.122254698499653,-0.01861458704472085,0.6140361894349367,0.1981262665975763
-0.0001563420689655172,1.122254698499665,-0.01794590446299264,0.6151055036741944,0.1987832747688848
-0.0001563320689655172,1.118958913925951,-0.01647480278319273,0.6148381751143803,0.1990460780374073
-0.0001563220689655172,1.105775775631069,-0.01794590446299532,0.6140361894349371,0.1994402829401916
-0.0001563120689655172,1.132142052220832,-0.01781216794664963,0.615907489353638,0.1977320616947927
-0.0001563020689655173,1.11566312935223,-0.01794590446299532,0.6139025251550299,0.1973378567920083
-0.0001562920689655173,1.11566312935223,-0.01861458704472255,0.6156401607938206,0.1962866437179185
-0.0001562820689655172,1.125550483073391,-0.01834711401203239,0.6151055036741948,0.1976006600605312
-0.0001562720689655172,1.125550483073391,-0.01781216794664963,0.6157738250737308,0.1982576682318385
-0.0001562620689655172,1.105775775631069,-0.01607359323415566,0.6160411536335453,0.1978634633290541
-0.0001562520689655173,1.079409499041306,-0.01741095839761256,0.6155064965139164,0.1983890698661
-0.0001562420689655173,1.109071560204735,-0.01674227581588533,0.6160411536335443,0.1978634633290551
-0.0001562320689655172,1.095888421909944,-0.01700974884857841,0.6159074893536368,0.1978634633290527
-0.0001562220689655172,1.11566312935223,-0.01861458704472377,0.6152391679541019,0.1970750535234854
-0.0001562120689655172,1.11236734477851,-0.01861458704472377,0.6152391679541019,0.1962866437179166
-0.0001562020689655172,1.105775775631069,-0.01781216794664963,0.6157738250737308,0.1957610371808708
-0.0001561920689655173,1.092592637336211,-0.01741095839761329,0.6159074893536378,0.1966808486206993
-0.0001561820689655172,1.102479991057372,-0.01861458704472377,0.6152391679541036,0.1962866437179178
-0.0001561720689655172,1.11566312935223,-0.01861458704472377,0.6161748179134524,0.1969436518892239
-0.0001561620689655172,1.105775775631069,-0.01848085052837808,0.6152391679541019,0.1976006600605312
-0.0001561520689655172,1.11566312935223,-0.01874832356106946,0.6137688608751226,0.1964180453521781
-0.0001561420689655173,1.092592637336229,-0.01794590446299678,0.6140361894349367,0.195761037180872
-0.0001561320689655172,1.099184206483622,-0.01767843143030491,0.6143035179947502,0.1951040290095637
-0.0001561220689655172,1.095888421909908,-0.0182133774956867,0.6136351965952155,0.1952354306438249
-0.0001561120689655172,1.095888421909908,-0.01727722188126687,0.6144371822746587,0.1945784224725176
-0.0001561020689655172,1.089296852762467,-0.01781216794664963,0.6140361894349371,0.1952354306438249
-0.0001560920689655173,1.109071560204789,-0.01874832356106946,0.6120312252363289,0.1956296355466093
-0.0001560820689655173,1.095888421909932,-0.01901579659376035,0.6126995466358637,0.1947098241067808
-0.0001560720689655172,1.095888421909908,-0.01754469491395825,0.6106945824372567,0.1952354306438249
-0.0001560620689655172,1.122254698499671,-0.01874832356106946,0.6106945824372567,0.1940528159354718
-0.0001560520689655172,1.128846267647111,-0.01888206007741515,0.6094916039180919,0.1924759963243343
-0.0001560420689655173,1.082705283615026,-0.01781216794664963,0.608956946798463,0.1924759963243343
-0.0001560320689655173,1.089296852762455,-0.01834711401203142,0.6098925967578118,0.1926073979585955
-0.0001560220689655172,1.105775775631039,-0.01674227581588533,0.6084222896788325,0.1918189881530265
-0.0001560120689655172,1.089296852762467,-0.01741095839761256,0.6074866397194837,0.191556184884504
-0.0001560020689655172,1.086001068188747,-0.01567238368511859,0.6074866397194837,0.1920817914215499
-0.0001559920689655173,1.11566312935223,-0.01767843143030394,0.6054816755208755,0.1908991767131968
-0.0001559820689655173,1.102479991057372,-0.01914953311010385,0.6046796898414336,0.1899793652733682
-0.0001559720689655172,1.109071560204741,-0.01834711401203117,0.6028083899227339,0.1893223571020588
-0.0001559620689655172,1.082705283615026,-0.01767843143030394,0.6042786970017106,0.1890595538335363
-0.0001559520689655172,1.102479991057348,-0.01647480278319273,0.6029420542026385,0.1891909554677978
-0.0001559420689655172,1.118958913925951,-0.01767843143030394,0.6018727399633808,0.1895851603705822
-0.0001559320689655173,1.086001068188807,-0.01687601233223126,0.6009370900040319,0.1886653489307536
-0.0001559220689655172,1.102479991057354,-0.0172772218812659,0.5990657900853266,0.1881397423937066
-0.0001559120689655172,1.105775775631069,-0.01674227581588411,0.5975954830063499,0.188402545662229
-0.0001559020689655172,1.092592637336187,-0.01727722188126687,0.5965261687670923,0.1873513325881373
-0.0001558920689655172,1.099184206483628,-0.0182133774956867,0.5955905188077417,0.1863001195140457
-0.0001558820689655173,1.092592637336187,-0.0168760123322298,0.5931845617694119,0.1856431113427384
-0.0001558720689655172,1.086001068188735,-0.01674227581588338,0.593451890329226,0.184854701537171
-0.0001558620689655172,1.079409499041306,-0.01634106626684704,0.5931845617694119,0.1856431113427384
-0.0001558520689655172,1.092592637336187,-0.01700974884857549,0.5906449404511749,0.1841976933658623
-0.0001558420689655172,1.082705283615026,-0.01794590446299532,0.5891746333721956,0.1844604966343852
-0.0001558320689655173,1.102479991057348,-0.01754469491395825,0.5874369977334019,0.1847232999029081
-0.0001558220689655173,1.076113714467633,-0.01754469491395825,0.586768676333867,0.1831464802917735
-0.0001558120689655172,1.072817929893865,-0.01794590446299337,0.5843627192955357,0.1818324639491551
-0.0001558020689655172,1.072817929893865,-0.0168760123322298,0.5842290550156287,0.1813068574121102
-0.0001557920689655172,1.102479991057348,-0.0168760123322298,0.5828924122165566,0.1813068574121102
-0.0001557820689655173,1.089296852762467,-0.01767843143030394,0.5815557694174844,0.1809126525093258
-0.0001557720689655173,1.079409499041324,-0.01781216794664939,0.5799517980586008,0.1797300378009748
-0.0001557620689655172,1.086001068188717,-0.01741095839761353,0.577946833859986,0.1802556443380178
-0.0001557520689655172,1.069522145320144,-0.01794590446299532,0.5759418696613815,0.1798614394352341
-0.0001557420689655172,1.082705283615026,-0.01580612020146428,0.5748725554221239,0.1780218165555737
-0.0001557320689655172,1.089296852762467,-0.01674227581588411,0.5727339269436085,0.1780218165555737
-0.0001557220689655173,1.076113714467609,-0.01781216794664768,0.5704616341851899,0.1759193904073942
-0.0001557120689655172,1.099184206483628,-0.0158061202014655,0.5700606413454608,0.1767078002129588
-0.0001557020689655172,1.099184206483628,-0.01647480278319273,0.5681893414267633,0.1765763985786976
-0.0001556920689655172,1.092592637336187,-0.01620732975050135,0.5657833843884335,0.1756565871388674
-0.0001556820689655172,1.089296852762467,-0.01660853929953842,0.5644467415893613,0.1757879887731289
-0.0001556720689655173,1.089296852762467,-0.01580612020146428,0.5617734559912171,0.1751309806018216
-0.0001556620689655172,1.086001068188741,-0.01567238368512005,0.5607041417519565,0.1735541609906814
-0.0001556520689655172,1.082705283615026,-0.01647480278319273,0.5591001703930728,0.172108743013808
-0.0001556420689655172,1.069522145320144,-0.01741095839761256,0.556694213354743,0.172108743013808
-0.0001556320689655172,1.089296852762467,-0.01754469491395825,0.5549565777159492,0.1710575299397163
-0.0001556220689655173,1.089296852762467,-0.01647480278319273,0.5528179492374338,0.1701377184998861
-0.0001556120689655173,1.109071560204753,-0.01620732975050184,0.5512139778785502,0.1701377184998861
-0.0001556020689655172,1.086001068188747,-0.01674227581588411,0.5490753494000319,0.170400521768409
-0.0001555920689655172,1.086001068188747,-0.0155386471687729,0.5470703852014237,0.1688237021572715
-0.0001555820689655172,1.049747437877822,-0.01741095839761256,0.5443970996032794,0.167246882546134
-0.0001555720689655173,1.086001068188747,-0.01647480278319273,0.5414564854453208,0.1665898743748267
-0.0001555620689655173,1.086001068188747,-0.01660853929953818,0.5399861783663441,0.1643560465923859
-0.0001555520689655172,1.062930576172734,-0.01527117413608249,0.5379812141677284,0.1647502514951651
-0.0001555420689655172,1.079409499041306,-0.01580612020146428,0.535307928569589,0.1640932433238589
-0.0001555320689655172,1.082705283615026,-0.01540491065242721,0.5337039572107024,0.1642246449581204
-0.0001555220689655172,1.072817929893865,-0.01513743761973583,0.5315653287321871,0.1633048335182902
-0.0001555120689655173,1.082705283615008,-0.0144687550380086,0.5294267002536756,0.1627792269812453
-0.0001555020689655172,1.053043222451609,-0.016474802783192,0.5264860860957077,0.1615966122728884
-0.0001554920689655172,1.089296852762467,-0.01607359323415566,0.5235454719377544,0.1600197926617537
-0.0001554820689655172,1.066226360746424,-0.01567238368511859,0.5210058506195173,0.1594941861247079
-0.0001554720689655172,1.066226360746424,-0.01540491065242721,0.5198028721003524,0.1587057763191391
-0.0001554620689655173,1.079409499041282,-0.01473622807069998,0.517129586502213,0.1584429730506166
-0.0001554520689655172,1.086001068188723,-0.01540491065242502,0.5141889723442474,0.1581801697820904
-0.0001554420689655172,1.072817929893865,-0.014201282005316,0.5131196581049917,0.1566033501709558
-0.0001554320689655172,1.066226360746424,-0.0155386471687729,0.5091097297077753,0.1564719485366943
-0.0001554220689655172,1.062930576172704,-0.01634106626684704,0.5065701083895383,0.1550265305598182
-0.0001554120689655173,1.082705283615026,-0.01486996458704445,0.5038968227913941,0.1538439158514651
-0.0001554020689655173,1.079409499041312,-0.01540491065242624,0.5016245300329756,0.1530555060458978
-0.0001553920689655172,1.062930576172704,-0.01607359323415566,0.4993522372745489,0.1517414897032817
-0.0001553820689655172,1.076113714467585,-0.01527117413608152,0.4961442945567758,0.1505588749949286
-0.0001553720689655172,1.056339007025263,-0.01446875503800738,0.4941393303581676,0.1508216782634515
-0.0001553620689655173,1.059634791598983,-0.01380007245627893,0.4911987162002089,0.1501646700921442
-0.0001553520689655173,1.069522145320126,-0.01420128200531527,0.4887927591618835,0.1483250472124871
-0.0001553420689655172,1.053043222451597,-0.01380007245628015,0.4858521450039153,0.1480622439439592
-0.0001553320689655172,1.082705283615026,-0.01446875503800738,0.483045195125869,0.1471424325041306
-0.0001553220689655172,1.069522145320144,-0.01500370110339014,0.4797035881281886,0.1453028096244702
-0.0001553120689655172,1.076113714467585,-0.01446875503800738,0.4766293096903228,0.14438299818464
-0.0001553020689655173,1.069522145320156,-0.01500370110338917,0.4740896883720904,0.1438573916475951
-0.0001552920689655172,1.059634791598995,-0.01366633593993373,0.4714164027739354,0.1439887932818518
-0.0001552820689655172,1.066226360746424,-0.01393380897262462,0.4680747957762612,0.1418863671336723
-0.0001552720689655172,1.066226360746424,-0.014201282005316,0.4652678458982097,0.1413607605966264
-0.0001552620689655172,1.066226360746424,-0.01353259942358755,0.4621935674603438,0.1405723507910576
-0.0001552520689655173,1.066226360746424,-0.01313138987455121,0.4588519604626696,0.1387327279114006
-0.0001552420689655172,1.0794094990413,-0.01326512639089666,0.4560450105846057,0.138338523008609
-0.0001552320689655172,1.076113714467585,-0.01353259942358755,0.4525697393070245,0.1362360968604295
-0.0001552220689655172,1.062930576172704,-0.01366633593993324,0.450965767948138,0.1355790886891222
-0.0001552120689655172,1.069522145320144,-0.01380007245627893,0.4470895038308288,0.1345278756150305
-0.0001552020689655173,1.053043222451543,-0.01339886290724186,0.4438815611130558,0.1349220805178149
-0.0001551920689655172,1.079409499041282,-0.01313138987455121,0.4408072826751835,0.1330824576381525
-0.0001551820689655172,1.066226360746424,-0.01353259942358755,0.4373320113976024,0.1320312445640628
-0.0001551720689655172,1.069522145320144,-0.01446875503800738,0.4334557472802932,0.1311114331242325
-0.0001551620689655172,1.069522145320144,-0.01326512639089617,0.4319854402013139,0.1290090069760492
-0.0001551520689655173,1.066226360746424,-0.01460249155435307,0.4281091760840047,0.1286148020732648
-0.0001551420689655173,1.046451653304138,-0.01380007245628039,0.4245002405265165,0.1269065808278689
-0.0001551320689655172,1.049747437877846,-0.01353259942358585,0.4215596263685462,0.127432187364909
-0.0001551220689655172,1.062930576172704,-0.01259644380916772,0.4187526764904999,0.1259867693880356
-0.0001551120689655172,1.069522145320144,-0.01192776122743927,0.4143417552535618,0.1250669579482054
-0.0001551020689655173,1.066226360746424,-0.01125907864571083,0.4116684696554176,0.1236215399713293
-0.0001550920689655173,1.072817929893853,-0.01246270729281984,0.4087278554974642,0.1233587367028069
-0.0001550820689655172,1.056339007025245,-0.01326512639089569,0.4041832699806084,0.1211249089203599
-0.0001550720689655172,1.046451653304102,-0.01299765335820479,0.401242655822655,0.1202050974805314
-0.0001550620689655172,1.059634791598983,-0.01139281516205651,0.3975000559852531,0.1191538844064397
-0.0001550520689655172,1.03656429958294,-0.01232897077647634,0.3945594418272944,0.1174456631610407
-0.0001550420689655173,1.06622636074637,-0.01286391684185813,0.3904158491501784,0.1167886549897346
-0.0001550320689655172,1.059634791599025,-0.01286391684185399,0.3877425635520183,0.1157374419156401
-0.0001550220689655172,1.082705283615026,-0.01005544999859962,0.3831979780351814,0.1148176304758115
-0.0001550120689655172,1.043155868730381,-0.01085786909667375,0.3803910281571299,0.1145548272072886
-0.0001550020689655172,1.053043222451543,-0.01313138987455048,0.3759801069201919,0.1117953928877979
-0.0001549920689655173,1.072817929893865,-0.01139281516205651,0.3733068213220476,0.1108755814479677
-0.0001549820689655172,1.053043222451549,-0.01032292303129391,0.3696978857645483,0.1107441798137029
-0.0001549720689655172,1.056339007025263,-0.01192776122743927,0.3671582644463159,0.1089045569340458
-0.0001549620689655172,1.053043222451543,-0.01152655167840221,0.3626136789294707,0.1089045569340458
-0.0001549520689655172,1.043155868730381,-0.010322923031291,0.3586037505322543,0.1069335324201239
-0.0001549420689655173,1.059634791598983,-0.009787976965908236,0.3555294720943884,0.1052253111747249
-0.0001549320689655173,1.059634791598983,-0.01085786909667181,0.3509848865775514,0.1048311062719413
-0.0001549220689655172,1.04974743787784,-0.01085786909667375,0.3465739653405998,0.1031228850265385
-0.0001549120689655172,1.059634791598983,-0.01085786909667375,0.3436333511826465,0.1014146637811426
-0.0001549020689655172,1.03656429958294,-0.01085786909667375,0.3398907513452445,0.1008890572440968
-0.0001548920689655173,1.020085376714339,-0.01125907864571083,0.3365491443475642,0.09904943436443633
-0.0001548820689655173,1.033268515009196,-0.01125907864571083,0.3332075373498901,0.09891803273017512
-0.0001548720689655172,1.046451653304102,-0.01072413258032977,0.3291976089526591,0.09720981148477374
