11-19_RX_motor/probe2.csv

#Digilent WaveForms Oscilloscope Acquisition
#Device Name: ADP3450
#Serial Number: SN:210018B48834
#Date Time: 2025-11-19 14:01:48.375.332.090
#Sample rate: 1e+08Hz
#Samples: 32768
#Trigger: Source: Channel 3 Type: Edge Condition: Rising Level: 790 uV Hyst.: Auto HoldOff: 100 ns
#Channel 1: Range: 500 mV/div Offset: 0 V Attenuation: 1 X Coupling: DC Bandwidth: Full Sample Mode: Average
#Channel 2: Range: 10 mV/div Offset: 0 V Attenuation: 1 X Coupling: DC Bandwidth: Full Sample Mode: Average
#Channel 3: Range: 200 mV/div Offset: 0 V Attenuation: 1 X Coupling: DC Bandwidth: Full Sample Mode: Average
#Channel 4: Range: 100 mV/div Offset: 0 V Attenuation: 1 X Coupling: DC Bandwidth: Full Sample Mode: Average

Time (s),Channel 1 (V),Channel 2 (V),Channel 3 (V),Channel 4 (V)
-0.0001567873333333333,1.20135352826896,-0.01406754548897031,0.5874369977334019,0.1513472848004974
-0.0001567773333333334,1.188170389974078,-0.01500370110339014,0.5889073048123812,0.1521356946060661
-0.0001567673333333333,1.198057743695222,-0.01486996458704591,0.5899766190516409,0.1537125142172031
-0.0001567573333333333,1.188170389974078,-0.01567238368511859,0.5910459332908965,0.1534497109486807
-0.0001567473333333333,1.178283036252918,-0.01527117413608152,0.5933182260493192,0.1527927027773734
-0.0001567373333333333,1.194761959121519,-0.01486996458704445,0.5953231902479273,0.1525298995088505
-0.0001567273333333334,1.194761959121519,-0.01433501852166169,0.5991994543652365,0.1525298995088505
-0.0001567173333333334,1.178283036252948,-0.01393380897262535,0.6006697614442131,0.1525298995088505
-0.0001567073333333333,1.181578820826668,-0.01540491065242551,0.6016054114035675,0.154763727291297
-0.0001566973333333333,1.19805774369524,-0.01446875503800738,0.6022737328031024,0.1556835387311255
-0.0001566873333333333,1.181578820826638,-0.01567238368511859,0.6040113684418962,0.1559463419996484
-0.0001566773333333334,1.171691467105477,-0.0155386471687729,0.604546025561525,0.157523161610786
-0.0001566673333333334,1.188170389974048,-0.01674227581588192,0.6061499969204086,0.1568661534394798
-0.0001566573333333333,1.181578820826656,-0.01593985671781094,0.6088232825185587,0.1562091452681697
-0.0001566473333333333,1.191466174547799,-0.01647480278319273,0.6104272538774423,0.1552893338283411
-0.0001566373333333333,1.178283036252918,-0.0155386471687729,0.6124322180760505,0.1551579321940797
-0.0001566273333333334,1.184874605400358,-0.01607359323415566,0.613367868035401,0.1577859648793089
-0.0001566173333333334,1.188170389974072,-0.01460249155435575,0.6143035179947498,0.1587057763191374
-0.0001566073333333333,1.204649312842639,-0.01593985671781143,0.6141698537148447,0.1588371779534013
-0.0001565973333333333,1.181578820826638,-0.01674227581588411,0.6144371822746587,0.1592313828561849
-0.0001565873333333333,1.181578820826638,-0.01727722188126687,0.6167094750330813,0.1596255877589693
-0.0001565773333333333,1.174987251679197,-0.01580612020146428,0.6184471106718751,0.1597569893932308
-0.0001565673333333334,1.174987251679197,-0.01620732975050135,0.6200510820307616,0.1593627844904464
-0.0001565573333333333,1.174987251679221,-0.01527117413608395,0.6220560462293711,0.1579173665135713
-0.0001565473333333333,1.188170389974078,-0.01660853929953842,0.6227243676289058,0.1584429730506162
-0.0001565373333333333,1.178283036252918,-0.01607359323415566,0.6231253604686275,0.1601511942960152
-0.0001565273333333333,1.158508328810595,-0.01580612020146428,0.624061010427978,0.1619908171756756
-0.0001565173333333334,1.168395682531756,-0.0155386471687729,0.624729331827514,0.1619908171756756
-0.0001565073333333334,1.198057743695186,-0.01687601233222737,0.6259323103466767,0.1613338090043695
-0.0001564973333333333,1.174987251679197,-0.01714348536492118,0.625932310346679,0.1604139975645381
-0.0001564873333333333,1.174987251679197,-0.01727722188126687,0.628471931664916,0.1609396041015839
-0.0001564773333333333,1.20135352826896,-0.01607359323415566,0.6294075816242665,0.1609396041015839
-0.0001564673333333334,1.178283036252918,-0.01634106626684704,0.6307442244233387,0.1615966122728912
-0.0001564573333333334,1.198057743695204,-0.01647480278319249,0.6304768958635246,0.1621222188099361
-0.0001564473333333333,1.191466174547745,-0.01687601233223077,0.6311452172630578,0.1630420302497665
-0.0001564373333333333,1.161804113384315,-0.01741095839761256,0.6298085744639881,0.1626478253469829
-0.0001564273333333333,1.168395682531756,-0.01807964097934101,0.6308778887032458,0.1631734318840287
-0.0001564173333333334,1.181578820826638,-0.0168760123322298,0.6324818600621324,0.1627792269812444
-0.0001564073333333334,1.171691467105495,-0.01660853929953891,0.6334175100214812,0.1622536204441995
-0.0001563973333333333,1.1782830362529,-0.01674227581588508,0.6343531599808355,0.1615966122728934
-0.0001563873333333333,1.168395682531756,-0.01727722188126687,0.6355561384999983,0.1627792269812444
-0.0001563773333333333,1.165099897958036,-0.01807964097934101,0.6346204885406478,0.1635676367868131
-0.0001563673333333333,1.165099897958036,-0.01674227581588411,0.6352888099401838,0.1639618416895975
-0.0001563573333333334,1.184874605400322,-0.017009748848575,0.6351551456602769,0.1647502514951648
-0.0001563473333333333,1.171691467105525,-0.01714348536492191,0.6350214813803698,0.1640932433238561
-0.0001563373333333333,1.19805774369524,-0.01754469491395825,0.6352888099401838,0.1625164237127214
-0.0001563273333333333,1.161804113384315,-0.01660853929953842,0.6376947669785137,0.1627792269812444
-0.0001563173333333333,1.161804113384315,-0.01660853929953842,0.6371601098588848,0.1627792269812444
-0.0001563073333333334,1.171691467105477,-0.01647480278319273,0.6370264455789776,0.1633048335182902
-0.0001562973333333334,1.168395682531762,-0.01674227581588363,0.6379620955383264,0.1639618416895963
-0.0001562873333333333,1.19805774369524,-0.01620732975050135,0.636625452739256,0.1642246449581204
-0.0001562773333333333,1.178283036252918,-0.01700974884857549,0.6367591170191632,0.1648816531294277
-0.0001562673333333333,1.161804113384315,-0.01848085052837808,0.6364917884593487,0.163830440055336
-0.0001562573333333334,1.158508328810595,-0.0168760123322298,0.6374274384186992,0.1631734318840287
-0.0001562473333333334,1.168395682531738,-0.01593985671781167,0.6375611026986062,0.1623850220784614
-0.0001562373333333333,1.161804113384339,-0.01553864716877777,0.6384967526579571,0.1630420302497665
-0.0001562273333333333,1.174987251679197,-0.0182133774956867,0.6386304169378642,0.1626478253469829
-0.0001562173333333333,1.158508328810595,-0.01634106626684704,0.6392987383374003,0.1642246449581204
-0.0001562073333333334,1.168395682531756,-0.0168760123322298,0.6367591170191632,0.1635676367868131
-0.0001561973333333334,1.165099897958042,-0.01767843143030248,0.6368927812990701,0.1650130547636865
-0.0001561873333333333,1.168395682531762,-0.01781216794664939,0.6356898027799059,0.1638304400553341
-0.0001561773333333333,1.171691467105477,-0.01767843143030394,0.6359571313397199,0.1627792269812444
-0.0001561673333333333,1.168395682531756,-0.01741095839761256,0.6368927812990703,0.1633048335182902
-0.0001561573333333334,1.178283036252918,-0.01741095839761256,0.6367591170191632,0.1626478253469829
-0.0001561473333333334,1.13543783679463,-0.01741095839761256,0.6370264455789771,0.1630420302497665
-0.0001561373333333333,1.155212544236875,-0.01687601233223199,0.6359571313397172,0.1633048335182911
-0.0001561273333333333,1.155212544236875,-0.01807964097934101,0.6344868242607405,0.163830440055336
-0.0001561173333333333,1.158508328810595,-0.0168760123322298,0.6335511743013901,0.1636990384210746
-0.0001561073333333333,1.158508328810595,-0.0168760123322298,0.6336848385812973,0.1633048335182902
-0.0001560973333333334,1.145325190515714,-0.01580612020146428,0.6331501814616685,0.1627792269812444
-0.0001560873333333334,1.158508328810571,-0.01741095839760964,0.6332838457415754,0.161990817175677
-0.0001560773333333333,1.138733621368273,-0.01714348536492118,0.6336848385812973,0.1615966122728912
-0.0001560673333333333,1.142029405941993,-0.01767843143030394,0.632214531502318,0.1613338090043683
-0.0001560573333333333,1.142029405941993,-0.01580612020146428,0.6326155243420396,0.1619908171756756
-0.0001560473333333334,1.155212544236875,-0.01634106626684704,0.6306105601434314,0.1629106286155058
-0.0001560373333333334,1.135437836794588,-0.01754469491395606,0.6288729245046407,0.1626478253469834
-0.0001560273333333333,1.142029405942011,-0.0162073297505033,0.6284719316649133,0.1623850220784585
-0.0001560173333333333,1.151916759663154,-0.01727722188126687,0.6270016245859367,0.1615966122728912
-0.0001560073333333333,1.145325190515714,-0.01660853929953842,0.6268679603060294,0.1612024073701068
-0.0001559973333333334,1.155212544236875,-0.01660853929953842,0.6264669674663078,0.1602825959302766
-0.0001559873333333334,1.168395682531732,-0.01634106626684753,0.6266006317462148,0.1594941861247093
-0.0001559773333333333,1.155212544236851,-0.01647480278319127,0.624194674707884,0.1594941861247105
-0.0001559673333333333,1.142029405941993,-0.01567238368511859,0.6235263533083492,0.1609396041015839
-0.0001559573333333333,1.151916759663154,-0.01647480278319273,0.6236600175882564,0.1622536204441985
-0.0001559473333333334,1.158508328810595,-0.01741095839761256,0.621521389109741,0.1590999812219235
-0.0001559373333333334,1.161804113384309,-0.0158061202014672,0.6208530677102061,0.1593627844904459
-0.0001559273333333333,1.145325190515708,-0.01634106626684801,0.6191154320714112,0.1585743746848765
-0.0001559173333333333,1.142029405941993,-0.0168760123322298,0.6191154320714112,0.1579173665135703
-0.0001559073333333333,1.155212544236875,-0.01754469491395825,0.6188481035115967,0.1581801697820933
-0.0001558973333333333,1.138733621368273,-0.01674227581588411,0.6169768035928958,0.1585743746848776
-0.0001558873333333334,1.118958913925951,-0.01647480278319273,0.6155064965139164,0.1588371779534005
-0.0001558773333333333,1.142029405942023,-0.01553864716877533,0.6143035179947474,0.1581801697820935
-0.0001558673333333333,1.158508328810595,-0.0168760123322298,0.6120312252363289,0.1583115714163547
-0.0001558573333333333,1.161804113384315,-0.01700974884857549,0.6116302323966072,0.157260358342263
-0.0001558473333333333,1.145325190515714,-0.01647480278319273,0.6104272538774423,0.1559463419996484
-0.0001558373333333334,1.142029405941993,-0.01674227581588411,0.608956946798463,0.1545009240227724
-0.0001558273333333334,1.13214205222085,-0.01634106626684777,0.6085559539587422,0.1543695223885112
-0.0001558173333333333,1.148620975089392,-0.01513743761973559,0.6058826683605951,0.1545009240227726
-0.0001558073333333333,1.125550483073391,-0.01500370110339014,0.6048133541213394,0.1546323256570338
-0.0001557973333333333,1.138733621368273,-0.0155386471687729,0.6030757184825457,0.1545009240227724
-0.0001557873333333334,1.125550483073391,-0.01593985671780997,0.6010707542839374,0.154106719119988
-0.0001557773333333334,1.168395682531678,-0.0166085392995372,0.5997341114848678,0.1542381207542492
-0.0001557673333333333,1.155212544236845,-0.01674227581588387,0.5971944901666273,0.1534497109486773
-0.0001557573333333333,1.138733621368273,-0.01660853929953842,0.5966598330469994,0.1516100880690203
-0.0001557473333333333,1.138733621368273,-0.01593985671780997,0.595724183087649,0.1513472848004974
-0.0001557373333333334,1.132142052220832,-0.01607359323415566,0.5931845617694119,0.1521356946060661
-0.0001557273333333334,1.155212544236833,-0.01714348536491923,0.5918479189703423,0.1520042929718049
-0.0001557173333333333,1.132142052220844,-0.01580612020146428,0.5890409690922863,0.1521356946060639
-0.0001557073333333333,1.138733621368273,-0.01580612020146428,0.5879716548530307,0.150953079897713
-0.0001556973333333333,1.122254698499671,-0.01647480278319273,0.585699362094608,0.15069027662919
-0.0001556873333333333,1.145325190515714,-0.01607359323415566,0.5848973764151648,0.1499018668236213
-0.0001556773333333334,1.132142052220832,-0.01593985671780997,0.5828924122165566,0.1491134570180525
-0.0001556673333333333,1.13543783679454,-0.01620732975049843,0.5804864551782255,0.1480622439439604
-0.0001556573333333333,1.128846267647111,-0.01460249155435307,0.5798181337786907,0.1477994406754379
-0.0001556473333333333,1.125550483073391,-0.01527117413608152,0.5774121767403608,0.1472738341383921
-0.0001556373333333333,1.125550483073391,-0.01540491065242721,0.5747388911422167,0.1479308423096994
-0.0001556273333333334,1.122254698499671,-0.01647480278319273,0.5723329341038869,0.1467482276013463
-0.0001556173333333334,1.118958913925957,-0.01634106626684729,0.5700606413454683,0.1460912194300401
-0.0001556073333333333,1.142029405941993,-0.01593985671780997,0.5683230057066705,0.145828416161516
-0.0001555973333333333,1.145325190515714,-0.01527117413608152,0.5663180415080623,0.1449086047216858
-0.0001555873333333333,1.138733621368273,-0.01593985671780997,0.5648477344290829,0.1434631867448098
-0.0001555773333333334,1.145325190515714,-0.01580612020146428,0.5632437630701964,0.1433317851105483
-0.0001555673333333334,1.148620975089428,-0.01634106626684607,0.5611051345916849,0.1421491704021973
-0.0001555573333333333,1.158508328810505,-0.01513743761973413,0.5585655132734386,0.1417549654994105
-0.0001555473333333333,1.109071560204789,-0.014201282005316,0.5556248991154853,0.1416235638651493
-0.0001555373333333333,1.138733621368273,-0.01527117413608152,0.5522832921178049,0.1418863671336723
-0.0001555273333333334,1.118958913925951,-0.01473622807069876,0.5505456564790112,0.1400467442540118
-0.0001555173333333334,1.112367344778522,-0.01500370110338966,0.5489416851201275,0.1388641295456608
-0.0001555073333333333,1.115663129352212,-0.01553864716876974,0.5466693923616972,0.1382071213743523
-0.0001554973333333333,1.105775775631069,-0.01380007245627893,0.5439961067635578,0.1387327279113972
-0.0001554873333333333,1.128846267647111,-0.01380007245627893,0.5407881640457847,0.1379443181058284
-0.0001554773333333333,1.135437836794552,-0.01486996458704445,0.5385158712873621,0.1368931050317368
-0.0001554673333333334,1.132142052220838,-0.01406754548897177,0.5354415928495018,0.1364989001289531
-0.0001554573333333333,1.135437836794558,-0.01540491065242721,0.5320999858518133,0.1358418919576451
-0.0001554473333333333,1.138733621368273,-0.01540491065242721,0.5306296787728365,0.1358418919576451
-0.0001554373333333333,1.095888421909908,-0.0155386471687729,0.5286247145742283,0.1340022690779847
-0.0001554273333333333,1.128846267647111,-0.01486996458704445,0.526486086095713,0.1338708674437232
-0.0001554173333333334,1.105775775631069,-0.01406754548897031,0.5238128004975687,0.1325568511011086
-0.0001554073333333334,1.112367344778498,-0.01433501852166121,0.5210058506195224,0.13163703966128
-0.0001553973333333333,1.118958913925951,-0.01433501852166169,0.5173969150620226,0.1317684412955398
-0.0001553873333333333,1.11236734477851,-0.014201282005316,0.5137879795045278,0.1308486298557096
-0.0001553773333333333,1.11566312935223,-0.01500370110339014,0.512050343865734,0.1300602200501409
-0.0001553673333333334,1.109071560204789,-0.01380007245627893,0.5093770582675898,0.1288776053417877
-0.0001553573333333334,1.125550483073361,-0.01406754548896983,0.5065701083895434,0.1275635889991755
-0.0001553473333333333,1.109071560204807,-0.01446875503800495,0.503495829951669,0.1270379824621275
-0.0001553373333333333,1.118958913925951,-0.01313138987455048,0.5016245300329715,0.1271693840963887
-0.0001553273333333333,1.118958913925951,-0.01259644380916772,0.498149258755384,0.1255925644852512
-0.0001553173333333334,1.109071560204789,-0.01406754548897031,0.4946739874777965,0.1255925644852512
-0.0001553073333333334,1.092592637336217,-0.01380007245627942,0.4911987162002153,0.1241471465083778
-0.0001552973333333333,1.115663129352224,-0.01313138987455048,0.4894610805614089,0.1237529416055901
-0.0001552873333333333,1.11236734477851,-0.01313138987455048,0.4859858092838276,0.1233587367028064
-0.0001552773333333333,1.118958913925951,-0.01460249155435307,0.4833125236856834,0.1228331301657606
-0.0001552673333333334,1.089296852762467,-0.0155386471687729,0.4805055738076319,0.1207307040175772
-0.0001552573333333334,1.095888421909896,-0.01273018032551852,0.4766293096903298,0.1188910811379201
-0.0001552473333333333,1.095888421909866,-0.01433501852166096,0.4730203741328237,0.1196794909434855
-0.0001552373333333333,1.072817929893865,-0.01393380897262462,0.4706144170944982,0.1196794909434855
-0.0001552273333333333,1.105775775631069,-0.01353259942358755,0.4678074672164468,0.1191538844064397
-0.0001552173333333333,1.102479991057348,-0.01353259942358755,0.463530210259416,0.1175770647953022
-0.0001552073333333334,1.095888421909908,-0.01259644380916772,0.4604559318215501,0.1156060402813803
-0.0001551973333333333,1.099184206483616,-0.01232897077647634,0.4573816533836801,0.1157374419156396
-0.0001551873333333333,1.092592637336187,-0.01232897077647634,0.4551093606252616,0.1145548272072886
-0.0001551773333333333,1.079409499041306,-0.01446875503800738,0.4515004250677668,0.1145548272072886
-0.0001551673333333333,1.092592637336187,-0.01273018032551341,0.4468221752710144,0.1131094092304125
-0.0001551573333333334,1.092592637336187,-0.01232897077647634,0.4441488896728702,0.1120581961563209
-0.0001551473333333334,1.086001068188759,-0.01232897077647634,0.4401389612756611,0.1110069830822311
-0.0001551373333333333,1.089296852762449,-0.01219523426013357,0.4366636899980622,0.1108755814479644
-0.0001551273333333333,1.079409499041306,-0.01380007245627893,0.4343913972396437,0.1090359585683073
-0.0001551173333333333,1.092592637336187,-0.01246270729282203,0.4306487974022417,0.1069335324201239
-0.0001551073333333334,1.089296852762467,-0.01246270729282203,0.4262378761653037,0.1069335324201239
-0.0001550973333333334,1.089296852762467,-0.01139281516205846,0.4234309262872574,0.1053567128089893
-0.0001550873333333333,1.082705283615038,-0.01139281516205822,0.4200893192895651,0.1058823193460282
-0.0001550773333333333,1.089296852762467,-0.01232897077647634,0.41634671945217,0.1036484915635874
-0.0001550673333333333,1.079409499041306,-0.01179402471109359,0.4131387767343969,0.1032542866608031
-0.0001550573333333334,1.092592637336187,-0.01139281516205651,0.4088615197773661,0.1020716719524499
-0.0001550473333333334,1.086001068188759,-0.01112534212936562,0.4060545698993198,0.1016774670496663
-0.0001550373333333333,1.109071560204777,-0.01219523426012944,0.4027129629016258,0.1003634507070493
-0.0001550273333333333,1.102479991057348,-0.01152655167840221,0.3980347131048819,0.09944363926722072
-0.0001550173333333333,1.076113714467585,-0.01139281516205651,0.3946931061072016,0.09799822129034466
-0.0001550073333333333,1.086001068188747,-0.01192776122743927,0.3904158491501708,0.0978668196560832
-0.0001549973333333334,1.089296852762467,-0.01219523426013065,0.3874752349922121,0.09602719677642275
-0.0001549873333333333,1.076113714467591,-0.01152655167840269,0.383197978035175,0.09576439350789577
-0.0001549773333333333,1.079409499041306,-0.01179402471109359,0.3797227067575938,0.09353056572545503
-0.0001549673333333333,1.086001068188747,-0.01152655167840221,0.3766484283197279,0.09353056572545503
-0.0001549573333333333,1.082705283615026,-0.01125907864571083,0.3719701785229755,0.09261075428562481
-0.0001549473333333334,1.11236734477851,-0.01005544999859962,0.3675592572860375,0.09077113140596436
-0.0001549373333333334,1.086001068188795,-0.01152655167839953,0.3647523074079911,0.09050832813744192
-0.0001549273333333333,1.109071560204783,-0.009119294384182219,0.3598067290514151,0.08853730362351693
-0.0001549173333333333,1.105775775631069,-0.01045665954763669,0.3575344362929966,0.0870918856466435
-0.0001549073333333333,1.066226360746424,-0.01125907864571083,0.3528561864962442,0.0870918856466435
-0.0001548973333333334,1.109071560204789,-0.01045665954763669,0.3492472509387494,0.08604067257255181
-0.0001548873333333334,1.089296852762503,-0.0099217134822549,0.3452373225415403,0.08459525459567838
-0.0001548773333333333,1.092592637336181,-0.00938676741687214,0.3406927370246818,0.08380684479010508
