11-19_RX_motor/smooth2.csv

#Digilent WaveForms Oscilloscope Acquisition
#Device Name: ADP3450
#Serial Number: SN:210018B48834
#Date Time: 2025-11-19 14:18:55.094.683.570
#Sample rate: 1e+08Hz
#Samples: 32768
#Trigger: Source: Channel 3 Type: Edge Condition: Rising Level: 790 uV Hyst.: Auto HoldOff: 100 ns
#Channel 1: Range: 500 mV/div Offset: 0 V Attenuation: 1 X Coupling: DC Bandwidth: Full Sample Mode: Average
#Channel 2: Range: 10 mV/div Offset: 0 V Attenuation: 1 X Coupling: DC Bandwidth: Full Sample Mode: Average
#Channel 3: Range: 200 mV/div Offset: 0 V Attenuation: 1 X Coupling: DC Bandwidth: Full Sample Mode: Average
#Channel 4: Range: 100 mV/div Offset: 0 V Attenuation: 1 X Coupling: DC Bandwidth: Full Sample Mode: Average

Time (s),Channel 1 (V),Channel 2 (V),Channel 3 (V),Channel 4 (V)
-0.0001567882352941176,1.19805774369524,-0.01353259942358755,0.5859666906544225,0.2052219548476959
-0.0001567782352941177,1.188170389974078,-0.01393380897262462,0.5891746333721956,0.2066673728245719
-0.0001567682352941176,1.204649312842675,-0.01339886290723992,0.591313261850711,0.2054847581162205
-0.0001567582352941176,1.20135352826896,-0.01232897077647634,0.591313261850711,0.206404569556049
-0.0001567482352941176,1.221128235711282,-0.0155386471687729,0.5926499046497831,0.2067987744588334
-0.0001567382352941176,1.204649312842681,-0.01460249155435307,0.5939865474488553,0.2070615777273563
-0.0001567282352941177,1.194761959121519,-0.01580612020146428,0.5965261687670923,0.2073243809958792
-0.0001567182352941177,1.207945097416377,-0.01473622807070071,0.5985311329656968,0.2086383973384914
-0.0001567082352941176,1.204649312842669,-0.01366633593993446,0.6020064042432892,0.2094268071440621
-0.0001566982352941176,1.19805774369524,-0.01433501852166169,0.602674725642824,0.2091640038755397
-0.0001566882352941176,1.188170389974078,-0.01486996458704445,0.602674725642824,0.2096896104125855
-0.0001566782352941177,1.178283036252918,-0.01620732975050135,0.6034767113222673,0.2103466185838928
-0.0001566682352941177,1.174987251679203,-0.0160735932341559,0.6056153398007788,0.211660634926505
-0.0001566582352941176,1.184874605400352,-0.01553864716877339,0.6066846540400418,0.2110036267552003
-0.0001566482352941176,1.181578820826638,-0.01580612020146428,0.6074866397194837,0.2111350283894616
-0.0001566382352941176,1.188170389974078,-0.0155386471687729,0.6097589324779062,0.2111350283894616
-0.0001566282352941177,1.204649312842681,-0.01527117413608152,0.6125658823559578,0.2128432496348605
-0.0001566182352941177,1.191466174547823,-0.01553864716877242,0.6148381751143762,0.2127118480005993
-0.0001566082352941176,1.178283036252912,-0.01446875503800933,0.6153728322340092,0.2133688561719071
-0.0001565982352941176,1.174987251679197,-0.0155386471687729,0.6153728322340092,0.2137630610746908
-0.0001565882352941176,1.194761959121519,-0.01513743761973583,0.6153728322340092,0.2140258643432137
-0.0001565782352941176,1.174987251679197,-0.01540491065242721,0.6173777964326174,0.2138944627089522
-0.0001565682352941177,1.184874605400358,-0.0168760123322298,0.6176451249924318,0.2150770774173054
-0.0001565582352941176,1.178283036252912,-0.01553864716877144,0.6207194034302989,0.2152084790515666
-0.0001565482352941176,1.174987251679197,-0.01473622807069876,0.6213877248298337,0.2150770774173054
-0.0001565382352941176,1.165099897958036,-0.01460249155435307,0.6219223819494626,0.2156026839543512
-0.0001565282352941176,1.174987251679197,-0.01607359323415566,0.6235263533083492,0.2166538970284429
-0.0001565182352941177,1.171691467105477,-0.01460249155435307,0.6235263533083492,0.2165224953941814
-0.0001565082352941177,1.168395682531762,-0.01460249155435307,0.6243283389877909,0.2169167002969651
-0.0001564982352941176,1.178283036252918,-0.01460249155435307,0.6252639889471429,0.2170481019312273
-0.0001564882352941176,1.178283036252918,-0.01567238368511859,0.6257986460667717,0.2182307166395804
-0.0001564782352941176,1.184874605400358,-0.01527117413608152,0.6268679603060294,0.2177051101025346
-0.0001564682352941177,1.165099897958036,-0.01593985671780997,0.6294075816242665,0.2191505280794106
-0.0001564582352941177,1.171691467105465,-0.01433501852166461,0.6310115529831501,0.2177051101025372
-0.0001564482352941176,1.155212544236929,-0.01513743761973437,0.6304768958635244,0.2192819297136718
-0.0001564382352941176,1.184874605400358,-0.01433501852166169,0.6306105601434314,0.2191505280794106
-0.0001564282352941176,1.191466174547799,-0.01540491065242721,0.6315462101027819,0.2196761346164565
-0.0001564182352941177,1.151916759663154,-0.01754469491395825,0.6308778887032458,0.2200703395192408
-0.0001564082352941177,1.168395682531726,-0.01727722188126736,0.6328828529018503,0.2211215525933306
-0.0001563982352941176,1.174987251679185,-0.01634106626684899,0.6331501814616697,0.2204645444220243
-0.0001563882352941176,1.168395682531756,-0.01741095839761256,0.6338185028612044,0.2199389378849794
-0.0001563782352941176,1.155212544236875,-0.01567238368511859,0.6338185028612044,0.2200703395192408
-0.0001563682352941176,1.158508328810595,-0.01580612020146428,0.635422474220091,0.2204645444220252
-0.0001563582352941177,1.165099897958024,-0.01513743761973705,0.6346204885406492,0.2221727656674211
-0.0001563482352941176,1.16509989795803,-0.01593985671780875,0.634754152820555,0.2216471591303772
-0.0001563382352941176,1.161804113384315,-0.01527117413608152,0.634754152820555,0.220990150959071
-0.0001563282352941176,1.161804113384315,-0.01567238368511859,0.635422474220091,0.2217785607646398
-0.0001563182352941176,1.174987251679197,-0.01607359323415566,0.6356898027799055,0.2216471591303784
-0.0001563082352941177,1.161804113384315,-0.01607359323415566,0.6363581241794415,0.2220413640331627
-0.0001562982352941177,1.171691467105459,-0.01580612020146477,0.6374274384186972,0.2212529542275954
-0.0001562882352941176,1.165099897958036,-0.01593985671780997,0.6368927812990703,0.2213843558618554
-0.0001562782352941176,1.174987251679197,-0.0155386471687729,0.6360907956196271,0.2219099623989013
-0.0001562682352941176,1.184874605400358,-0.01567238368511859,0.6362244598995344,0.2223041673016856
-0.0001562582352941177,1.151916759663154,-0.01500370110339014,0.6368927812990703,0.22269837220447
-0.0001562482352941177,1.155212544236869,-0.01741095839760818,0.6364917884593495,0.2229611754729925
-0.0001562382352941176,1.155212544236881,-0.01674227581588557,0.6363581241794413,0.2224355689359486
-0.0001562282352941176,1.158508328810595,-0.01754469491395825,0.6362244598995344,0.2232239787415159
-0.0001562182352941176,1.145325190515714,-0.01754469491395825,0.6379620955383281,0.2228297738387315
-0.0001562082352941177,1.168395682531756,-0.01513743761973583,0.6375611026986064,0.2228297738387315
-0.0001561982352941177,1.171691467105471,-0.01620732975049941,0.6371601098588856,0.2232239787415151
-0.0001561882352941176,1.161804113384279,-0.0168760123322281,0.6363581241794395,0.2229611754729932
-0.0001561782352941176,1.142029405941993,-0.01593985671780997,0.6352888099401838,0.2230925771072544
-0.0001561682352941176,1.151916759663154,-0.01647480278319273,0.6356898027799055,0.2236181836443003
-0.0001561582352941176,1.168395682531756,-0.01674227581588411,0.6358234670598126,0.2238809869128232
-0.0001561482352941177,1.165099897958042,-0.01687601233222956,0.6356898027799057,0.2242751918156068
-0.0001561382352941176,1.142029405941981,-0.01634106626684729,0.6362244598995317,0.2240123885470834
-0.0001561282352941176,1.135437836794552,-0.01647480278319273,0.634754152820555,0.2233553803757773
-0.0001561182352941176,1.142029405941993,-0.0155386471687729,0.6351551456602766,0.22269837220447
-0.0001561082352941176,1.142029405941993,-0.01674227581588411,0.6338185028612044,0.2242751918156075
-0.0001560982352941177,1.125550483073391,-0.01674227581588411,0.6332838457415756,0.2238809869128232
-0.0001560882352941177,1.155212544236821,-0.01687601233222956,0.632080867222413,0.2244065934498681
-0.0001560782352941176,1.155212544236875,-0.01620732975050135,0.6320808672224107,0.2233553803757773
-0.0001560682352941176,1.145325190515714,-0.01620732975050135,0.6316798743826891,0.2236181836443003
-0.0001560582352941176,1.132142052220832,-0.0168760123322298,0.6303432315836169,0.2237495852785617
-0.0001560482352941177,1.138733621368273,-0.01567238368511859,0.6311452172630603,0.222961175472993
-0.0001560382352941177,1.142029405941987,-0.01647480278319127,0.6291402530644558,0.2228297738387317
-0.0001560282352941176,1.151916759663166,-0.016474802783192,0.6292739173443572,0.2233553803757768
-0.0001560182352941176,1.158508328810595,-0.01607359323415566,0.6282046031051016,0.2230925771072544
-0.0001560082352941176,1.161804113384315,-0.01700974884857549,0.6261996389064934,0.2233553803757773
-0.0001559982352941177,1.148620975089434,-0.01607359323415566,0.6267342960261222,0.2233553803757773
-0.0001559882352941177,1.165099897958006,-0.01607359323415566,0.6248629961074247,0.2228297738387324
-0.0001559782352941176,1.142029405942011,-0.01527117413608249,0.6249966603873265,0.2229611754729918
-0.0001559682352941176,1.151916759663154,-0.01580612020146428,0.6239273461480708,0.2223041673016856
-0.0001559582352941176,1.138733621368273,-0.01634106626684704,0.6229916961887203,0.2213843558618554
-0.0001559482352941177,1.128846267647111,-0.01486996458704445,0.6225907033489987,0.2215157574961169
-0.0001559382352941177,1.145325190515684,-0.0150037011033899,0.6207194034303011,0.2228297738387291
-0.0001559282352941176,1.118958913925975,-0.01727722188126736,0.6188481035115959,0.2223041673016849
-0.0001559182352941176,1.132142052220832,-0.01754469491395825,0.6184471106718751,0.2219099623989013
-0.0001559082352941176,1.158508328810595,-0.01620732975050135,0.6181797821120606,0.221252954227594
-0.0001558982352941176,1.142029405941993,-0.0168760123322298,0.6164421464732669,0.2213843558618554
-0.0001558882352941177,1.135437836794552,-0.01660853929953842,0.6148381751143803,0.2213843558618554
-0.0001558782352941176,1.122254698499659,-0.01527117413608468,0.6147045108344672,0.2213843558618554
-0.0001558682352941176,1.11566312935223,-0.01700974884857549,0.6114965681167001,0.2213843558618554
-0.0001558582352941176,1.132142052220832,-0.01714348536492118,0.6110955752769784,0.2207273476905481
-0.0001558482352941176,1.122254698499671,-0.01620732975050135,0.6105609181573496,0.2208587493248096
-0.0001558382352941177,1.142029405941993,-0.01593985671780997,0.6070856468797621,0.2200703395192408
-0.0001558282352941177,1.112367344778564,-0.0168760123322281,0.6078876325592039,0.2198075362507184
-0.0001558182352941176,1.125550483073403,-0.01500370110339257,0.6060163326405036,0.2194133313479335
-0.0001558082352941176,1.132142052220832,-0.01634106626684704,0.6056153398007826,0.2194133313479335
-0.0001557982352941176,1.125550483073391,-0.01620732975050135,0.6032093827624528,0.2194133313479335
-0.0001557882352941177,1.11236734477851,-0.01580612020146428,0.6018727399633808,0.2182307166395804
-0.0001557782352941177,1.132142052220796,-0.01580612020146428,0.5989321258054274,0.2190191264451477
-0.0001557682352941176,1.138733621368279,-0.01580612020146696,0.5974618187264403,0.218624921542365
-0.0001557582352941176,1.142029405941993,-0.01727722188126687,0.5961251759273706,0.2187563231766262
-0.0001557482352941176,1.138733621368273,-0.01607359323415566,0.5953231902479273,0.217836511736796
-0.0001557382352941177,1.132142052220832,-0.01513743761973583,0.5942538760086696,0.217836511736796
-0.0001557282352941177,1.125550483073403,-0.01593985671780851,0.5918479189703442,0.2175737084682736
-0.0001557182352941176,1.135437836794492,-0.0158061202014655,0.5907786047310768,0.2171795035654873
-0.0001557082352941176,1.102479991057348,-0.01647480278319273,0.5878379905731235,0.21639109375992
-0.0001556982352941176,1.125550483073391,-0.01593985671780997,0.5855656978147008,0.2159968888571356
-0.0001556882352941176,1.132142052220832,-0.01593985671780997,0.5832934050562782,0.2153398806858283
-0.0001556782352941177,1.142029405941993,-0.01567238368511859,0.5820904265371133,0.214682872514521
-0.0001556682352941176,1.118958913925981,-0.01567238368511835,0.5803527908983165,0.2150770774173042
-0.0001556582352941176,1.135437836794552,-0.0155386471687729,0.5786151552595258,0.2144200692459981
-0.0001556482352941176,1.11236734477851,-0.01473622807069876,0.5768775196207321,0.2141572659774751
-0.0001556382352941176,1.122254698499671,-0.01486996458704445,0.5747388911422167,0.2136316594404293
-0.0001556282352941177,1.122254698499671,-0.01460249155435307,0.5709962913048147,0.2140258643432137
-0.0001556182352941177,1.082705283615098,-0.01540491065242575,0.5705952984650938,0.2137630610746912
-0.0001556082352941176,1.102479991057348,-0.01593985671780997,0.5676546843071344,0.2124490447320762
-0.0001555982352941176,1.122254698499671,-0.01593985671780997,0.5656497201085262,0.2116606349265074
-0.0001555882352941176,1.099184206483628,-0.0155386471687729,0.5639120844697324,0.2107408234866772
-0.0001555782352941177,1.125550483073391,-0.01473622807069876,0.5620407845510315,0.2113978316579845
-0.0001555682352941177,1.118958913925963,-0.01500370110338966,0.5584318489935433,0.2108722251209396
-0.0001555582352941176,1.105775775631063,-0.01460249155435429,0.5572288704743672,0.2102152169496314
-0.0001555482352941176,1.102479991057348,-0.01527117413608152,0.5546892491561348,0.2102152169496314
-0.0001555382352941176,1.099184206483628,-0.01527117413608152,0.552951613517341,0.2094268071440626
-0.0001555282352941177,1.092592637336187,-0.01513743761973583,0.5496100065196607,0.2086383973384938
-0.0001555182352941177,1.122254698499617,-0.01486996458704494,0.5480060351607771,0.2083755940699714
-0.0001555082352941176,1.082705283615062,-0.01339886290724502,0.5454664138425328,0.2073243809958802
-0.0001554982352941176,1.102479991057348,-0.01513743761973583,0.5430604568042073,0.2078499875329251
-0.0001554882352941176,1.11566312935223,-0.01473622807069876,0.5411891568855063,0.2077185858986636
-0.0001554782352941176,1.099184206483628,-0.01326512639089617,0.5385158712873621,0.2054847581162188
-0.0001554682352941177,1.079409499041342,-0.01567238368511421,0.5357089214093157,0.2066673728245698
-0.0001554582352941176,1.109071560204759,-0.01527117413608006,0.5320999858518116,0.2056161597504788
-0.0001554482352941176,1.092592637336187,-0.01446875503800738,0.529694028813486,0.2048277499449115
-0.0001554382352941176,1.092592637336187,-0.01567238368511859,0.5280900574545996,0.2043021434078656
-0.0001554282352941176,1.082705283615026,-0.01380007245627893,0.5250157790167337,0.2033823319680354
-0.0001554182352941177,1.095888421909908,-0.01380007245627893,0.5226098219784038,0.203250930333774
-0.0001554082352941177,1.102479991057336,-0.01380007245627893,0.5204711934998923,0.2024625205282067
-0.0001553982352941176,1.099184206483628,-0.0155386471687729,0.5164612651026721,0.2018055123568979
-0.0001553882352941176,1.089296852762467,-0.01339886290724186,0.5156592794232288,0.2018055123568979
-0.0001553782352941176,1.082705283615026,-0.014201282005316,0.511382022466198,0.1999658894772375
-0.0001553682352941177,1.066226360746424,-0.01406754548897031,0.5087087368680537,0.2008857009170677
-0.0001553582352941177,1.095888421909854,-0.01446875503800665,0.5060354512699143,0.1991774796716718
-0.0001553482352941176,1.089296852762503,-0.01366633593993519,0.5034958299516665,0.1997030862087129
-0.0001553382352941176,1.109071560204789,-0.01473622807069876,0.5002878872338994,0.1987832747688844
-0.0001553282352941176,1.079409499041306,-0.01486996458704445,0.4974809373558479,0.1973378567920083
-0.0001553182352941177,1.082705283615026,-0.01406754548897031,0.4945403231978892,0.1970750535234854
-0.0001553082352941177,1.099184206483598,-0.01353259942358853,0.491065051920308,0.1968122502549629
-0.0001552982352941176,1.099184206483592,-0.01273018032551463,0.4886590948819666,0.1957610371808679
-0.0001552882352941176,1.079409499041306,-0.01339886290724186,0.4857184807240132,0.1941842175697333
-0.0001552782352941176,1.095888421909908,-0.01339886290724186,0.4827778665660545,0.1954982339123479
-0.0001552682352941177,1.105775775631069,-0.01313138987455048,0.4794362595683742,0.1933958077641645
-0.0001552582352941177,1.06952214532021,-0.01313138987455048,0.475960988290793,0.1932644061299033
-0.0001552482352941176,1.069522145320198,-0.01380007245627869,0.4731540384127289,0.1926073979585922
-0.0001552382352941176,1.099184206483628,-0.01366633593993324,0.4696787671351477,0.1906363734446738
-0.0001552282352941176,1.082705283615026,-0.01353259942358755,0.4655351744580242,0.1905049718104124
-0.0001552182352941176,1.069522145320144,-0.01326512639089617,0.463530210259416,0.1890595538335363
-0.0001552082352941177,1.099184206483628,-0.01219523426013065,0.4607232603813645,0.1890595538335363
-0.0001551982352941176,1.095888421909914,-0.01246270729282422,0.455911346304698,0.1884025456622283
-0.0001551882352941176,1.099184206483628,-0.01366633593993324,0.4521687464673029,0.1880083407594446
-0.0001551782352941176,1.079409499041306,-0.01259644380916772,0.4504311108285092,0.1868257260510915
-0.0001551682352941176,1.076113714467585,-0.01232897077647634,0.4473568323906433,0.1856431113427384
-0.0001551582352941177,1.086001068188747,-0.01232897077647634,0.444015225392963,0.185248906439954
-0.0001551482352941177,1.105775775631033,-0.01125907864571277,0.4406736183952887,0.1848547015371703
-0.0001551382352941176,1.079409499041312,-0.01246270729282349,0.4369310185578731,0.183934890097337
-0.0001551282352941176,1.082705283615026,-0.01326512639089617,0.4327874258807571,0.1826208737547248
-0.0001551182352941176,1.079409499041306,-0.01206149774378497,0.4298468117227985,0.1828836770232477
-0.0001551082352941177,1.072817929893865,-0.01166028819474789,0.4266388690050253,0.1820952672176789
-0.0001550982352941177,1.066226360746436,-0.01246270729282058,0.4223616120480023,0.1814382590463728
-0.0001550882352941176,1.08270528361505,-0.01206149774378302,0.4204903121292866,0.1798614394352327
-0.0001550782352941176,1.095888421909908,-0.01099160561301945,0.4166140480119844,0.1790730296296654
-0.0001550682352941176,1.089296852762467,-0.01045665954763669,0.4120694624951392,0.1793358328981883
-0.0001550582352941177,1.092592637336187,-0.01072413258032807,0.4096635054568094,0.1772334067500049
-0.0001550482352941177,1.059634791599043,-0.01166028819474619,0.4059209056194143,0.1772334067500049
-0.0001550382352941176,1.082705283615002,-0.01246270729282155,0.4019109772221843,0.1759193904073896
-0.0001550282352941176,1.069522145320144,-0.01219523426013065,0.3981683773847891,0.175525185504606
-0.0001550182352941176,1.086001068188747,-0.01192776122743927,0.3944257775473872,0.1739483658934684
-0.0001550082352941176,1.069522145320144,-0.01072413258032807,0.3908168419898925,0.1730285544536382
-0.0001549982352941177,1.089296852762467,-0.01112534212936513,0.3874752349922121,0.1722401446480695
-0.0001549882352941176,1.072817929893865,-0.01085786909667497,0.382128663795919,0.1710575299397144
-0.0001549782352941176,1.072817929893865,-0.01152655167840221,0.3795890424776866,0.1700063168656246
-0.0001549682352941176,1.099184206483628,-0.01059039606398238,0.3759801069201919,0.1690865054257944
-0.0001549582352941176,1.082705283615026,-0.01059039606398238,0.3719701785229755,0.1697435135971017
-0.0001549482352941177,1.079409499041306,-0.01152655167840221,0.3679602501257591,0.167246882546134
-0.0001549382352941177,1.076113714467591,-0.01125907864571131,0.3644849788481779,0.1671154809118728
-0.0001549282352941176,1.0794094990413,-0.01139281516205481,0.3598067290514151,0.1655386613007336
-0.0001549182352941176,1.076113714467585,-0.01045665954763669,0.3575344362929966,0.1647502514951663
-0.0001549082352941176,1.072817929893865,-0.01152655167840221,0.3523215293766153,0.1646188498609048
-0.0001548982352941177,1.062930576172704,-0.01085786909667375,0.3480442724195845,0.1639618416895975
-0.0001548882352941177,1.08270528361499,-0.01005544999860107,0.3447026654219103,0.1631734318840302
-0.0001548782352941176,1.082705283615026,-0.01032292303129197,0.3405590727447753,0.1612024073701052
