11-19_RX_motor/smooth1.csv

#Digilent WaveForms Oscilloscope Acquisition
#Device Name: ADP3450
#Serial Number: SN:210018B48834
#Date Time: 2025-11-19 14:03:06.702.602.740
#Sample rate: 1e+08Hz
#Samples: 32768
#Trigger: Source: Channel 3 Type: Edge Condition: Rising Level: 790 uV Hyst.: Auto HoldOff: 100 ns
#Channel 1: Range: 500 mV/div Offset: 0 V Attenuation: 1 X Coupling: DC Bandwidth: Full Sample Mode: Average
#Channel 2: Range: 10 mV/div Offset: 0 V Attenuation: 1 X Coupling: DC Bandwidth: Full Sample Mode: Average
#Channel 3: Range: 200 mV/div Offset: 0 V Attenuation: 1 X Coupling: DC Bandwidth: Full Sample Mode: Average
#Channel 4: Range: 100 mV/div Offset: 0 V Attenuation: 1 X Coupling: DC Bandwidth: Full Sample Mode: Average

Time (s),Channel 1 (V),Channel 2 (V),Channel 3 (V),Channel 4 (V)
-0.0001567846153846154,1.19805774369524,-0.01380007245627893,0.5887736405324739,0.2588338216263715
-0.0001567746153846154,1.194761959121519,-0.01580612020146428,0.590110283331546,0.2600164363347246
-0.0001567646153846154,1.198057743695162,-0.01567238368511908,0.5918479189703454,0.2613304526773405
-0.0001567546153846154,1.155212544236875,-0.01593985671780997,0.5949221974082057,0.2619874608486465
-0.0001567446153846154,1.194761959121519,-0.0155386471687729,0.5969271616068139,0.2634328788255226
-0.0001567346153846154,1.194761959121519,-0.01326512639089617,0.5978628115661644,0.2664551164135361
-0.0001567246153846154,1.188170389974078,-0.01446875503800738,0.6012044185638447,0.2667179196820591
-0.0001567146153846154,1.178283036252936,-0.01460249155435283,0.6026747256428213,0.2693459523672835
-0.0001567046153846154,1.188170389974036,-0.01527117413608322,0.6034767113222669,0.2700029605385999
-0.0001566946153846154,1.165099897958036,-0.01620732975050135,0.6032093827624528,0.2723681899553018
-0.0001566846153846154,1.161804113384315,-0.01727722188126687,0.6050806826811539,0.2734194030293935
-0.0001566746153846154,1.178283036252918,-0.01540491065242721,0.6066846540400403,0.2746020177377467
-0.0001566646153846154,1.181578820826632,-0.01553864716877266,0.6094916039180868,0.2752590259090528
-0.0001566546153846154,1.181578820826608,-0.01553864716877558,0.6102935895975394,0.2748648210062749
-0.0001566446153846154,1.165099897958036,-0.01700974884857549,0.6126995466358649,0.2777556569600217
-0.0001566346153846154,1.188170389974078,-0.01540491065242721,0.614570846554566,0.2781498618628061
-0.0001566246153846154,1.188170389974078,-0.01500370110339014,0.6148381751143803,0.2807778945480353
-0.0001566146153846154,1.191466174547793,-0.01593985671780827,0.6157738250737291,0.281829107622125
-0.0001566046153846154,1.19805774369518,-0.01580612020146404,0.6157738250737342,0.2815663043536057
-0.0001565946153846154,1.165099897958036,-0.01567238368511859,0.6176451249924318,0.2824861157934342
-0.0001565846153846154,1.168395682531756,-0.0168760123322298,0.6188481035115967,0.283274525599003
-0.0001565746153846154,1.178283036252918,-0.01794590446299532,0.621521389109741,0.2847199435758791
-0.0001565646153846154,1.168395682531756,-0.01634106626684704,0.6232590247485347,0.2862967631870166
-0.0001565546153846154,1.18817038997403,-0.0166085392995372,0.6247293318275111,0.287216574626847
-0.0001565446153846154,1.161804113384315,-0.01593985671780997,0.6231253604686275,0.2873479762611083
-0.0001565346153846154,1.171691467105477,-0.0155386471687729,0.6253976532270501,0.2890561975065072
-0.0001565246153846154,1.178283036252918,-0.01607359323415566,0.6244620032676996,0.2890561975065072
-0.0001565146153846154,1.178283036252918,-0.01674227581588411,0.6266006317462151,0.2907644187519062
-0.0001565046153846154,1.171691467105489,-0.01660853929953866,0.6283382673850056,0.2902388122148613
-0.0001564946153846154,1.174987251679197,-0.01580612020146428,0.6286055959448232,0.2918156318259979
-0.0001564846153846154,1.181578820826638,-0.01647480278319273,0.6311452172630603,0.2911586236546906
-0.0001564746153846154,1.135437836794552,-0.01580612020146428,0.6315462101027819,0.2926040416315667
-0.0001564646153846154,1.184874605400358,-0.01593985671780997,0.6314125458228746,0.2933924514371354
-0.0001564546153846154,1.155212544236929,-0.01567238368511908,0.6322145315023165,0.2940494596084415
-0.0001564446153846154,1.171691467105495,-0.01660853929953964,0.6323481957822249,0.2940494596084418
-0.0001564346153846154,1.181578820826638,-0.01727722188126687,0.632214531502318,0.2935238530713969
-0.0001564246153846154,1.158508328810595,-0.01714348536492118,0.6326155243420396,0.2941808612427042
-0.0001564146153846154,1.168395682531756,-0.01660853929953842,0.6350214813803694,0.2951006726825344
-0.0001564046153846154,1.171691467105471,-0.01607359323415663,0.636358124179439,0.2954948775853181
-0.0001563946153846154,1.168395682531738,-0.01674227581588289,0.6358234670598131,0.2953634759510586
-0.0001563846153846154,1.158508328810595,-0.01607359323415566,0.6360907956196271,0.2960204841223646
-0.0001563746153846154,1.178283036252918,-0.01527117413608152,0.6360907956196271,0.2957576808538417
-0.0001563646153846154,1.161804113384315,-0.01674227581588411,0.6367591170191632,0.2965460906594105
-0.0001563546153846154,1.142029405942029,-0.01781216794664768,0.6362244598995354,0.2970716971964554
-0.0001563446153846154,1.168395682531744,-0.01660853929953939,0.6379620955383291,0.2970716971964565
-0.0001563346153846154,1.161804113384315,-0.01714348536492118,0.6384967526579569,0.2972030988307178
-0.0001563246153846154,1.138733621368273,-0.0168760123322298,0.6383630883780497,0.2974659020992407
-0.0001563146153846154,1.188170389974078,-0.01486996458704445,0.6388977454976785,0.296414689025149
-0.0001563046153846154,1.165099897958036,-0.01660853929953842,0.6387640812177714,0.2973345004649792
-0.0001562946153846154,1.155212544236893,-0.01593985671781119,0.6387640812177714,0.2970716971964568
-0.0001562846153846154,1.161804113384315,-0.01647480278319273,0.6376947669785137,0.2960204841223646
-0.0001562746153846154,1.165099897958036,-0.01620732975050135,0.6379620955383281,0.2961518857566261
-0.0001562646153846154,1.171691467105477,-0.01674227581588411,0.639165074057493,0.2960204841223646
-0.0001562546153846154,1.158508328810595,-0.01700974884857549,0.639165074057493,0.2961518857566261
-0.0001562446153846154,1.148620975089452,-0.01714348536492094,0.6396997311771209,0.2957576808538424
-0.0001562346153846154,1.171691467105423,-0.01660853929953842,0.639165074057493,0.2958890824881031
-0.0001562246153846154,1.142029405941993,-0.01660853929953842,0.639165074057493,0.2958890824881031
-0.0001562146153846154,1.165099897958036,-0.01674227581588411,0.6394324026173074,0.2951006726825344
-0.0001562046153846154,1.188170389974078,-0.01714348536492118,0.6388977454976785,0.2944436645112271
-0.0001561946153846154,1.155212544236935,-0.01741095839761207,0.6382294240981438,0.2951006726825331
-0.0001561846153846154,1.14862097508944,-0.01754469491395728,0.6370264455789793,0.2937866563399207
-0.0001561746153846154,1.151916759663154,-0.01700974884857549,0.6379620955383281,0.2943122628769657
-0.0001561646153846154,1.128846267647111,-0.01674227581588411,0.6379620955383281,0.2935238530713969
-0.0001561546153846154,1.135437836794552,-0.01634106626684704,0.6383630883780497,0.2933924514371354
-0.0001561446153846154,1.165099897957982,-0.01674227581588338,0.6379620955383288,0.2916842301917396
-0.0001561346153846154,1.14532519051572,-0.01807964097934198,0.6370264455789774,0.2924726399973047
-0.0001561246153846154,1.148620975089434,-0.01861458704472377,0.6368927812990703,0.2922098367287823
-0.0001561146153846154,1.128846267647111,-0.01660853929953842,0.6355561384999983,0.2906330171176448
-0.0001561046153846154,1.142029405941993,-0.0155386471687729,0.6352888099401838,0.2907644187519062
-0.0001560946153846154,1.158508328810595,-0.01513743761973583,0.6356898027799055,0.2894504024092916
-0.0001560846153846154,1.135437836794594,-0.01540491065242673,0.6348878171004636,0.2886619926037243
-0.0001560746153846154,1.142029405941993,-0.01674227581588411,0.6342194957009262,0.2873479762611083
-0.0001560646153846154,1.158508328810595,-0.01540491065242721,0.6334175100214828,0.2882677877009385
-0.0001560546153846154,1.145325190515714,-0.01741095839761256,0.6334175100214828,0.286428164821278
-0.0001560446153846154,1.138733621368273,-0.01647480278319273,0.6320808672224107,0.2855083533814478
-0.0001560346153846154,1.148620975089416,-0.01714348536491996,0.6300759030238062,0.2847199435758805
-0.0001560246153846154,1.15191675966313,-0.01700974884857597,0.630877888703246,0.2840629354045703
-0.0001560146153846154,1.138733621368273,-0.01727722188126687,0.631011552983153,0.283274525599003
-0.0001560046153846154,1.151916759663154,-0.01620732975050135,0.6295412459041737,0.2830117223304801
-0.0001559946153846154,1.138733621368273,-0.01593985671780997,0.6292739173443592,0.2816977059878655
-0.0001559846153846154,1.125550483073415,-0.01674227581588265,0.6292739173443592,0.2809092961822982
-0.0001559746153846154,1.13543783679457,-0.01607359323415566,0.6274026174256566,0.2809092961822945
-0.0001559646153846154,1.145325190515714,-0.01607359323415566,0.6264669674663078,0.2797266814739436
-0.0001559546153846154,1.128846267647111,-0.0168760123322298,0.6252639889471429,0.2781498618628061
-0.0001559446153846154,1.155212544236875,-0.01767843143030394,0.6236600175882564,0.2773614520572373
-0.0001559346153846154,1.135437836794588,-0.01634106626684947,0.6225907033490007,0.2759160340803639
-0.0001559246153846154,1.142029405941951,-0.01727722188126468,0.6219223819494599,0.2748648210062689
-0.0001559146153846154,1.118958913925951,-0.01607359323415566,0.6204520748704833,0.2744706161034852
-0.0001559046153846154,1.122254698499671,-0.01727722188126687,0.61965008919104,0.2726309932238248
-0.0001558946153846154,1.135437836794552,-0.01700974884857549,0.6184471106718751,0.271842583418256
-0.0001558846153846154,1.145325190515714,-0.01540491065242721,0.6164421464732669,0.2715797801497331
-0.0001558746153846154,1.145325190515714,-0.01593985671780924,0.615640160793819,0.2690831490987635
-0.0001558646153846154,1.145325190515714,-0.0155386471687729,0.6131005394755866,0.2680319360246737
-0.0001558546153846154,1.109071560204789,-0.01580612020146428,0.6139025251550299,0.2672435262191049
-0.0001558446153846154,1.158508328810595,-0.01634106626684704,0.6120312252363289,0.2656667066079674
-0.0001558346153846154,1.135437836794552,-0.01607359323415566,0.6104272538774423,0.2646154935338757
-0.0001558246153846154,1.128846267647123,-0.01687601233222834,0.6096252681980004,0.2640898869968308
-0.0001558146153846154,1.15191675966316,-0.01540491065242867,0.6078876325592014,0.2636956820940421
-0.0001558046153846154,1.155212544236875,-0.01620732975050135,0.6057490040806899,0.261856059214385
-0.0001557946153846154,1.135437836794552,-0.0155386471687729,0.6041450327218033,0.25870241999211
-0.0001557846153846154,1.122254698499671,-0.01607359323415566,0.6029420542026385,0.2589652232606329
-0.0001557746153846154,1.155212544236815,-0.01660853929953745,0.6020064042432897,0.2572570020152371
-0.0001557646153846154,1.135437836794528,-0.01647480278319103,0.5990657900853302,0.2552859775013099
-0.0001557546153846154,1.122254698499671,-0.0155386471687729,0.5996004472049581,0.2541033627929589
-0.0001557446153846154,1.135437836794552,-0.01527117413608152,0.5967934973269067,0.2534463546216516
-0.0001557346153846154,1.138733621368273,-0.01540491065242721,0.594521204568484,0.2514753301077297
-0.0001557246153846154,1.138733621368273,-0.015939856717809,0.5933182260493214,0.2498985104965951
-0.0001557146153846154,1.128846267647105,-0.01620732975050062,0.5903776118913597,0.2495043055938045
-0.0001557046153846154,1.125550483073391,-0.01580612020146428,0.5899766190516389,0.2476646827141474
-0.0001556946153846154,1.145325190515714,-0.0155386471687729,0.5874369977334019,0.2466134696400557
-0.0001556846153846154,1.122254698499671,-0.01607359323415566,0.5858330263745153,0.2452994532974411
-0.0001556746153846154,1.122254698499671,-0.01593985671780997,0.5844963835754431,0.2429342238807349
-0.0001556646153846154,1.155212544236827,-0.01473622807070022,0.5811547765777597,0.2413574042695951
-0.0001556546153846154,1.128846267647111,-0.0155386471687729,0.5794171409389691,0.2401747895612442
-0.0001556446153846154,1.132142052220832,-0.01513743761973583,0.5790161480992474,0.2388607732186296
-0.0001556346153846154,1.128846267647111,-0.01593985671780997,0.5755408768216599,0.2374153552417535
-0.0001556246153846154,1.128846267647111,-0.01593985671780997,0.5740705697426806,0.2357071339963546
-0.0001556146153846154,1.132142052220826,-0.01420128200531916,0.5721992698239831,0.2341303143852199
-0.0001556046153846154,1.155212544236875,-0.01500370110339014,0.5696596485057426,0.2330791013111254
-0.0001555946153846154,1.11566312935223,-0.01486996458704445,0.5675210200272272,0.2325534947740795
-0.0001555846153846154,1.122254698499671,-0.01647480278319273,0.5656497201085262,0.2299254620888503
-0.0001555746153846154,1.142029405941993,-0.01580612020146428,0.5637784201898253,0.2282172408434514
-0.0001555646153846154,1.112367344778564,-0.01540491065242794,0.5608378060318718,0.2269032245008391
-0.0001555546153846154,1.109071560204813,-0.01593985671780948,0.5574961990341836,0.2251950032554356
-0.0001555446153846154,1.122254698499671,-0.01567238368511859,0.5560258919552069,0.2240123885470846
-0.0001555346153846154,1.118958913925951,-0.01366633593993324,0.5545555848762276,0.2224355689359471
-0.0001555246153846154,1.11236734477851,-0.01513743761973583,0.5518822992780833,0.220990150959071
-0.0001555146153846154,1.125550483073367,-0.01540491065242673,0.5504119921991066,0.2183621182738466
-0.0001555046153846154,1.128846267647093,-0.0155386471687712,0.5461347352420701,0.2170481019312258
-0.0001554946153846154,1.118958913925951,-0.01460249155435307,0.5443970996032794,0.2162596921256585
-0.0001554846153846154,1.11236734477851,-0.01486996458704445,0.5418574782850424,0.2144200692459981
-0.0001554746153846154,1.11236734477851,-0.01366633593993324,0.5391841926868981,0.2131060529033835
-0.0001554646153846154,1.092592637336223,-0.01446875503800592,0.5374465570481075,0.210478020218159
-0.0001554546153846154,1.135437836794564,-0.01353259942358926,0.5337039572107007,0.2085069957042302
-0.0001554446153846154,1.142029405941993,-0.01446875503800738,0.5327683072513519,0.2073243809958792
-0.0001554346153846154,1.122254698499671,-0.01580612020146428,0.5290257074139501,0.2060103646532646
-0.0001554246153846154,1.11236734477851,-0.01460249155435307,0.5266197503756201,0.2040393401393427
-0.0001554146153846154,1.102479991057348,-0.01406754548897031,0.5235454719377544,0.2027253237967281
-0.0001554046153846154,1.105775775631063,-0.01500370110338844,0.521005850619522,0.2003600943800262
-0.0001553946153846154,1.11236734477851,-0.01446875503800738,0.5180652364615586,0.1990460780374073
-0.0001553846153846154,1.095888421909908,-0.01473622807069876,0.5147236294638783,0.1978634633290541
-0.0001553746153846154,1.11566312935223,-0.01486996458704445,0.5124513367054557,0.1952354306438249
-0.0001553646153846154,1.109071560204789,-0.01380007245627893,0.5100453796671258,0.193527209398426
-0.0001553546153846154,1.099184206483646,-0.01473622807069706,0.5068374369493587,0.1922131930558137
-0.0001553446153846154,1.122254698499623,-0.01406754548897056,0.505500794150273,0.1912933816159783
-0.0001553346153846154,1.095888421909908,-0.014201282005316,0.5013572014731571,0.1897165620048436
-0.0001553246153846154,1.109071560204789,-0.01380007245627893,0.49881758015492,0.1880083407594446
-0.0001553146153846154,1.105775775631069,-0.01380007245627893,0.4950749803175181,0.1859059146112613
-0.0001553046153846154,1.128846267647069,-0.01420128200531527,0.4928026875590996,0.183934890097343
-0.0001552946153846154,1.118958913925909,-0.0150037011033882,0.4899957376810372,0.1818324639491553
-0.0001552846153846154,1.095888421909908,-0.01393380897262462,0.486253137843642,0.1814382590463716
-0.0001552746153846154,1.135437836794552,-0.01246270729282203,0.4833125236856834,0.1788102263611424
-0.0001552646153846154,1.122254698499671,-0.01206149774378497,0.4807729023674464,0.1784160214583581
-0.0001552546153846154,1.102479991057384,-0.01406754548896666,0.477832288209493,0.1763135953101785
-0.0001552446153846154,1.102479991057336,-0.01406754548896569,0.4747580097716145,0.1744739724305104
-0.0001552346153846154,1.095888421909908,-0.01152655167840221,0.4707480813744054,0.1723715462823309
-0.0001552246153846154,1.11566312935223,-0.01166028819474789,0.467941131496354,0.1707947266711934
-0.0001552146153846154,1.102479991057348,-0.01460249155435307,0.4645995244986736,0.1690865054257944
-0.0001552046153846154,1.102479991057348,-0.01393380897262462,0.4611242532210861,0.1676410874489184
-0.0001551946153846154,1.102479991057366,-0.01353259942358488,0.4584509676229341,0.1658014645692567
-0.0001551846153846154,1.11236734477851,-0.01206149774378497,0.4541737106659111,0.1651444563979506
-0.0001551746153846154,1.105775775631069,-0.01353259942358755,0.4521687464673029,0.1631734318840287
-0.0001551646153846154,1.11566312935223,-0.0128639168418591,0.447223168110736,0.1614652106386298
-0.0001551546153846154,1.11566312935223,-0.01326512639089617,0.4441488896728702,0.1598883910274922
-0.0001551446153846154,1.122254698499659,-0.01139281516205992,0.440673618395289,0.1569975550737454
-0.0001551346153846154,1.105775775631057,-0.0132651263908935,0.4375993399574115,0.1555521370968609
-0.0001551246153846154,1.099184206483628,-0.01179402471109359,0.4346587257994581,0.1538439158514651
-0.0001551146153846154,1.102479991057348,-0.01166028819474789,0.4317181116414994,0.1521356946060661
-0.0001551046153846154,1.089296852762467,-0.01112534212936513,0.4290448260433552,0.1514786864347588
-0.0001550946153846154,1.102479991057324,-0.01018918651494701,0.4243665762466112,0.1483250472124895
-0.0001550846153846154,1.105775775631081,-0.01152655167840196,0.4200893192895651,0.1472738341383887
-0.0001550746153846154,1.11236734477851,-0.01139281516205651,0.41634671945217,0.1454342112587317
-0.0001550646153846154,1.092592637336187,-0.01099160561301945,0.4128714481745825,0.1437259900133327
-0.0001550546153846154,1.11566312935223,-0.01259644380916772,0.4092625126170877,0.1416235638651493
-0.0001550446153846154,1.099184206483658,-0.01179402471109504,0.4055199127796926,0.1404409491567983
-0.0001550346153846154,1.102479991057312,-0.01206149774378521,0.4020446415020925,0.1386013262771315
-0.0001550246153846154,1.082705283615026,-0.01219523426013065,0.3988366987843252,0.1362360968604295
-0.0001550146153846154,1.11566312935223,-0.01125907864571083,0.3950940989469233,0.1350534821520763
-0.0001550046153846154,1.11236734477851,-0.01112534212936513,0.3917524919492429,0.1336080641752003
-0.0001549946153846154,1.099184206483628,-0.01152655167840221,0.3873415707123049,0.1322940478325857
-0.0001549846153846154,1.092592637336205,-0.0108578690966723,0.3835989708748969,0.1305858265871853
-0.0001549746153846154,1.102479991057348,-0.01005544999859962,0.3802573638772227,0.1297974167816179
-0.0001549646153846154,1.102479991057348,-0.01099160561301945,0.3763810997599135,0.127826392267696
-0.0001549546153846154,1.086001068188747,-0.01179402471109359,0.3725048356426043,0.1249355563139439
-0.0001549446153846154,1.079409499041306,-0.009253030900525476,0.3688959000851096,0.1237529416055908
-0.0001549346153846154,1.095888421909878,-0.01085786909667084,0.3656879573673423,0.1219133187259337
-0.0001549246153846154,1.082705283615026,-0.01059039606398456,0.3610097075705773,0.1195480893092217
-0.0001549146153846154,1.082705283615026,-0.01179402471109359,0.3572671077331822,0.1182340729666095
-0.0001549046153846154,1.062930576172704,-0.009386767416871167,0.3527225222163369,0.1162630484526876
-0.0001548946153846154,1.082705283615026,-0.009520503933216856,0.349648243778471,0.1160002451841647
-0.0001548846153846154,1.099184206483598,-0.00938676741687141,0.3445690011420062,0.1145548272072912
-0.0001548746153846154,1.089296852762473,-0.009654240449562304,0.3409600655844962,0.1121895977905785
-0.0001548646153846154,1.092592637336187,-0.009520503933216856,0.3376184585868219,0.110087171642399
