11-27-Rx_tests/diode2plot2_1146.csv

#Digilent WaveForms Oscilloscope Acquisition
#Device Name: ADP3450
#Serial Number: SN:210018B48834
#Date Time: 2025-11-27 11:46:06.762.274.370
#Sample rate: 1e+08Hz
#Samples: 32768
#Trigger: Source: Channel 3 Type: Edge Condition: Rising Level: 790 uV Hyst.: Auto HoldOff: 100 ns
#Channel 1: Range: 500 mV/div Offset: 0 V Attenuation: 1 X Coupling: DC Bandwidth: Full Sample Mode: Average
#Channel 2: Range: 10 mV/div Offset: 0 V Attenuation: 1 X Coupling: DC Bandwidth: Full Sample Mode: Average
#Channel 3: Range: 500 mV/div Offset: 0 V Attenuation: 1 X Coupling: DC Bandwidth: Full Sample Mode: Average
#Channel 4: Range: 200 mV/div Offset: 0 V Attenuation: 1 X Coupling: DC Bandwidth: Full Sample Mode: Average

Time (s),Channel 1 (V),Channel 2 (V),Channel 3 (V),Channel 4 (V)
-0.0001569207142857143,3.706149804296455,-0.04134979482349105,1.85383903732236,0.7413406226344519
-0.0001569107142857143,3.686375096854132,-0.04134979482349105,1.827127407817731,0.7465966880049103
-0.0001569007142857143,3.692966666001633,-0.0406811122417626,1.847161129946215,0.7515899501068527
-0.0001568907142857143,3.725924511738777,-0.0406811122417626,1.85383903732236,0.7554005975004281
-0.0001568807142857143,3.709445588870175,-0.04241968695425657,1.850500083634281,0.7603938596023636
-0.0001568707142857143,3.709445588870175,-0.04255342347060226,1.847161129946202,0.7607880645051479
-0.0001568607142857143,3.692966666001573,-0.04348957908502209,1.850500083634281,0.7664383347783907
-0.0001568507142857143,3.692966666001573,-0.04241968695425851,1.857177991010426,0.7668325396811745
-0.0001568407142857143,3.748995003754718,-0.04268715998694771,1.873872759450849,0.7714315968803315
-0.0001568307142857143,3.692966666001573,-0.04255342347060226,1.883889620515067,0.7743224328340783
-0.0001568207142857143,3.696262450575293,-0.04255342347060226,1.887228574203146,0.7790528916674909
-0.0001568107142857143,3.712741373443895,-0.04362331560136778,1.913940203707774,0.7803669080101054
-0.0001568007142857143,3.676487743133037,-0.04415826166674956,1.887228574203194,0.7840461537694197
-0.0001567907142857143,3.692966666001579,-0.04496068076482395,1.883889620515085,0.784440358672216
-0.0001567807142857143,3.696262450575293,-0.04455947121578761,1.893906481579303,0.7873311946259628
-0.0001567707142857143,3.692966666001573,-0.04562936334655313,1.917279157395853,0.7887766126028389
-0.0001567607142857143,3.692966666001573,-0.04389078863405916,1.927296018460089,0.7920616534593754
-0.0001567507142857143,3.68307931228043,-0.04348957908502282,1.933973925836234,0.7942954812418161
-0.0001567407142857143,3.696262450575276,-0.04455947121578615,1.930634972148167,0.7979747270011467
-0.0001567307142857143,3.686375096854132,-0.04375705211771347,1.930634972148167,0.8009969645891547
-0.0001567207142857143,3.696262450575293,-0.04562936334655313,1.957346601652796,0.8041506038114297
-0.0001567107142857143,3.689670881427852,-0.04736793805904709,1.950668694276639,0.8046762103484756
-0.0001567007142857143,3.676487743132971,-0.04656551896097295,1.974041370093189,0.8058588250568287
-0.0001566907142857143,3.67319195855928,-0.0465655189609715,1.937312879524391,0.8075670463022289
-0.0001566807142857143,3.689670881427852,-0.04576309986289882,1.974041370093189,0.808224054473535
-0.0001566707142857143,3.683079312280412,-0.04576309986289882,1.957346601652796,0.81137769369581
-0.0001566607142857143,3.673191958559251,-0.04536189031386174,1.974041370093189,0.8141371280153007
-0.0001566507142857143,3.689670881427852,-0.04683299199366434,1.974041370093189,0.8163709557977454
-0.0001566407142857143,3.692966666001567,-0.04736793805904612,1.990736138533552,0.8186047835801862
-0.0001566307142857143,3.673191958559251,-0.04803662064077555,1.987397184845503,0.8203130048255892
-0.0001566207142857143,3.689670881427852,-0.0472342015427014,2.004091953285897,0.819393193385759
-0.0001566107142857143,3.692966666001573,-0.0485715667061583,1.997414045909739,0.8197873982885434
-0.0001566007142857143,3.66330460483809,-0.04776914760808416,2.004091953285897,0.8218898244367268
-0.0001565907142857143,3.689670881427805,-0.04723420154270237,2.014108814350114,0.8242550538534287
-0.0001565807142857143,3.660008820264429,-0.04669925547731792,2.020786721726271,0.8255690701960514
-0.0001565707142857143,3.692966666001573,-0.04629804592828157,2.010769860662054,0.827671496344231
-0.0001565607142857143,3.66660038941181,-0.04790288412442986,2.037481490166682,0.8295111192238914
-0.0001565507142857143,3.66989617398553,-0.0485715667061583,2.000752999597818,0.8304309306637216
-0.0001565407142857143,3.663304604838101,-0.04924024928788554,2.014108814350108,0.8310879388350277
-0.0001565307142857143,3.660008820264387,-0.04924024928788481,2.020786721726308,0.8309565372007675
-0.0001565207142857143,3.66989617398553,-0.04817035715712124,2.030803582790525,0.8309565372007675
-0.0001565107142857143,3.66989617398553,-0.04964145883692382,2.037481490166682,0.8333217666174738
-0.0001565007142857143,3.653417251116928,-0.04817035715712124,2.034142536478604,0.8339787747887811
-0.0001564907142857143,3.653417251116928,-0.04897277625519392,2.050837304918967,0.8354241927656545
-0.0001564807142857143,3.669896173985488,-0.04937398580423147,2.047498351230919,0.8368696107425315
-0.0001564707142857143,3.646825681969488,-0.04883903973884968,2.047498351230919,0.835949799302703
-0.0001564607142857143,3.673191958559251,-0.05004266838596089,2.050837304918997,0.8371324140110561
-0.0001564507142857143,3.646825681969488,-0.05004266838596089,2.04415939754284,0.8363440042054874
-0.0001564407142857143,3.66989617398553,-0.04937398580423244,2.064193119671311,0.8370010123767947
-0.0001564307142857143,3.640234112822101,-0.04883903973885066,2.067532073359384,0.8376580205481008
-0.0001564207142857143,3.660008820264369,-0.04937398580423244,2.04415939754284,0.8383150287194092
-0.0001564107142857143,3.66330460483809,-0.04950772232057813,2.070871027047469,0.8389720368907165
-0.0001564007142857143,3.656713035690649,-0.04964145883692382,2.064193119671311,0.8394976434277623
-0.0001563907142857143,3.660008820264369,-0.04977519535326951,2.070871027047469,0.8396290450620238
-0.0001563807142857143,3.660008820264369,-0.05071135096768764,2.070871027047469,0.8384464303536728
-0.0001563707142857143,3.676487743132893,-0.0504438779349965,2.047498351230912,0.8393662417934966
-0.0001563607142857143,3.633642543674606,-0.04964145883692382,2.04415939754284,0.8370010123767947
-0.0001563507142857143,3.643529897395767,-0.0499089318696152,2.074209980735547,0.8384464303536707
-0.0001563407142857143,3.643529897395767,-0.05084508748403503,2.077548934423626,0.8385778319879322
-0.0001563307142857143,3.643529897395767,-0.0501764049023078,2.084226841799771,0.8394976434277607
-0.0001563207142857143,3.627050974527201,-0.05084508748403576,2.087565795487819,0.838709233622191
-0.0001563107142857143,3.646825681969488,-0.0512462970330721,2.064193119671311,0.8372638156453176
-0.0001563007142857143,3.66989617398553,-0.05204871613114624,2.107599517616333,0.8375266189138405
-0.0001562907142857143,3.653417251116928,-0.0539210273599859,2.070871027047469,0.8367382091082718
-0.0001562807142857143,3.650121466543214,-0.05111256051673152,2.077548934423614,0.8354241927656596
-0.0001562707142857143,3.636938328248374,-0.05218245264748925,2.064193119671391,0.8343729796915661
-0.0001562607142857143,3.66330460483809,-0.05071135096768934,2.107599517616333,0.8347671845943498
-0.0001562507142857143,3.640234112822047,-0.05044387793499796,2.084226841799783,0.834241578057304
-0.0001562407142857143,3.653417251116928,-0.0512462970330721,2.050837304918997,0.8339787747887811
-0.0001562307142857143,3.676487743132971,-0.05244992568018331,2.070871027047469,0.8338473731545196
-0.0001562207142857143,3.656713035690685,-0.05218245264749242,2.067532073359396,0.8320077502748625
-0.0001562107142857143,3.640234112822047,-0.05178124309845486,2.087565795487861,0.8305623322979832
-0.0001562007142857143,3.633642543674606,-0.05285113522922038,2.084226841799783,0.8288541110525841
-0.0001561907142857143,3.613867836232284,-0.05017640490230658,2.070871027047469,0.8274086930757081
-0.0001561807142857143,3.650121466543208,-0.0512462970330721,2.070871027047469,0.8279342996127539
-0.0001561707142857143,3.636938328248351,-0.05097882400038121,2.067532073359396,0.8272772914414479
-0.0001561607142857143,3.643529897395761,-0.05057761445134559,2.067532073359384,0.8264888816358735
-0.0001561507142857143,3.640234112822047,-0.05164750658210917,2.064193119671311,0.8241236522191716
-0.0001561407142857143,3.643529897395767,-0.05097882400038072,2.084226841799783,0.8234666440478643
-0.0001561307142857143,3.603980482511123,-0.05204871613114624,2.06753207335939,0.822809635876557
-0.0001561207142857143,3.643529897395695,-0.05071135096769178,2.090904749175897,0.819261791751504
-0.0001561107142857143,3.640234112821999,-0.05138003354942192,2.06753207335942,0.8172907672375747
-0.0001561007142857143,3.613867836232284,-0.05365355432729452,2.084226841799783,0.8167651607005298
-0.0001560907142857143,3.623755189953445,-0.05097882400038072,2.057515212295154,0.8150569394551309
-0.0001560807142857143,3.630346759100886,-0.052583662196529,2.070871027047469,0.8146627345523465
-0.0001560707142857143,3.636938328248315,-0.05311860826191079,2.040820443854816,0.8133487182097343
-0.0001560607142857143,3.613867836232284,-0.05244992568018234,2.054176258607082,0.8109834887930242
-0.0001560507142857143,3.613867836232284,-0.05191497961480055,2.057515212295154,0.8101950789874569
-0.0001560407142857143,3.646825681969488,-0.05231618916383762,2.024125675414368,0.8074356446679662
-0.0001560307142857143,3.640234112822047,-0.05111256051672641,2.050837304918997,0.8046762103484756
-0.0001560207142857143,3.620459405379724,-0.05111256051672641,2.050837304918997,0.8037563989086454
-0.0001560107142857143,3.623755189953439,-0.05244992568018306,2.067532073359354,0.8019167760289814
-0.0001560007142857143,3.620459405379724,-0.05231618916383762,2.047498351230919,0.799945751515063
-0.0001559907142857143,3.640234112822047,-0.05231618916383762,2.027464629102447,0.7974491204640952
-0.0001559807142857143,3.613867836232284,-0.05285113522922038,2.037481490166682,0.7963979073900036
-0.0001559707142857143,3.627050974527165,-0.05191497961480055,2.037481490166682,0.7928500632649441
-0.0001559607142857143,3.630346759100879,-0.05138003354941876,2.014108814350175,0.7906162354825035
-0.0001559507142857143,3.636938328248303,-0.05124629703307356,2.024125675414429,0.7883824077000497
-0.0001559407142857143,3.623755189953445,-0.05204871613114624,2.057515212295154,0.7857543750148254
-0.0001559307142857143,3.613867836232284,-0.05191497961480055,2.024125675414368,0.7835205472323805
-0.0001559207142857143,3.597388913363682,-0.05111256051672641,2.027464629102447,0.7822065308897659
-0.0001559107142857143,3.627050974527112,-0.05311860826190811,2.017447768038229,0.7791842933017579
-0.0001559007142857143,3.617163620806034,-0.05151377006576226,2.024125675414307,0.7785272851304381
-0.0001558907142857143,3.633642543674606,-0.05084508748403503,1.990736138533582,0.7747166377368627
-0.0001558807142857143,3.610572051658563,-0.05031014141865228,2.004091953285897,0.7715629985145877
-0.0001558707142857143,3.603980482511123,-0.05031014141865228,1.987397184845503,0.7691977690978814
-0.0001558607142857143,3.613867836232266,-0.05071135096768861,2.014108814350084,0.7668325396811795
-0.0001558507142857143,3.607276267084855,-0.0512462970330721,1.994075092221667,0.7628904906533289
-0.0001558407142857143,3.613867836232284,-0.0512462970330721,1.997414045909739,0.7615764743107167
-0.0001558307142857143,3.590797344216241,-0.05138003354941779,2.004091953285897,0.7586856383569646
-0.0001558207142857143,3.613867836232284,-0.05178124309845486,1.960685555340875,0.75737162201435
-0.0001558107142857143,3.617163620806004,-0.05111256051672641,1.964024509028953,0.7526411631809374
-0.0001558007142857143,3.600684697937438,-0.05031014141865398,1.957346601652832,0.7505387370327472
-0.0001557907142857143,3.620459405379724,-0.0512462970330721,1.977380323781268,0.7467280896391718
-0.0001557807142857143,3.590797344216241,-0.05138003354941779,1.957346601652796,0.7439686553196811
-0.0001557707142857143,3.613867836232284,-0.05084508748403503,1.954007647964717,0.7405522128288832
-0.0001557607142857143,3.600684697937402,-0.0499089318696152,1.970702416405111,0.7383183850464383
-0.0001557507142857143,3.597388913363687,-0.0501764049023061,1.950668694276675,0.7358217539954751
-0.0001557407142857143,3.590797344216241,-0.05084508748403503,1.927296018460089,0.7318797049676268
-0.0001557307142857143,3.571022636773919,-0.04950772232057813,1.930634972148167,0.7288574673796132
-0.0001557207142857143,3.58750155964252,-0.05057761445134365,1.930634972148167,0.7251782216202923
-0.0001557107142857143,3.597388913363682,-0.05044387793499796,1.92395706477201,0.7200535578840954
-0.0001557007142857143,3.590797344216253,-0.05017640490230707,1.900584388955502,0.7176883284673935
-0.0001556907142857143,3.584205775068824,-0.04910651277154107,1.913940203707774,0.7146660908793706
-0.0001556807142857143,3.597388913363682,-0.04910651277154107,1.913940203707774,0.7119066565598849
-0.0001556707142857143,3.564431067626478,-0.04870530322250399,1.910601250019696,0.7073075993607338
-0.0001556607142857143,3.58090999049508,-0.04977519535326951,1.87721171313891,0.7041539601384588
-0.0001556507142857143,3.58090999049508,-0.05138003354941487,1.893906481579272,0.7023143372588017
-0.0001556407142857143,3.590797344216259,-0.05178124309845048,1.8972454352674,0.6969268702540716
-0.0001556307142857143,3.600684697937402,-0.04937398580423244,1.907262296331617,0.6931162228604961
-0.0001556207142857143,3.600684697937402,-0.05017640490230658,1.860516944698517,0.6889113705641294
-0.0001556107142857143,3.571022636773919,-0.04883903973884968,1.87721171313891,0.6851007231705472
-0.0001556007142857143,3.58750155964249,-0.05017640490230415,1.840483222570112,0.6816842806797554
-0.0001555907142857143,3.587501559642508,-0.04950772232057619,1.86051694469848,0.6781364365546835
-0.0001555807142857143,3.58090999049508,-0.04843783018981261,1.840483222570045,0.6747199940638918
-0.0001555707142857143,3.5842057750688,-0.04790288412442986,1.840483222570045,0.6703837401332636
-0.0001555607142857143,3.57761420592136,-0.04910651277154107,1.840483222570045,0.6669672976424657
-0.0001555507142857143,3.600684697937402,-0.04924024928788676,1.817110546753495,0.6623682404433145
-0.0001555407142857143,3.587501559642544,-0.04817035715712318,1.830466361505785,0.6582947897812167
-0.0001555307142857143,3.564431067626478,-0.04830409367346692,1.827127407817731,0.6540899374848426
-0.0001555207142857143,3.571022636773919,-0.04883903973884968,1.790398917248866,0.651067699896829
-0.0001555107142857143,3.574318421347639,-0.04817035715712124,1.770365195120395,0.6468628476004623
-0.0001555007142857143,3.541360575610435,-0.04803662064077555,1.78038205618463,0.6435778067439258
-0.0001554907142857143,3.584205775068722,-0.04803662064077555,1.777043102496558,0.6398985609846116
-0.0001554807142857143,3.561135283052763,-0.0480366206407736,1.760348334056171,0.6339854874428326
-0.0001554707142857143,3.564431067626478,-0.04696672851001003,1.767026241432316,0.6303062416835183
-0.0001554607142857143,3.57761420592136,-0.04817035715712124,1.760348334056159,0.624787373044537
-0.0001554507142857143,3.551247929331596,-0.04817035715712124,1.746992519303844,0.6212395289194776
-0.0001554407142857143,3.547952144757882,-0.04696672851001222,1.753670426679989,0.6171660782573798
-0.0001554307142857143,3.561135283052763,-0.04656551896097223,1.74699251930379,0.6130926275952603
-0.0001554207142857143,3.564431067626478,-0.04616430941193589,1.716941936111137,0.6092819802016848
-0.0001554107142857143,3.574318421347639,-0.04683299199366434,1.71026402873498,0.6046829230025337
-0.0001554007142857143,3.554543713905317,-0.04710046502635572,1.703586121358823,0.5987698494607679
-0.0001553907142857143,3.561135283052745,-0.04616430941193759,1.703586121358823,0.5944335955301477
-0.0001553807142857143,3.564431067626495,-0.04589683637924451,1.703586121358786,0.5897031366967191
-0.0001553707142857143,3.574318421347639,-0.04589683637924451,1.683552399230351,0.5852354811318377
-0.0001553607142857143,3.561135283052757,-0.04509441728117037,1.676874491854194,0.580505022298425
-0.0001553507142857143,3.57761420592136,-0.04562936334655313,1.673535538166115,0.5757745634650125
-0.0001553407142857143,3.554543713905317,-0.04643178244462726,1.633468093909172,0.5718325144371688
-0.0001553307142857143,3.567726852200162,-0.04683299199366117,1.650162862349547,0.5673648588722697
-0.0001553207142857143,3.547952144757876,-0.04509441728117037,1.64014600128533,0.5622401951360821
-0.0001553107142857143,3.554543713905317,-0.04589683637924451,1.630129140221094,0.5573783346684081
-0.0001553007142857143,3.58090999049508,-0.04576309986289882,1.610095418092622,0.5530420807377799
-0.0001552907142857143,3.547952144757876,-0.04562936334655313,1.593400649652229,0.5471290071960143
-0.0001552807142857143,3.561135283052733,-0.04562936334655313,1.600078557028374,0.5431869581681777
-0.0001552707142857143,3.55124792933162,-0.04455947121578566,1.573366927523758,0.5383250977004876
-0.0001552607142857143,3.564431067626478,-0.04348957908502209,1.573366927523758,0.5334632372328225
-0.0001552507142857143,3.564431067626478,-0.0446932077321333,1.549994251707207,0.5280757702281026
-0.0001552407142857143,3.557839498479037,-0.04348957908502209,1.556672159083365,0.5225569015891213
-0.0001552307142857143,3.561135283052751,-0.0429546330196403,1.563350066459509,0.5173008362186724
-0.0001552207142857143,3.561135283052763,-0.04322210605232949,1.553333205395244,0.5127017790195013
-0.0001552107142857143,3.564431067626478,-0.04255342347060226,1.529960529578736,0.5069201071120075
-0.0001552007142857143,3.551247929331596,-0.04308836953598501,1.506587853762186,0.5016640417415492
-0.0001551907142857143,3.547952144757876,-0.04308836953598501,1.499909946386028,0.4974591894451825
-0.0001551807142857143,3.574318421347591,-0.04241968695425778,1.486554131633738,0.4915461159034276
-0.0001551707142857143,3.528177437315625,-0.04188474088887235,1.47987622425752,0.4866842554357321
-0.0001551607142857143,3.567726852200198,-0.04108232179079967,1.459842502129085,0.4807711818939771
-0.0001551507142857143,3.557839498479037,-0.04108232179079967,1.466520409505242,0.4763035263290875
-0.0001551407142857143,3.551247929331596,-0.04108232179079967,1.423114011560221,0.4720986740327208
-0.0001551307142857143,3.531473221889274,-0.0406811122417626,1.453164594752928,0.4652657890511249
-0.0001551207142857143,3.561135283052757,-0.04081484875810561,1.433130872624432,0.4589585106065669
-0.0001551107142857143,3.561135283052757,-0.0393437470783057,1.419775057872142,0.4546222566759466
-0.0001551007142857143,3.547952144757876,-0.03961122011099708,1.386385520991356,0.4489719864027039
-0.0001550907142857143,3.538064791036715,-0.03987869314368846,1.389724474679435,0.4443729292035528
-0.0001550807142857143,3.561135283052757,-0.03961122011099708,1.37636865992712,0.4384598556617871
-0.0001550707142857143,3.544656360184185,-0.04001242966003342,1.373029706239048,0.433072388657077
-0.0001550607142857143,3.528177437315589,-0.03921001056196025,1.359673891486764,0.4286047330921658
-0.0001550507142857143,3.547952144757876,-0.0393437470783057,1.379707613615199,0.4221660530133661
-0.0001550407142857143,3.551247929331596,-0.03854132798023156,1.322945400917863,0.415858774568816
-0.0001550307142857143,3.547952144757876,-0.03814011843119449,1.336301215670177,0.4104713075640961
-0.0001550207142857143,3.547952144757876,-0.03867506449657628,1.309589586165597,0.4048210372908636
-0.0001550107142857143,3.531473221889256,-0.03787264539850068,1.292894817725149,0.3989079637490788
-0.0001550007142857143,3.521585868168113,-0.03653528023504621,1.289555864037077,0.3940461032814137
-0.0001549907142857143,3.547952144757876,-0.03773890888215743,1.269522141908605,0.3882644313739094
-0.0001549807142857143,3.528177437315553,-0.03733769933312035,1.262844234532448,0.3824827594664052
