11-18_RX_motor/scope.csv

#Digilent WaveForms Oscilloscope Acquisition
#Device Name: ADP3450
#Serial Number: SN:210018B48834
#Date Time: 2025-11-18 17:44:43.752.442.210
#Sample rate: 1e+08Hz
#Samples: 32768
#Trigger: Source: Channel 3 Type: Edge Condition: Rising Level: 790 uV Hyst.: Auto HoldOff: 100 ns
#Channel 1: Range: 500 mV/div Offset: 0 V Attenuation: 1 X Coupling: DC Bandwidth: Full Sample Mode: Average
#Channel 2: Range: 10 mV/div Offset: 0 V Attenuation: 1 X Coupling: DC Bandwidth: Full Sample Mode: Average
#Channel 3: Range: 100 mV/div Offset: 0 V Attenuation: 1 X Coupling: DC Bandwidth: Full Sample Mode: Average
#Channel 4: Range: 100 mV/div Offset: 0 V Attenuation: 1 X Coupling: DC Bandwidth: Full Sample Mode: Average

Time (s),Channel 1 (V),Channel 2 (V),Channel 3 (V),Channel 4 (V)
-0.0001567896551724138,1.092592637336187,-0.01179402471109359,0.5159266079830432,0.2322906915055566
-0.0001567796551724138,1.118958913925951,-0.01259644380916772,0.5179315721816514,0.2307138718944191
-0.0001567696551724138,1.089296852762485,-0.01219523426012968,0.5215405077391474,0.2322906915055592
-0.0001567596551724138,1.099184206483628,-0.01166028819474789,0.5222088291386822,0.2337361094824326
-0.0001567496551724138,1.102479991057348,-0.01139281516205651,0.5252831075765481,0.2351815274593087
-0.0001567396551724138,1.066226360746424,-0.01192776122743927,0.5254167718564553,0.2361013388991389
-0.0001567296551724138,1.109071560204789,-0.01206149774378497,0.5266197503756201,0.2368897487047077
-0.0001567196551724138,1.115663129352218,-0.01206149774378497,0.5268870789354342,0.2366269454361852
-0.0001567096551724138,1.079409499041312,-0.01339886290723919,0.527689064614881,0.2357071339963531
-0.0001566996551724138,1.082705283615026,-0.01192776122743927,0.5294267002536717,0.2349187241907858
-0.0001566896551724138,1.086001068188747,-0.01353259942358755,0.5325009786915376,0.2364955438019233
-0.0001566796551724138,1.105775775631069,-0.01299765335820479,0.5342386143303313,0.2374153552417535
-0.0001566696551724138,1.072817929893925,-0.01259644380916846,0.5357089214093079,0.2389921748528882
-0.0001566596551724138,1.092592637336175,-0.01246270729282349,0.536109914249034,0.2397805846584605
-0.0001566496551724138,1.086001068188747,-0.01326512639089617,0.5370455642083828,0.2401747895612442
-0.0001566396551724138,1.109071560204789,-0.01259644380916772,0.5375802213280116,0.2401747895612442
-0.0001566296551724138,1.099184206483628,-0.01299765335820479,0.5387831998471765,0.2379409617787994
-0.0001566196551724138,1.105775775631057,-0.01420128200531381,0.5402535069261531,0.2391235764871504
-0.0001566096551724138,1.076113714467597,-0.01326512639089593,0.5418574782850455,0.2389921748528937
-0.0001565996551724138,1.082705283615026,-0.01313138987455048,0.5435951139238362,0.2404375928297671
-0.0001565896551724138,1.086001068188747,-0.01219523426013065,0.5439961067635578,0.2412260026353359
-0.0001565796551724138,1.102479991057348,-0.01259644380916772,0.5465357280817948,0.2425400189779505
-0.0001565696551724138,1.11236734477851,-0.01219523426013065,0.5469367209215165,0.242408617343689
-0.0001565596551724138,1.102479991057318,-0.01313138987455073,0.5466693923617043,0.2417516091723829
-0.0001565496551724138,1.086001068188747,-0.01326512639089617,0.5478723708808669,0.242408617343689
-0.0001565396551724138,1.082705283615026,-0.01380007245627893,0.5480060351607742,0.2421458140751661
-0.0001565296551724138,1.082705283615026,-0.01313138987455048,0.5492090136799391,0.2410946010010744
-0.0001565196551724138,1.082705283615026,-0.01299765335820479,0.5502783279191967,0.2420144124409046
-0.0001565096551724138,1.086001068188741,-0.01259644380916846,0.5521496278378943,0.2422772157094271
-0.0001564996551724138,1.076113714467585,-0.01366633593993324,0.5521496278378978,0.2434598304177807
-0.0001564896551724138,1.079409499041306,-0.01192776122743927,0.5532189420771555,0.244116838589088
-0.0001564796551724138,1.086001068188747,-0.01313138987455048,0.554154592036506,0.2433284287835192
-0.0001564696551724138,1.089296852762467,-0.01339886290724186,0.5537535991967844,0.244116838589088
-0.0001564596551724138,1.082705283615038,-0.01433501852165999,0.5542882563164121,0.2422772157094309
-0.0001564496551724138,1.092592637336163,-0.01380007245627991,0.5558922276753011,0.2430656255149958
-0.0001564396551724138,1.079409499041306,-0.01433501852166169,0.556694213354743,0.2428028222464734
-0.0001564296551724138,1.099184206483628,-0.014201282005316,0.557362534754279,0.2438540353205651
-0.0001564196551724138,1.082705283615026,-0.01299765335820479,0.557362534754279,0.2442482402233495
-0.0001564096551724138,1.092592637336169,-0.01286391684185935,0.5580308561538139,0.2441168385890882
-0.0001563996551724138,1.079409499041354,-0.01339886290724478,0.5586991775533495,0.2435912320520429
-0.0001563896551724138,1.105775775631069,-0.01500370110339014,0.5577635275940007,0.2439854369548265
-0.0001563796551724138,1.089296852762467,-0.01393380897262462,0.5585655132734439,0.2435912320520421
-0.0001563696551724138,1.089296852762467,-0.01353259942358755,0.5591001703930728,0.2433284287835192
-0.0001563596551724138,1.086001068188753,-0.01433501852166023,0.5600358203524216,0.2439854369548253
-0.0001563496551724138,1.086001068188741,-0.01446875503800495,0.5600358203524249,0.2439854369548263
-0.0001563396551724138,1.082705283615026,-0.01313138987455048,0.5609714703117737,0.2438540353205651
-0.0001563296551724138,1.082705283615026,-0.01339886290724186,0.5617734559912171,0.2446424451261338
-0.0001563196551724138,1.072817929893865,-0.01473622807069876,0.5623081131108459,0.2445110434918724
-0.0001563096551724138,1.066226360746424,-0.01393380897262462,0.5612387988715882,0.2443796418576109
-0.0001562996551724138,1.102479991057282,-0.01460249155435186,0.5617734559912161,0.2441168385890884
-0.0001562896551724138,1.056339007025263,-0.01433501852166169,0.5620407845510315,0.2431970271492578
-0.0001562796551724138,1.099184206483628,-0.014201282005316,0.5619071202711242,0.2428028222464734
-0.0001562696551724138,1.076113714467585,-0.01339886290724186,0.5617734559912171,0.2433284287835192
-0.0001562596551724138,1.079409499041306,-0.01433501852166169,0.5632437630701964,0.2435912320520421
-0.0001562496551724138,1.069522145320162,-0.01460249155435259,0.5629764345103824,0.2450366500289156
-0.0001562396551724138,1.092592637336127,-0.01246270729282495,0.5627091059505656,0.2446424451261329
-0.0001562296551724138,1.059634791598983,-0.01406754548897031,0.5616397917113098,0.244116838589088
-0.0001562196551724138,1.069522145320144,-0.01473622807069876,0.5615061274314026,0.2429342238807349
-0.0001562096551724138,1.079409499041306,-0.01486996458704445,0.5600358203524233,0.2425400189779505
-0.0001561996551724138,1.072817929893877,-0.01433501852166267,0.561238798871586,0.242277215709428
-0.0001561896551724138,1.08270528361502,-0.01353259942358707,0.560971470311775,0.2418830108066448
-0.0001561796551724138,1.079409499041306,-0.01326512639089617,0.5616397917113098,0.2428028222464734
-0.0001561696551724138,1.066226360746424,-0.01246270729282203,0.5612387988715882,0.2418830108066432
-0.0001561596551724138,1.079409499041306,-0.014201282005316,0.5620407845510315,0.2417516091723817
-0.0001561496551724138,1.072817929893877,-0.01513743761973413,0.5609714703117757,0.241357404269598
-0.0001561396551724138,1.076113714467597,-0.01446875503800762,0.5597684917926062,0.2421458140751642
-0.0001561296551724138,1.082705283615026,-0.01460249155435307,0.5582981847136295,0.2410946010010744
-0.0001561196551724138,1.072817929893865,-0.01393380897262462,0.5589665061131656,0.2397805846584598
-0.0001561096551724138,1.099184206483628,-0.01540491065242721,0.5585655132734439,0.239254978121414
-0.0001560996551724138,1.076113714467585,-0.01473622807069876,0.5586991775533512,0.2396491830241984
-0.0001560896551724138,1.076113714467585,-0.01366633593993519,0.5582981847136302,0.2392549781214147
-0.0001560796551724138,1.072817929893865,-0.01446875503800738,0.5574961990341862,0.2400433879269827
-0.0001560696551724138,1.086001068188747,-0.01406754548897031,0.5564268847949285,0.2401747895612442
-0.0001560596551724138,1.066226360746424,-0.01313138987455048,0.5554912348355781,0.2396491830241984
-0.0001560496551724138,1.082705283615026,-0.0155386471687729,0.5553575705556708,0.2380723634130608
-0.0001560396551724138,1.069522145320168,-0.01473622807070022,0.554421920596322,0.2378095601445384
-0.0001560296551724138,1.0794094990413,-0.01433501852166388,0.5536199349168773,0.2362327405334004
-0.0001560196551724138,1.076113714467585,-0.0155386471687729,0.5537535991967844,0.2362327405334004
-0.0001560096551724138,1.069522145320144,-0.0155386471687729,0.5540209277565987,0.2367583470704462
-0.0001559996551724138,1.053043222451543,-0.01380007245627893,0.5533526063570626,0.2362327405334004
-0.0001559896551724138,1.0662263607464,-0.01460249155435161,0.551882299278086,0.2359699372648779
-0.0001559796551724138,1.053043222451507,-0.01326512639089909,0.5500109993593819,0.2362327405333961
-0.0001559696551724138,1.03326851500922,-0.01486996458704445,0.5497436707995679,0.2338675111166941
-0.0001559596551724138,1.066226360746424,-0.01486996458704445,0.5474713780411453,0.2332105029453868
-0.0001559496551724138,1.059634791598983,-0.014201282005316,0.5484070280004958,0.2332105029453868
-0.0001559396551724138,1.086001068188699,-0.01393380897262511,0.5477387066009609,0.2326848964083419
-0.0001559296551724138,1.039860084156685,-0.01460249155435088,0.5458674066822585,0.2324220931398173
-0.0001559196551724138,1.053043222451543,-0.01339886290724186,0.5457337424023515,0.2320278882370337
-0.0001559096551724138,1.072817929893865,-0.01299765335820479,0.5450654210028155,0.2316336833342493
-0.0001558996551724138,1.069522145320144,-0.01393380897262462,0.5437287782037433,0.2305824702601576
-0.0001558896551724138,1.066226360746424,-0.01473622807069876,0.5421248068448569,0.2304510686258961
-0.0001558796551724138,1.062930576172698,-0.01473622807069706,0.5417238140051308,0.2299254620888491
-0.0001558696551724138,1.059634791598983,-0.01380007245627893,0.5393178569668053,0.229268453917543
-0.0001558596551724138,1.056339007025263,-0.01406754548897031,0.5387831998471765,0.2272974294036211
-0.0001558496551724138,1.053043222451543,-0.01446875503800738,0.5379812141677333,0.227560232672144
-0.0001558396551724138,1.056339007025263,-0.01406754548897031,0.5363772428088467,0.2271660277693597
-0.0001558296551724138,1.056339007025263,-0.01366633593993397,0.5367782356485675,0.2276916343064046
-0.0001558196551724138,1.062930576172692,-0.01339886290724211,0.5338376214906082,0.225983413061008
-0.0001558096551724138,1.056339007025263,-0.01353259942358755,0.5330356358111664,0.2267718228665753
-0.0001557996551724138,1.066226360746424,-0.01473622807069876,0.5312980001723726,0.2236181836443003
-0.0001557896551724138,1.056339007025263,-0.01473622807069876,0.5295603645335789,0.2240123885470846
-0.0001557796551724138,1.039860084156691,-0.01219523426013528,0.528758378854137,0.2229611754729949
-0.0001557696551724138,1.06293057617271,-0.0120614977437874,0.5271544074952466,0.2221727656674235
-0.0001557596551724138,1.066226360746424,-0.01339886290724186,0.5258177646961769,0.2217785607646398
-0.0001557496551724138,1.039860084156661,-0.01433501852166169,0.5236791362176615,0.2215157574961169
-0.0001557396551724138,1.056339007025263,-0.01259644380916772,0.5234118076578471,0.2205959460562867
-0.0001557296551724138,1.04645165330412,-0.01353259942358585,0.5218078362989634,0.220201741153503
-0.0001557196551724138,1.053043222451543,-0.01513743761973486,0.5198028721003485,0.2183621182738407
-0.0001557096551724138,1.053043222451543,-0.01460249155435307,0.5176642436218369,0.2177051101025346
-0.0001556996551724138,1.053043222451543,-0.01486996458704445,0.5172632507821153,0.2167852986627044
-0.0001556896551724138,1.043155868730381,-0.01259644380916772,0.5153919508634144,0.21639109375992
-0.0001556796551724138,1.053043222451543,-0.01353259942358755,0.5136543152246206,0.2149456757830439
-0.0001556696551724138,1.033268515009232,-0.01232897077647853,0.512585000985357,0.2157340855886107
-0.0001556596551724138,1.039860084156661,-0.01353259942358755,0.5093770582675898,0.214682872514521
-0.0001556496551724138,1.069522145320144,-0.01259644380916772,0.5079067511886105,0.212974651269122
-0.0001556396551724138,1.046451653304102,-0.01460249155435307,0.5063027798297239,0.2125804463663376
-0.0001556296551724138,1.043155868730381,-0.01366633593993324,0.5041641513512085,0.2110036267552001
-0.0001556196551724138,1.053043222451525,-0.01313138987455146,0.5034958299516736,0.2096896104125879
-0.0001556096551724138,1.043155868730381,-0.01473622807069876,0.5014908657530642,0.2091640038755397
-0.0001555996551724138,1.059634791598983,-0.01380007245627893,0.4993522372745489,0.2090326022412782
-0.0001555896551724138,1.053043222451543,-0.01313138987455048,0.4982829230352912,0.2079813891671865
-0.0001555796551724138,1.066226360746424,-0.0128639168418591,0.4957433017170542,0.2070615777273563
-0.0001555696551724138,1.056339007025281,-0.01299765335820455,0.4938720017983566,0.2078499875329236
-0.0001555596551724138,1.046451653304048,-0.01326512639089617,0.4917333733198322,0.2049591515791725
-0.0001555496551724138,1.016789592140618,-0.01326512639089617,0.4886590948819719,0.20469634831065
-0.0001555396551724138,1.03656429958294,-0.01232897077647634,0.4861194735637349,0.203250930333774
-0.0001555296551724138,1.03326851500922,-0.01299765335820479,0.485584816444106,0.2020683156254209
-0.0001555196551724138,1.039860084156649,-0.01286391684185935,0.4837135165254084,0.2007542992828086
-0.0001555096551724138,1.039860084156709,-0.01286391684185643,0.4814412237669807,0.1994402829401907
-0.0001554996551724138,1.066226360746424,-0.01139281516205651,0.4805055738076319,0.1989146764031458
-0.0001554896551724138,1.03656429958294,-0.01259644380916772,0.4785006096090237,0.1990460780374073
-0.0001554796551724138,1.016789592140618,-0.01232897077647634,0.4751590026113434,0.1979948649633156
-0.0001554696551724138,1.026676945861762,-0.01246270729282179,0.4740896883720877,0.1962866437179197
-0.0001554596551724138,1.04974743787781,-0.01179402471109334,0.4702134242547734,0.1951040290095613
-0.0001554496551724138,1.043155868730381,-0.01166028819474789,0.4684757886159828,0.1939214143012103
-0.0001554396551724138,1.039860084156661,-0.01125907864571083,0.4666044886972818,0.1927387995928572
-0.0001554296551724138,1.056339007025263,-0.01326512639089617,0.4637975388192304,0.1920817914215499
-0.0001554196551724138,1.03656429958294,-0.01232897077647634,0.461658910340715,0.1914247832502426
-0.0001554096551724138,1.010198022993225,-0.0121952342601309,0.4589856247425756,0.1891909554678018
-0.0001553996551724138,1.046451653304102,-0.01246270729282203,0.4559113463047049,0.1885339472964905
-0.0001553896551724138,1.046451653304102,-0.01259644380916772,0.453505389266375,0.1870885293196144
-0.0001553796551724138,1.003606453845737,-0.01246270729282203,0.4512330965079524,0.1855117097084769
-0.0001553696551724138,1.03656429958294,-0.01232897077647634,0.4493617965892515,0.1851175048056925
-0.0001553596551724138,1.033268515009226,-0.01166028819474911,0.4464211824312981,0.1839348900973415
-0.0001553496551724138,1.043155868730369,-0.01206149774378253,0.4450845396322153,0.1823580704862009
-0.0001553396551724138,1.03656429958294,-0.01072413258032807,0.442143925474262,0.181832463949156
-0.0001553296551724138,1.023381161288059,-0.01139281516205651,0.439604304156025,0.1805184476065414
-0.0001553196551724138,1.039860084156661,-0.01152655167840221,0.4361290328784375,0.18038704597228
-0.0001553096551724138,1.053043222451519,-0.01139281516205676,0.4327874258807632,0.1785474230926229
-0.0001552996551724138,1.026676945861756,-0.01286391684185594,0.430916125962052,0.1771020051157406
-0.0001552896551724138,1.013493807566898,-0.01112534212936513,0.4286438332036335,0.175525185504606
-0.0001552796551724138,1.039860084156661,-0.01192776122743927,0.4263715404452109,0.175262382236083
-0.0001552696551724138,1.049747437877822,-0.01179402471109359,0.4234309262872523,0.1736855626249455
-0.0001552596551724138,1.026676945861822,-0.01192776122743903,0.420356647849392,0.1731599560879006
-0.0001552496551724138,1.036564299582958,-0.01219523426012773,0.4170150408517034,0.17158313647676
-0.0001552396551724138,1.046451653304102,-0.01059039606398238,0.4155447337727267,0.170400521768409
-0.0001552296551724138,1.039860084156661,-0.01139281516205651,0.4116684696554176,0.1692179070600559
-0.0001552196551724138,1.043155868730381,-0.01206149774378497,0.4088615197773661,0.1665898743748267
-0.0001552096551724138,1.03656429958294,-0.01206149774378497,0.4076585412582012,0.165538661300735
-0.0001551996551724138,1.023381161288065,-0.0101891865149492,0.4043169342605163,0.1634362351525528
-0.0001551896551724138,1.02667694586178,-0.01232897077647634,0.4017773129422839,0.1640932433238589
-0.0001551796551724138,1.039860084156661,-0.01085786909667375,0.3985693702245108,0.1622536204441985
-0.0001551696551724138,1.053043222451543,-0.01018918651494531,0.3950940989469233,0.1614652106386298
-0.0001551596551724138,1.023381161288059,-0.01099160561301945,0.3926881419085934,0.1598883910274922
-0.0001551496551724138,1.029972730435488,-0.01125907864571034,0.3900148563104541,0.1588371779534025
-0.0001551396551724138,1.003606453845797,-0.01085786909667205,0.38587126363332,0.1575231616107833
-0.0001551296551724138,1.03656429958294,-0.009921713482253926,0.3827969851954597,0.1560777436339099
-0.0001551196551724138,1.03656429958294,-0.01045665954763669,0.3805246924370371,0.1547637272912953
-0.0001551096551724138,1.03656429958294,-0.01125907864571083,0.3765147640398207,0.1527927027773734
-0.0001550996551724138,1.010198022993225,-0.01125907864571083,0.3758464426402859,0.1521356946060673
-0.0001550896551724138,1.029972730435476,-0.01072413258032855,0.3718365142430605,0.1512158831662328
-0.0001550796551724138,1.016789592140618,-0.01099160561301945,0.3675592572860375,0.1495076619208369
-0.0001550696551724138,1.02667694586178,-0.009787976965908236,0.3654206288075221,0.1484564488467452
-0.0001550596551724138,1.016789592140618,-0.009787976965908236,0.3616780289701201,0.1462226210643004
-0.0001550496551724138,1.023381161288047,-0.01085786909667181,0.357935429132725,0.1443829981846433
-0.0001550396551724138,1.029972730435476,-0.01045665954763766,0.3552621435345679,0.1438573916475898
-0.0001550296551724138,1.016789592140618,-0.01099160561301945,0.3519205365368936,0.1414921622308879
-0.0001550196551724138,1.03326851500922,-0.009520503933216856,0.3488462580990278,0.1410979573281035
-0.0001550096551724138,1.020085376714339,-0.009787976965908236,0.3463066367807908,0.1399153426197503
-0.0001549996551724138,1.039860084156661,-0.01018918651494531,0.3432323583429249,0.1382071213743514
-0.0001549896551724138,1.049747437877792,-0.009787976965907993,0.3405590727447711,0.1376815148373024
-0.0001549796551724138,1.03326851500922,-0.009654240449562547,0.3353461658283993,0.1359732935919065
-0.0001549696551724138,1.013493807566898,-0.008316875286105647,0.3326728802302551,0.1347906788835534
-0.0001549596551724138,1.020085376714339,-0.009386767416871167,0.3297322660722964,0.1317684412955398
-0.0001549496551724138,1.003606453845737,-0.009253030900525476,0.3254550091152656,0.1297974167816179
-0.0001549396551724138,1.026676945861738,-0.00911929438418003,0.3229153877970332,0.1296660151473567
-0.0001549296551724138,1.026676945861744,-0.008718084835144906,0.3195737807993412,0.1279577939019546
-0.0001549196551724138,1.006902238419457,-0.009921713482253926,0.3156975166820391,0.12638097429082
-0.0001549096551724138,1.006902238419457,-0.009386767416871167,0.31182125256473,0.1257239661195127
-0.0001548996551724138,1.003606453845737,-0.009520503933216856,0.3090143026866785,0.1238843432398522
-0.0001548896551724138,1.020085376714309,-0.009921713482253196,0.3048707100095625,0.1223075236287176
-0.0001548796551724138,1.010198022993213,-0.01032292303128856,0.3011281101721474,0.120073695846269
