12-02_current/withR/trace.csv

#Digilent WaveForms Oscilloscope Acquisition
#Device Name: ADP3450
#Serial Number: SN:210018B48834
#Date Time: 2025-12-02 15:09:04.481.047.910
#Sample rate: 1e+08Hz
#Samples: 32768
#Trigger: Source: Channel 3 Type: Edge Condition: Rising Level: 790 uV Hyst.: Auto HoldOff: 100 ns
#Channel 1: Range: 1 V/div Offset: 0 V Attenuation: 1 X Coupling: DC Bandwidth: Full Sample Mode: Average
#Channel 2: Range: 100 mV/div Offset: 0 V Attenuation: 1 X Coupling: DC Bandwidth: Full Sample Mode: Average
#Channel 3: Range: 500 mV/div Offset: 0 V Attenuation: 1 X Coupling: DC Bandwidth: Full Sample Mode: Average
#Channel 4: Range: 1 V/div Offset: 0 V Attenuation: 10 X Coupling: DC Bandwidth: Full Sample Mode: Average

Time (s),Channel 1 (V),Channel 2 (V),Channel 3 (V),Channel 4 (V)
-0.000159467,1.0299727304355,0.1204713899547937,-0.4133105168830072,1.223075236287147
-0.000159457,1.03656429958294,0.1226111742163248,-0.4300052853234002,1.208621056518386
-0.000159447,1.059634791598935,0.1243497489288229,-0.4199884242591401,1.205993023833138
-0.000159437,1.03326851500922,0.1266232697066954,-0.40663260950685,1.19548089309224
-0.000159427,1.023381161288059,0.1288967904845722,-0.389937841066457,1.179712696980865
-0.000159417,1.03656429958294,0.1323739399095601,-0.40663260950685,1.169200566239949
-0.000159407,1.010198022993178,0.1321064668768687,-0.40663260950685,1.166572533554719
-0.000159397,1.006902238419463,0.1335775685566687,-0.4099715631949226,1.16131646818427
-0.000159387,1.026676945861786,0.1339787781057103,-0.3966157484426506,1.149490321100713
-0.000159377,1.0299727304355,0.1350486702364739,-0.4166494705710858,1.140292206702427
-0.000159367,1.039860084156661,0.1359848258508937,-0.3932767947545356,1.135036141331969
-0.000159357,1.02667694586178,0.1385258196614619,-0.3832599336902998,1.127152043276281
-0.000159347,1.02667694586178,0.1403981308902981,-0.3732430726260823,1.123209994248445
-0.000159337,1.029972730435512,0.1413342865047233,-0.3899378410664692,1.111383847164887
-0.000159327,1.03656429958294,0.1424041786354868,-0.3966157484426142,1.100871716423989
-0.000159317,1.03326851500922,0.1442764898643265,-0.373243072626064,1.089045569340458
-0.000159307,1.03656429958294,0.1450789089624006,-0.3832599336902998,1.079847454942156
-0.000159297,1.01349380756694,0.1469512201912369,-0.3799209800022273,1.081161471284768
-0.000159287,1.036564299582911,0.1492247409691158,-0.3699041189379673,1.057509177117708
-0.000159277,1.020085376714339,0.1485560583873886,-0.3598872578737496,1.057509177117708
-0.000159267,1.020085376714339,0.1513645252306481,-0.3498703968095139,1.041740981006333
-0.000159257,1.016789592140618,0.1517657347796851,-0.3632262115618283,1.033856882950645
-0.000159247,1.020085376714339,0.1539055190412162,-0.3431924894333567,1.033856882950645
-0.000159237,1.016789592140636,0.1547079381392937,-0.3264977209930548,1.025972784894909
-0.000159227,1.02667694586178,0.15658024936813,-0.3765820263141426,0.9996924580426654
-0.000159217,1.010198022993178,0.1577838780152412,-0.3665651652499068,0.9865522946165194
-0.000159207,1.02667694586178,0.1589875066623524,-0.3498703968095139,0.9799822129034464
-0.000159197,1.006902238419457,0.1611272909238834,-0.3598872578737496,0.9642140167920712
-0.000159187,1.0167895921406,0.1616622369892652,-0.329836674681097,0.9576439350790102
-0.000159177,1.006902238419457,0.1629996021527231,-0.3398535357452781,0.9471318043380815
-0.000159167,1.013493807566898,0.1638020212507972,-0.3331756283691209,0.9537018860511545
-0.000159157,1.0299727304355,0.1650056498979084,-0.3398535357452781,0.9274215591988625
-0.000159147,1.0299727304355,0.1663430150613653,-0.3365145820571995,0.9195374611431749
-0.000159137,1.010198022993213,0.1675466437084744,-0.3365145820571995,0.9090253304022772
-0.000159127,1.029972730435464,0.168482799322901,-0.3398535357452356,0.9063972977170074
-0.000159117,1.010198022993178,0.1710237931334645,-0.3164808599287279,0.8945711506334976
-0.000159107,1.023381161288059,0.1719599487478843,-0.3164808599287279,0.8788029545221224
-0.000159097,1.03656429958294,0.1740997330094154,-0.3264977209929637,0.8722328728090494
-0.000159087,1.020085376714369,0.1746346790747971,-0.3098029525526011,0.8604067257255396
-0.000159077,1.036564299582893,0.1755708346892211,-0.316480859928734,0.8485805786419747
-0.000159067,1.010198022993178,0.1773094094017119,-0.3198198136168065,0.8420104969289136
-0.000159057,1.03656429958294,0.1787805110815145,-0.3098029525525707,0.8354404152158407
-0.000159047,1.02667694586178,0.1783793015324774,-0.2964471378002563,0.8196722191044654
-0.000159037,1.02667694586178,0.1790479841142047,-0.2964471378002563,0.8144161537340167
-0.000159027,1.020085376714381,0.1817227144411209,-0.3064639988644314,0.8012759903078396
-0.000159017,1.043155868730381,0.1823913970228481,-0.2730744619837062,0.7894498432243298
-0.000159007,1.023381161288059,0.1839962352189964,-0.2864302767360206,0.7907638595669443
-0.000158997,1.059634791598983,0.1846649178007249,-0.2830913230479419,0.7697395980851107
-0.000158987,1.020085376714339,0.1866709655459102,-0.2830913230479419,0.7657975490572669
-0.000158977,1.026676945861768,0.1886770132910919,-0.2697355082956518,0.7552854183163693
-0.000158967,1.039860084156661,0.1890782228401326,-0.266396554607549,0.739517222204975
-0.000158957,1.02667694586178,0.1885432767747499,-0.2764134156717847,0.726377058778829
-0.000158947,1.023381161288059,0.1905493245199352,-0.2730744619837062,0.7237490260935998
-0.000158937,1.03326851500922,0.191485480134355,-0.266396554607549,0.7079808299822247
-0.000158927,1.029972730435506,0.1932240548468458,-0.2697355082956215,0.7027247646117758
-0.000158917,1.029972730435482,0.1933577913631969,-0.2430238787910292,0.6882705848429865
-0.000158907,1.020085376714339,0.1945614200103059,-0.2597186472313918,0.6777584541020889
-0.000158897,1.016789592140618,0.1968349407881826,-0.249701786167156,0.6685603397037867
-0.000158887,1.013493807566898,0.1968349407881826,-0.249701786167156,0.6501641109071823
-0.000158877,1.006902238419469,0.1967012042718372,-0.2363459714148659,0.6514781272497945
-0.000158867,1.033268515009256,0.1981723059516422,-0.259718647231331,0.6304538657679561
-0.000158857,1.053043222451543,0.1996434076314421,-0.2263291103506058,0.6265118167401196
-0.000158847,1.016789592140618,0.2004458267295162,-0.2062953882221342,0.6094296042861298
-0.000158837,1.03656429958294,0.202719347507393,-0.2463628324790774,0.6041735389156714
-0.000158827,1.01349380756694,0.2031205570564293,-0.2330070177267873,0.5910333754895493
-0.000158817,1.03326851500922,0.2039229761545061,-0.2363459714148477,0.573951163035507
-0.000158807,1.03326851500922,0.2049928682852697,-0.2396849251029202,0.5581829669241605
-0.000158797,1.010198022993178,0.2067314429977637,-0.2096343419102128,0.5476708361832436
-0.000158787,1.023381161288059,0.2071326525468007,-0.2096343419102128,0.5397867381275561
-0.000158777,1.049747437877822,0.2063302334487266,-0.2029564345340556,0.5266465747014101
-0.000158767,1.000310669272106,0.2084700177102538,-0.2096343419102007,0.5213905093309612
-0.000158757,1.013493807566898,0.2094061733246775,-0.1962785271578985,0.5213905093309517
-0.000158747,1.020085376714339,0.2100748559064059,-0.1896006197817413,0.4951101824786597
-0.000158737,1.02667694586178,0.2111447480371715,-0.1896006197817413,0.4872260844229721
-0.000158727,0.997014884698296,0.2123483766842827,-0.1795837587175055,0.4780279700246699
-0.000158717,1.023381161288011,0.212749586233319,-0.1862616660936505,0.4648878065985479
-0.000158707,1.033268515009178,0.2135520053313934,-0.1729058513413301,0.4583177248854294
-0.000158697,1.010198022993178,0.2132845322987025,-0.1628889902771125,0.4464915778019196
-0.000158687,1.02667694586178,0.2152905800438878,-0.1628889902771125,0.438607479746232
-0.000158677,1.013493807566898,0.2158255261092706,-0.1695668976532697,0.4175832182643984
-0.000158667,1.016789592140612,0.2179653103707977,-0.1428552681486895,0.4110131365513374
-0.000158657,1.036564299582905,0.218232783403493,-0.152872129212901,0.4070710875234434
-0.000158647,1.016789592140618,0.218232783403493,-0.1662279439651911,0.3860468260416481
-0.000158637,1.02667694586178,0.2197038850832956,-0.1495331755247981,0.3834187933564189
-0.000158627,1.010198022993178,0.2191689390179128,-0.1562110829009553,0.3702786299302729
-0.000158617,1.02667694586175,0.2206400406977128,-0.1361773607725202,0.3571384665041508
-0.000158607,1.029972730435428,0.221442459795792,-0.1261604997082661,0.3321721559944448
-0.000158597,0.9904233155508553,0.2227798249592465,-0.1361773607724837,0.3295441233092203
-0.000158587,1.016789592140618,0.2223786154102094,-0.1128046849559335,0.3137759271978451
-0.000158577,1.03656429958294,0.223849717090012,-0.1395163144605623,0.304577812799543
-0.000158567,1.020085376714339,0.2217099328284809,-0.1128046849559335,0.304577812799543
-0.000158557,1.023381161288047,0.2254545552861564,-0.1294994533963265,0.3085198618273222
-0.000158547,1.016789592140618,0.2233147710246292,-0.1294994533963265,0.2730414205767926
-0.000158537,1.006902238419457,0.2255882918025059,-0.1061267775797763,0.2283648649278963
-0.000158527,1.03656429958294,0.2257220283188517,-0.07273724069899037,0.2375629793261985
-0.000158517,1.010198022993178,0.2267919204496172,-0.09944887020361914,0.2559592081228029
-0.000158507,1.016789592140606,0.2270593934823081,-0.1061267775797642,0.2283648649279465
-0.000158497,1.003606453845791,0.2269256569659646,-0.08609305545129869,0.2112826524738946
-0.000158487,1.03326851500922,0.2278618125803827,-0.08275410176322617,0.2047125707608335
-0.000158477,1.0299727304355,0.2287979681948025,-0.08609305545130477,0.1955144563625314
-0.000158467,1.013493807566898,0.2287979681948025,-0.08943200913938336,0.1942004400199168
-0.000158457,1.020085376714327,0.2300015968419115,-0.07607619438709327,0.1744901948807337
-0.000158447,1.013493807566892,0.2308040159399891,-0.1128046849558789,0.1587219987692916
-0.000158437,1.010198022993178,0.2314726985217163,-0.08275410176322617,0.1416397863153329
-0.000158427,1.020085376714339,0.2321413811034448,-0.07941514807514757,0.1363837209448745
-0.000158417,1.006902238419457,0.2320076445870991,-0.059381425946676,0.1258715902039577
-0.000158407,1.003606453845743,0.2332112732342081,-0.06939828701089357,0.1166734758056722
-0.000158397,1.020085376714339,0.2353510574957394,-0.08609305545123797,0.1087893777499344
-0.000158387,1.020085376714339,0.2342811653649758,-0.0493645648824402,0.09039314895336353
-0.000158377,1.003606453845737,0.2350835844630499,-0.03600875013012582,0.07988101821244672
-0.000158367,1.013493807566898,0.2340136923322844,-0.06272037963475459,0.07593896918460294
-0.000158357,1.013493807566898,0.2358860035611241,-0.03600875013012582,0.05885675673061317
-0.000158347,1.010198022993225,0.2368221591755449,-0.04936456488242805,0.04308856061921409
-0.000158337,1.03656429958294,0.2373571052409267,-0.04268665750628302,0.02994839719309201
-0.000158327,1.020085376714339,0.2381595243390008,-0.06272037963475459,0.03389044622093581
-0.000158317,1.016789592140618,0.2378920513063094,-0.04602561119436161,0.02469233182263362
-0.000158307,0.9904233155508553,0.237223368724581,-0.01263607431357565,-0.0002739786870437425
-0.000158297,1.016789592140571,0.2380257878226537,-0.02265293537779322,-0.01735619114100245
-0.000158287,1.020085376714339,0.2360197400774698,-0.005958166937418456,-0.02261225651149191
-0.000158277,1.006902238419457,0.2360197400774698,-0.01931398168973284,-0.0304963545671795
-0.000158267,1.02667694586178,0.2358860035611241,-0.01597502800165424,-0.05152061604901306
-0.000158257,1.006902238419457,0.2373571052409267,0.004058694126817333,-0.05020659970639847
-0.000158247,1.039860084156601,0.2388282069207266,-0.009297120625472758,-0.07254487753080599
-0.000158237,1.043155868730322,0.2384269973716946,0.007397647814914149,-0.08305700827176818
-0.000158227,1.010198022993178,0.2397643625351491,0.01741450887913172,-0.08568504095699261
-0.000158217,1.0299727304355,0.2416366737639888,0.01407555519105312,-0.0988252043831386
-0.000158207,1.03656429958294,0.2413692007312974,0.007397647814895929,-0.1145934004945138
-0.000158197,1.010198022993225,0.2408342546659156,0.02743136994333107,-0.122477498550187
-0.000158187,1.010198022993184,0.2400318355678427,0.0441261383837119,-0.1408737273467938
-0.000158177,1.013493807566898,0.2412354642149517,0.01741450887913172,-0.1343036456337327
-0.000158167,1.010198022993178,0.2408342546659146,0.01407555519105312,-0.1553279071155663
-0.000158157,1.016789592140618,0.2402993086005318,0.02409241625528891,-0.1579559398007955
-0.000158147,0.9937191001246176,0.2404330451168773,0.05080404575986909,-0.1671540541990809
-0.000158137,1.023381161288035,0.2404330451168788,0.04412613838374834,-0.1802942176252652
-0.000158127,1.010198022993178,0.241101727698606,0.03744823100760329,-0.1921203647087751
-0.000158117,0.9871275309771349,0.2409679911822603,0.05748195313607488,-0.2000044627644626
-0.000158107,1.023381161288059,0.2416366737639888,0.06749881420031066,-0.2144586425332232
-0.000158097,1.010198022993178,0.241101727698606,0.06749881420031066,-0.2236567569315254
-0.000158087,1.016789592140606,0.2413692007312969,0.06749881420031066,-0.2302268386445864
-0.000158077,0.997014884698296,0.2396306260188034,0.07083776788838926,-0.251251100126432
-0.000158067,1.020085376714339,0.241101727698606,0.07083776788838926,-0.2525651164690466
-0.000158057,1.003606453845737,0.2405667816332232,0.07751567526454645,-0.2367969203576714
-0.000158047,1.006902238419457,0.2405667816332232,0.09087149001686083,-0.3011837211457867
-0.000158037,0.9904233155508853,0.2394968895024596,0.08085462895264327,-0.2762174106361547
-0.000158027,1.029972730435464,0.2428403024110943,0.07751567526454037,-0.3064397865161878
-0.000158017,1.010198022993178,0.2397643625351491,0.07417672157646785,-0.2749033942934948
-0.000158007,1.0299727304355,0.2412354642149517,0.07083776788838926,-0.3261500316554641
-0.000157997,1.023381161288059,0.2416366737639888,0.08753253632878225,-0.2972416721179429
-0.000157987,0.9937191001246296,0.2408342546659161,0.1042273047691449,-0.3287780643406359
-0.000157977,1.03326851500922,0.24003183556784,0.1075662584572599,-0.335348146053795
-0.000157967,1.03326851500922,0.2397643625351491,0.1109052121453324,-0.3511163421651414
-0.000157957,1.010198022993178,0.239363152986112,0.1175831195214896,-0.3195799499423911
-0.000157947,1.046451653304102,0.2390956799534206,0.1442947490261184,-0.3130098682293181
-0.000157937,1.016789592140672,0.2396306260188024,0.1209220732096107,-0.1960624137368316
-0.000157927,1.076113714467501,0.2404330451168812,0.1442947490261305,0.119301508491573
-0.000157917,1.0299727304355,0.2424390928620629,0.1509726564022756,0.4977382151638889
-0.000157907,1.082705283615026,0.2346823749140129,0.1609895174665114,0.7342611568345165
-0.000157897,1.039860084156661,0.2437764580255198,0.1576505637784328,1.107441798137062
-0.000157887,1.109071560204789,0.2346823749140129,0.1843621932830615,1.068021307858624
-0.000157877,1.069522145320192,0.2373571052409301,0.1543116100904028,1.150804337442565
-0.000157867,1.095888421909908,0.2392294164697663,0.1810232395949829,0.7224350097509852
-0.000157857,1.089296852762467,0.2352173209793956,0.1710063785307472,0.7079808299822247
-0.000157847,1.086001068188747,0.2412354642149517,0.1710063785307472,0.5476708361832436
-0.000157837,1.118958913925951,0.2329438002015189,0.1743453322188258,0.3374282213649079
-0.000157827,1.079409499041378,0.2417704102803184,0.1710063785307532,0.4911681334505362
-0.000157817,1.08270528361505,0.2377583147899586,0.1843621932831162,0.4806560027102768
-0.000157807,1.095888421909908,0.2349498479467043,0.2144127764757689,0.6882705848430056
-0.000157797,1.066226360746424,0.2390956799534206,0.2010569617234545,0.7618555000294231
-0.000157787,1.086001068188747,0.2324088541361361,0.1877011469711401,0.8945711506334976
-0.000157777,1.079409499041318,0.2345486383976633,0.2010569617234302,1.060137209802636
-0.000157767,1.086001068188795,0.2341474288486279,0.211073822787666,0.9471318043381771
-0.000157757,1.11236734477851,0.2329438002015189,0.1977180080353759,0.9996924580426654
-0.000157747,1.099184206483628,0.2358860035611241,0.2110738227876903,0.8945711506334976
-0.000157737,1.066226360746424,0.2332112732342103,0.2244296375400047,0.8459525459567574
-0.000157727,1.086001068188711,0.2330775367178649,0.2144127764757871,0.7960199249374935
-0.000157717,1.086001068188789,0.2333450097505528,0.2144127764757689,0.7907638595669586
-0.000157707,1.109071560204789,0.231606435038062,0.2144127764757689,0.7986479576226319
-0.000157697,1.089296852762467,0.233746219299593,0.2344464986042405,0.873546889151664
-0.000157687,1.082705283615026,0.2300015968419137,0.2277685912280833,0.8748609054942785
-0.000157677,1.138733621368273,0.2310714889726792,0.2311075449161619,0.9734121311903734
-0.000157667,1.072817929893889,0.2289317047111514,0.2578191744207603,0.9852382782739575
-0.000157657,1.086001068188747,0.2306702794236422,0.2411244059803977,1.014146637811426
-0.000157647,1.082705283615026,0.2305365429072965,0.2478023133565549,1.040426964663718
-0.000157637,1.105775775631069,0.2302690698746051,0.2678360354850264,1.012832621468811
-0.000157627,1.092592637336187,0.2309377524563336,0.271174989173105,1.060137209802937
-0.000157617,1.125550483073331,0.227193129998661,0.3045645260538303,0.9878663109592655
-0.000157607,1.158508328810463,0.2255882918025001,0.2845308039254801,1.01414663781138
-0.000157597,1.086001068188747,0.2223786154102094,0.3179203408062054,0.9891803273017487
-0.000157587,1.145325190515714,0.2223786154102094,0.2945476649896552,1.058823193460322
-0.000157577,1.102479991057348,0.2168954182400361,0.2845308039254194,1.027286801237572
-0.000157567,1.171691467105351,0.2271931299986355,0.287869757613492,1.036484915635857
-0.000157557,1.161804113384321,0.2205063041813807,0.32459824818232,1.212563105545874
-0.000157547,1.165099897958036,0.2265244474169258,0.3012255723658124,1.016774670496655
-0.000157537,1.165099897958036,0.2203725676650241,0.3145813871181268,1.224389252629762
-0.000157527,1.125550483073391,0.2210412502467525,0.3179203408062054,1.074591389571697
-0.000157517,1.148620975089392,0.2209075137304071,0.3012255723658427,1.209935072860755
-0.000157507,1.122254698499689,0.2241171901227056,0.3179203408062358,1.028600817580571
-0.000157497,1.132142052220832,0.2253208187698146,0.3346151092465984,1.240157448741137
-0.000157487,1.135437836794552,0.2189014659852214,0.304564526053891,1.141606223045042
-0.000157477,1.155212544236875,0.2193026755342585,0.3346151092465984,1.158688435499032
-0.000157467,1.138733621368273,0.2146218974621594,0.3346151092465984,1.19810892577747
-0.000157457,1.125550483073463,0.2148893704948466,0.3312761555585562,1.211249089203592
-0.000157447,1.165099897958036,0.212615849716974,0.3513098776869913,1.19810892577747
-0.000157437,1.165099897958036,0.2132845322987025,0.3479709239989128,1.16394450086949
-0.000157427,1.142029405941993,0.2106098019717887,0.3446319703108341,1.238843432398522
-0.000157417,1.122254698499671,0.2111447480371715,0.3379540629346769,1.227017285314991
-0.000157407,1.158508328810529,0.2118134306188987,0.3379540629346769,1.228331301657603
-0.000157397,1.122254698499671,0.212214640167937,0.3412930166227556,1.266437775593429
-0.000157387,1.155212544236875,0.2130170592660111,0.3646656924393057,1.269065808278658
-0.000157377,1.132142052220832,0.2088712272592947,0.3680046461273843,1.29534613513095
-0.000157367,1.155212544236875,0.2072663890631465,0.3479709239989128,1.22964531800022
-0.000157357,1.145325190515732,0.2043241857035466,0.3579877850631303,1.326882527353523
-0.000157347,1.142029405941957,0.2052603413179596,0.3713435998154812,1.24409949776911
-0.000157337,1.122254698499671,0.204457922219887,0.3813604608796987,1.315056380270169
-0.000157327,1.138733621368273,0.2032542935727757,0.3813604608796987,1.273007857306502
-0.000157317,1.145325190515714,0.2032542935727757,0.3947162756320131,1.346592772492919
-0.000157307,1.109071560204855,0.2019169284093213,0.3613267387512878,1.31111433124239
